Division,WeightClassKg,Place,Name,Team,BodyweightKg,Best3SquatKg,Best3BenchKg,Best3DeadliftKg,TotalKg,Equipment,Event,Sex
Girls,44.23,1,Emily Franklin,Shepherd,41.37,95.25,45.36,92.99,233.6,Single-ply,SBD,F
Girls,44.23,2,Kristen Minatre,Livingston,44.18,77.11,34.02,70.31,181.44,Single-ply,SBD,F
Girls,47.85,1,Valerie Avango,Channelview,45.18,97.52,40.82,108.86,247.21,Single-ply,SBD,F
Girls,47.85,2,Madisyn Marbury,Livingston,47.72,106.59,52.16,88.45,247.21,Single-ply,SBD,F
Girls,47.85,3,Ariana Luna,Channelview,45.45,90.72,38.56,104.33,233.6,Single-ply,SBD,F
Girls,47.85,4,Jocelyn Hernandez,Channelview,45.99,81.65,36.29,88.45,206.38,Single-ply,SBD,F
Girls,47.85,5,Abigale Riggs,Splendora,46.36,72.57,29.48,83.91,185.97,Single-ply,SBD,F
Girls,47.85,6,Jasmine Esturba,Huntsville,47.81,77.11,24.95,81.65,183.7,Single-ply,SBD,F
Girls,47.85,DQ,Yessenia Mata,Splendora,47.63,,,,,Single-ply,SBD,F
Girls,51.94,1,Madison Williams,Cleveland Tarkington,49.8,129.27,54.43,124.74,308.44,Single-ply,SBD,F
Girls,51.94,2,Sarahi Rodriguez,Splendora,51.8,90.72,47.63,115.67,254.01,Single-ply,SBD,F
Girls,51.94,3,Wiam SehLaoui,Huntsville,50.53,95.25,52.16,99.79,247.21,Single-ply,SBD,F
Girls,51.94,4,Alexis Ehrlich,Shepherd,51.07,97.52,47.63,95.25,240.4,Single-ply,SBD,F
Girls,56.02,1,Ava Higginbotham,Splendora,53.25,138.35,61.23,136.08,335.66,Single-ply,SBD,F
Girls,56.02,2,Kalani Hayden,Montgomery,55.07,122.47,47.63,131.54,301.64,Single-ply,SBD,F
Girls,56.02,3,Maddie Chappell,Montgomery,54.43,113.4,45.36,117.93,276.69,Single-ply,SBD,F
Girls,56.02,4,Brooke Smalley,Montgomery,55.43,117.93,45.36,106.59,269.89,Single-ply,SBD,F
Girls,56.02,5,Karli Reeves,Montgomery,53.52,111.13,40.82,115.67,267.62,Single-ply,SBD,F
Girls,56.02,6,Sharla Ruiz,Shepherd,55.47,102.06,54.43,102.06,258.55,Single-ply,SBD,F
Girls,56.02,7,Brisa Carmona,Splendora,53.52,102.06,52.16,102.06,256.28,Single-ply,SBD,F
Girls,56.02,8,Fernanda Galvez,Splendora,53.43,99.79,49.9,104.33,254.01,Single-ply,SBD,F
Girls,56.02,9,Angela Cristello,Shepherd,55.57,95.25,54.43,92.99,242.67,Single-ply,SBD,F
Girls,56.02,10,Chandria Ivory,Livingston,55.97,92.99,38.56,108.86,240.4,Single-ply,SBD,F
Girls,56.02,11,Shelbie Ferguson,Shepherd,53.75,83.91,54.43,88.45,226.8,Single-ply,SBD,F
Girls,56.02,12,Madison Harrison,Cleveland Tarkington,52.8,70.31,43.09,83.91,197.31,Single-ply,SBD,F
Girls,56.02,13,Riley Harrell,Huntsville,52.89,72.57,36.29,88.45,197.31,Single-ply,SBD,F
Girls,56.02,14,Riley Molnes,Huntsville,52.71,77.11,38.56,79.38,195.04,Single-ply,SBD,F
Girls,56.02,15,Wendy Butcher,Montgomery,55.61,49.9,34.02,83.91,167.83,Single-ply,SBD,F
Girls,56.02,DQ,Maritza Catalan,Channelview,55.79,,,,,Single-ply,SBD,F
Girls,60.1,1,Hannah Blanchard,Splendora,57.42,142.88,81.65,115.67,340.19,Single-ply,SBD,F
Girls,60.1,2,Joselin Lara,Channelview,59.6,136.08,52.16,145.15,333.39,Single-ply,SBD,F
Girls,60.1,3,Madalyn Hollingsworth,Cleveland Tarkington,56.43,106.59,58.97,140.61,306.17,Single-ply,SBD,F
Girls,60.1,4,Courtney Calvert,Montgomery,59.69,120.2,56.7,113.4,290.3,Single-ply,SBD,F
Girls,60.1,5,Jasmin Yanez,Channelview,56.25,117.93,54.43,115.67,288.03,Single-ply,SBD,F
Girls,60.1,6,Gia Wilson,Splendora,59.42,117.93,61.23,104.33,283.5,Single-ply,SBD,F
Girls,60.1,7,Morgan Adkison,Splendora,57.15,115.67,61.23,102.06,278.96,Single-ply,SBD,F
Girls,60.1,8,Serenity Whitworth,Splendora,56.88,113.4,52.16,106.59,272.16,Single-ply,SBD,F
Girls,60.1,9,Kaylene Gaviria,Splendora,58.51,108.86,43.09,115.67,267.62,Single-ply,SBD,F
Girls,60.1,10,Maria Gutierrez,Livingston,59.6,92.99,43.09,104.33,240.4,Single-ply,SBD,F
Girls,60.1,DQ,Mia Shew,Cleveland Tarkington,58.97,,,,,Single-ply,SBD,F
Girls,67.36,1,Erieanna Lopez,Shepherd,64.86,172.37,97.52,172.37,442.25,Single-ply,SBD,F
Girls,67.36,2,Victoria Pena,Splendora,65.77,163.29,74.84,158.76,396.89,Single-ply,SBD,F
Girls,67.36,3,Alissa Cassell,Splendora,64.41,122.47,61.23,124.74,308.44,Single-ply,SBD,F
Girls,67.36,4,Isela Garza,Klein Cain,63.14,124.74,61.23,120.2,306.17,Single-ply,SBD,F
Girls,67.36,5,Micaela Lowery,Montgomery,66.04,120.2,61.23,122.47,303.91,Single-ply,SBD,F
Girls,67.36,6,Nicole Nelson #2,Shepherd,62.14,115.67,54.43,127.01,297.1,Single-ply,SBD,F
Girls,67.36,7,McKinzy Franklin,Shepherd,64.41,127.01,56.7,111.13,294.84,Single-ply,SBD,F
Girls,67.36,8,Kathrine Henke,Huntsville,61.51,102.06,58.97,111.13,272.16,Single-ply,SBD,F
Girls,67.36,9,Cameron Baker #1,Cleveland Tarkington,63.87,104.33,54.43,111.13,269.89,Single-ply,SBD,F
Girls,67.36,10,Destiny Houseman,Splendora,66.59,111.13,47.63,102.06,260.82,Single-ply,SBD,F
Girls,67.36,11,Savannah Williams,Cleveland Tarkington,60.42,79.38,61.23,106.59,247.21,Single-ply,SBD,F
Girls,67.36,12,Mikayla Bogany,Shepherd,66.77,90.72,45.36,108.86,244.94,Single-ply,SBD,F
Girls,67.36,13,Torre Giron,Channelview,62.41,90.72,38.56,113.4,242.67,Single-ply,SBD,F
Girls,67.36,14,Jamia Collins,Livingston,66.04,106.59,43.09,92.99,242.67,Single-ply,SBD,F
Girls,67.36,15,Bryana Juarez,Livingston,66.13,90.72,29.48,97.52,217.72,Single-ply,SBD,F
Girls,67.36,16,Madison Stephens,Shepherd,61.55,79.38,36.29,92.99,208.65,Single-ply,SBD,F
Girls,67.36,DQ,Morgan Young,Shepherd,65.68,111.13,,,,Single-ply,SBD,F
Girls,75.07,1,Maighan Beck,Shepherd,70.08,167.83,79.38,131.54,378.75,Single-ply,SBD,F
Girls,75.07,2,Shelby Dean,Shepherd,70.94,133.81,63.5,142.88,340.19,Single-ply,SBD,F
Girls,75.07,3,Allie Botello,Livingston,68.31,133.81,52.16,138.35,324.32,Single-ply,SBD,F
Girls,75.07,4,Cora Sievertson,Shepherd,72.48,138.35,58.97,120.2,317.51,Single-ply,SBD,F
Girls,75.07,5,Jessica Sierra,Channelview,74.84,122.47,56.7,113.4,292.57,Single-ply,SBD,F
Girls,75.07,6,Lisbeth Manzano,Splendora,71.49,113.4,52.16,111.13,276.69,Single-ply,SBD,F
Girls,75.07,7,Elizabeth Palafox,Shepherd,69.04,111.13,58.97,97.52,267.62,Single-ply,SBD,F
Girls,75.07,8,Emma Johnson,Montgomery,71.94,102.06,47.63,115.67,265.35,Single-ply,SBD,F
Girls,75.07,9,Suriel Alvarez,Splendora,74.84,102.06,49.9,111.13,263.08,Single-ply,SBD,F
Girls,75.07,10,Nicole Carley,Cleveland Tarkington,75.02,83.91,45.36,90.72,219.99,Single-ply,SBD,F
Girls,75.07,11,Cassidy Landrum,Huntsville,70.13,77.11,34.02,95.25,206.38,Single-ply,SBD,F
Girls,75.07,DQ,Chloe Monreal,Livingston,74.84,,,,,Single-ply,SBD,F
Girls,82.33,1,Marlinda Dunham,Livingston,81.56,158.76,56.7,147.42,362.87,Single-ply,SBD,F
Girls,82.33,2,Gabbie Daniels,Montgomery,80.1,136.08,70.31,147.42,353.8,Single-ply,SBD,F
Girls,82.33,3,Gabby Kratzer,Livingston,81.1,124.74,54.43,111.13,290.3,Single-ply,SBD,F
Girls,82.33,4,Nicole Maldonado,Shepherd,76.52,122.47,56.7,106.59,285.76,Single-ply,SBD,F
Girls,82.33,5,Kayla Morgan,Cleveland Tarkington,75.75,102.06,49.9,117.93,269.89,Single-ply,SBD,F
Girls,82.33,DQ,Bailey Barrett #1,Livingston,82.1,,,,,Single-ply,SBD,F
Girls,90.04,1,Hope Anderson,Cleveland Tarkington,89.81,142.88,54.43,127.01,324.32,Single-ply,SBD,F
Girls,90.04,2,Katlyne Pollard,Shepherd,89.4,131.54,65.77,115.67,312.98,Single-ply,SBD,F
Girls,90.04,3,Natalie Davis,Montgomery,82.64,113.4,43.09,120.2,276.69,Single-ply,SBD,F
Girls,90.04,4,Neida Trejo,Splendora,82.83,108.86,54.43,102.06,265.35,Single-ply,SBD,F
Girls,100.02,1,Alyssa Daniels,Splendora,92.53,170.1,97.52,133.81,401.43,Single-ply,SBD,F
Girls,100.02,2,Madison Eason,Splendora,91.35,131.54,86.18,145.15,362.87,Single-ply,SBD,F
Girls,100.02,3,Chesney Payne,Livingston,93.98,158.76,54.43,124.74,337.93,Single-ply,SBD,F
Girls,100.02,4,Trinity Boatright,Shepherd,94.48,136.08,77.11,122.47,335.66,Single-ply,SBD,F
Girls,100.02,5,Laryssa Pitts,Splendora,92.17,86.18,61.23,106.59,254.01,Single-ply,SBD,F
Girls,100.02,DQ,Cami Clark,Shepherd,91.63,,,,,Single-ply,SBD,F
Girls,100.02,DQ,Leighanna Thrower,Montgomery,99.79,,,,,Single-ply,SBD,F
Girls,117.71,1,Haven Meyers,Splendora,102.15,92.99,54.43,129.27,276.69,Single-ply,SBD,F
Girls,117.71,DQ,Madison Hall #1,Channelview,117.48,,,,,Single-ply,SBD,F
Girls,117.71+,1,Audrey Grimmett,Montgomery,118.12,156.49,74.84,129.27,360.61,Single-ply,SBD,F
Girls,117.71+,DQ,Kenya Jeffcoat,Shepherd,126.1,204.12,,,,Single-ply,SBD,F
