Division,WeightClassKg,Place,Name,Team,BodyweightKg,Best3SquatKg,Best3BenchKg,Best3DeadliftKg,TotalKg,Equipment,Event,Sex
Boys,51.71,1,Dawson Carusso,Burleson,49.8,124.74,70.31,149.69,344.73,Single-ply,SBD,M
Boys,51.71,2,Ryan Dean,Waco Midway,51.35,124.74,79.38,140.61,344.73,Single-ply,SBD,M
Boys,55.79,3,Mikey Gomez,Kyle Lehman,51.8,117.93,74.84,147.42,340.19,Single-ply,SBD,M
Boys,51.71,4,Joey Carusso,Burleson,50.62,117.93,72.57,145.15,335.66,Single-ply,SBD,M
Boys,51.71,5,Adrian Garcia,Dripping Springs,50.44,113.4,79.38,136.08,328.85,Single-ply,SBD,M
Boys,51.71,6,Abraham Villareal,Belton,50.08,120.2,61.23,145.15,326.59,Single-ply,SBD,M
Boys,51.71,7,Ricky Smith,Leander,50.98,124.74,83.91,104.33,312.98,Single-ply,SBD,M
Boys,51.71,8,Ethan Ford,Burleson Centennial,50.17,108.86,58.97,133.81,301.64,Single-ply,SBD,M
Boys,51.71,NS,Jose Ramirez #5,Kyle Lehman,,,,,,Single-ply,SBD,M
Boys,59.87,1,Alec Webster,Killeen Shoemaker,55.97,142.88,106.59,181.44,430.91,Single-ply,SBD,M
Boys,59.87,2,Josh Bedolla,Elgin,55.88,151.95,102.06,172.37,426.38,Single-ply,SBD,M
Boys,55.79,3,Shayne Streminski,Burleson Centennial,54.7,151.95,99.79,151.95,403.7,Single-ply,SBD,M
Boys,55.79,4,Davion Aldridge,Hutto,54.98,158.76,79.38,154.22,392.36,Single-ply,SBD,M
Boys,55.79,5,Johnny Martinez,Belton,54.61,127.01,83.91,156.49,367.41,Single-ply,SBD,M
Boys,55.79,6,Connor Watson,Burleson Centennial,54.52,127.01,79.38,142.88,349.27,Single-ply,SBD,M
Boys,55.79,7,Alex Mata,Lockhart,55.16,122.47,65.77,154.22,342.46,Single-ply,SBD,M
Boys,55.79,8,Zach Reid,Dripping Springs,54.7,108.86,68.04,142.88,319.78,Single-ply,SBD,M
Boys,55.79,NS,Jesse Rodriguez,Pflugerville Hendrickson,,,,,,Single-ply,SBD,M
Boys,55.79,DQ,Sammy Ortega,Hutto,55.16,,,,,Single-ply,SBD,M
Boys,59.87,1,Isaiah Robinson,Waco Midway,59.06,176.9,102.06,204.12,483.08,Single-ply,SBD,M
Boys,67.13,2,Austin Blalock,Burleson Centennial,59.96,176.9,102.06,192.78,471.74,Single-ply,SBD,M
Boys,59.87,3,David Tubig,Burleson,58.33,165.56,92.99,195.04,453.59,Single-ply,SBD,M
Boys,59.87,4,Luis Mena,Del Valle,59.78,147.42,99.79,172.37,419.57,Single-ply,SBD,M
Boys,59.87,5,Sam Muniz,San Marcos,59.33,138.35,83.91,181.44,403.7,Single-ply,SBD,M
Boys,59.87,6,Brandon Batot,Bastrop,59.78,163.29,79.38,156.49,399.16,Single-ply,SBD,M
Boys,59.87,7,Quintin Cannon,Belton,59.6,129.27,92.99,156.49,378.75,Single-ply,SBD,M
Boys,59.87,8,Dominique Ubias,Elgin,59.51,142.88,83.91,149.69,376.48,Single-ply,SBD,M
Boys,59.87,NS,Ernan Lopez,Hutto,,,,,,Single-ply,SBD,M
Boys,67.13,1,Reggie Davis,College Station A&M Cons,67.13,213.19,147.42,222.26,582.87,Single-ply,SBD,M
Boys,67.13,2,David Taylor,College Station A&M Cons,65.86,210.92,127.01,240.4,578.33,Single-ply,SBD,M
Boys,67.13,3,Xavier Moffitt,Belton,66.95,190.51,111.13,242.67,544.31,Single-ply,SBD,M
Boys,67.13,4,Treston Womack,Waco Midway,66.59,181.44,117.93,195.04,494.42,Single-ply,SBD,M
Boys,67.13,5,Jayvier Rigmaiden,Burleson Centennial,61.69,185.97,102.06,195.04,483.08,Single-ply,SBD,M
Boys,67.13,6,Anthony Ortegon,Georgetown East View,66.59,161.03,97.52,179.17,437.72,Single-ply,SBD,M
Boys,67.13,7,Sean Wofford,Burleson,63.59,151.95,88.45,192.78,433.18,Single-ply,SBD,M
Boys,67.13,8,Derek Camero,Hutto,67.13,158.76,99.79,172.37,430.91,Single-ply,SBD,M
Boys,67.13,DQ,Jordan Lawrence,Pflugerville Connally,66.77,,,,,Single-ply,SBD,M
Boys,67.13,DQ,Bradley Schwartzengraber,Copperas Cove,65.5,,,,,Single-ply,SBD,M
Boys,74.84,1,Carlos Lucio,Bryan,74.21,254.01,142.88,213.19,610.08,Single-ply,SBD,M
Boys,74.84,2,Harrell Henderson,Waco Midway,73.21,229.06,117.93,208.65,555.65,Single-ply,SBD,M
Boys,82.1,3,Orlando Perez,Elgin,74.93,195.04,124.74,215.46,535.24,Single-ply,SBD,M
Boys,74.84,4,Justis Owens,Hutto,69.76,210.92,117.93,204.12,532.97,Single-ply,SBD,M
Boys,74.84,5,Jonathan Sylvester,College Station A&M Cons,74.66,201.85,106.59,208.65,517.1,Single-ply,SBD,M
Boys,74.84,6,Logan Hager,Georgetown,70.67,181.44,111.13,204.12,496.68,Single-ply,SBD,M
Boys,82.1,7,David Coolidge,Manor,74.93,185.97,106.59,204.12,496.68,Single-ply,SBD,M
Boys,74.84,8,Cody Patterson,Bastrop Cedar Creek,74.21,154.22,92.99,181.44,428.64,Single-ply,SBD,M
Boys,74.84,9,Jeremy Rowe,Waco Midway,71.94,170.1,124.74,,294.84,Single-ply,SB,M
Boys,74.84,NS,Brandon Julian,Belton,,,,,,Single-ply,SB,M
Boys,74.84,DQ,Travis Donahue,Granbury,73.75,165.56,,,,Single-ply,SB,M
Boys,82.1,1,Rhil Dougherty,Dripping Springs,80.92,238.14,145.15,254.01,637.3,Single-ply,SBD,M
Boys,82.1,2,Jacob Palmares,Buda Hays,82.01,226.8,131.54,267.62,625.96,Single-ply,SBD,M
Boys,82.1,3,Mike Sumrall,Copperas Cove,82.01,215.46,138.35,224.53,578.33,Single-ply,SBD,M
Boys,82.1,4,Jeremy Holloway,Kyle Lehman,82.1,210.92,129.27,238.14,578.33,Single-ply,SBD,M
Boys,89.81,5,La Charles Montgomery,Waco Midway,82.28,231.33,120.2,217.72,569.26,Single-ply,SBD,M
Boys,82.1,6,Will Grear,Del Valle,78.93,226.8,138.35,195.04,560.19,Single-ply,SBD,M
Boys,82.1,7,Nathan Ferguson,Burleson Centennial,79.74,206.38,115.67,231.33,553.38,Single-ply,SBD,M
Boys,82.1,8,Daniel Valdez,Granbury,81.74,229.06,124.74,197.31,551.11,Single-ply,SBD,M
Boys,82.1,9,Blake Lisby,Austin Lake Travis,80.1,210.92,117.93,219.99,548.85,Single-ply,SBD,M
Boys,82.1,NS,Damon Elvington,Burleson Centennial,,,,,,Single-ply,SBD,M
Boys,82.1,DQ,Chukie Ojiyi,Pflugerville Hendrickson,79.56,,,,,Single-ply,SBD,M
Boys,89.81,1,Josh Mercado,San Marcos,88.09,242.67,154.22,256.28,653.17,Single-ply,SBD,M
Boys,89.81,2,Nika Davis,Waco,88.99,226.8,145.15,244.94,616.89,Single-ply,SBD,M
Boys,89.81,3,Tyrone Owens,Manor,87.18,238.14,149.69,226.8,614.62,Single-ply,SBD,M
Boys,89.81,4,Andrew Carnes,Burleson,85,238.14,124.74,238.14,601.01,Single-ply,SBD,M
Boys,89.81,5,Dontavious Green,Waco University,88.27,222.26,145.15,226.8,594.21,Single-ply,SBD,M
Boys,89.81,6,Joseph Rodriguez,Bastrop Cedar Creek,88.45,217.72,129.27,226.8,573.79,Single-ply,SBD,M
Boys,89.81,7,Luke Evans #2,Hutto,87.54,215.46,136.08,215.46,566.99,Single-ply,SBD,M
Boys,89.81,8,Joseph Frengel,Austin Lake Travis,87.91,213.19,133.81,217.72,564.72,Single-ply,SBD,M
Boys,89.81,NS,Jj Johnson,Manor,,,,,,Single-ply,SBD,M
Boys,89.81,NS,Aj Head,Waco Midway,,,,,,Single-ply,SBD,M
Boys,89.81,DQ,Auston Ellis,Bryan Rudder,88,283.5,,,,Single-ply,SBD,M
Boys,99.79,1,Xavier Bryant,Temple,98.88,249.48,179.17,249.48,678.12,Single-ply,SBD,M
Boys,109.77,2,Hosbaldo Ruiz,Cleburne,100.02,242.67,163.29,256.28,662.24,Single-ply,SBD,M
Boys,99.79,3,Elias Villalobos,San Marcos,96.62,233.6,138.35,272.16,644.1,Single-ply,SBD,M
Boys,99.79,4,Curtis Hawkins,Lockhart,98.52,254.01,151.95,229.06,635.03,Single-ply,SBD,M
Boys,99.79,5,Zach Smith #13,Dripping Springs,95.71,251.74,136.08,235.87,623.69,Single-ply,SBD,M
Boys,99.79,6,John Carter,Burleson,98.52,233.6,138.35,251.74,623.69,Single-ply,SBD,M
Boys,99.79,7,Sid Irwin,Burleson Centennial,93.26,226.8,154.22,231.33,612.35,Single-ply,SBD,M
Boys,99.79,8,Avery McThompson,Dripping Springs,97.79,215.46,151.95,215.46,582.87,Single-ply,SBD,M
Boys,99.79,NS,Daniel Minor,Buda Hays,,,,,,Single-ply,SBD,M
Boys,99.79,DQ,Nathaniel Rutherford,Joshua,97.43,,,,,Single-ply,SBD,M
Boys,99.79,DQ,Omar Smith,Pflugerville Hendrickson,94.08,,,,,Single-ply,SBD,M
Boys,109.77,1,Gerald Hatch,Burleson,108.05,276.69,172.37,285.76,734.82,Single-ply,SBD,M
Boys,109.77,2,Derrick Moore,Waco,108.23,263.08,138.35,247.21,648.64,Single-ply,SBD,M
Boys,109.77,3,Marcus Mesta,Manor,105.05,265.35,142.88,238.14,646.37,Single-ply,SBD,M
Boys,109.77,4,David Lopez,Temple,107.32,247.21,181.44,204.12,632.76,Single-ply,SBD,M
Boys,109.77,5,Coby Foster,College Station A&M Cons,105.87,251.74,145.15,226.8,623.69,Single-ply,SBD,M
Boys,109.77,6,Jon Ladner,Waco Midway,103.96,244.94,142.88,226.8,614.62,Single-ply,SBD,M
Boys,109.77,7,Arnold Moreno,Georgetown East View,104.51,233.6,136.08,238.14,607.81,Single-ply,SBD,M
Boys,109.77,8,Tc Quintana,Burleson Centennial,103.87,233.6,136.08,233.6,603.28,Single-ply,SBD,M
Boys,109.77,9,John Hoover,Burleson,107.68,222.26,138.35,224.53,585.13,Single-ply,SBD,M
Boys,109.77,10,Artie Reyes,Bryan,108.59,235.87,145.15,204.12,585.13,Single-ply,SBD,M
Boys,109.77,DQ,Jaylen Waters,Copperas Cove,104.69,,,,,Single-ply,SBD,M
Boys,124.74,1,Michael Cadena,Bryan,123.92,331.12,181.44,285.76,798.32,Single-ply,SBD,M
Boys,124.74,2,Jesse Benevides Munoz,San Marcos,123.01,294.84,167.83,265.35,728.02,Single-ply,SBD,M
Boys,124.74,3,Colton Hostetler,Burleson Centennial,118.02,263.08,170.1,269.89,703.07,Single-ply,SBD,M
Boys,124.74,4,Braden Martinez,Belton,120.02,249.48,124.74,242.67,616.89,Single-ply,SBD,M
Boys,124.74,DQ,Charles Owens,Bryan Rudder,120.47,278.96,,,,Single-ply,SBD,M
Boys,124.74,DQ,Ronaldo Ruiz,Hutto,121.11,272.16,156.49,,,Single-ply,SBD,M
Boys,124.74,DQ,Ivan Garciduenas,Burleson Centennial,118.93,,,,,Single-ply,SBD,M
Boys,124.74,DQ,Isaiah Suazo,Burleson Centennial,114.67,,,,,Single-ply,SBD,M
Boys,124.74,DQ,Mj Morris,Waco Midway,122.83,,,,,Single-ply,SBD,M
Boys,124.74+,DQ,Camryn Dotson,Waco Midway,124.92,,,,,Single-ply,SBD,M
Boys,124.74+,1,Devontae Moore,Temple,150.32,351.53,181.44,272.16,805.13,Single-ply,SBD,M
Boys,124.74+,2,Tyler Preston,Georgetown,125.83,299.37,176.9,263.08,739.36,Single-ply,SBD,M
Boys,124.74+,3,Tre Thomas,Pflugerville Hendrickson,173.18,308.44,154.22,242.67,705.34,Single-ply,SBD,M
Boys,124.74+,4,Tevin Boone,Cleburne,140.16,281.23,147.42,272.16,700.8,Single-ply,SBD,M
Boys,124.74+,5,Josh Collins,Burleson,144.15,276.69,149.69,258.55,684.92,Single-ply,SBD,M
Boys,124.74+,6,Thomas Turner,Waco University,132.45,281.23,158.76,204.12,644.1,Single-ply,SBD,M
Boys,124.74+,7,Dominic Brown,Georgetown East View,125.01,260.82,158.76,208.65,628.23,Single-ply,SBD,M
Boys,124.74+,8,Julian Silguero,Kyle Lehman,139.16,272.16,142.88,204.12,619.15,Single-ply,SBD,M
Boys,124.74+,NS,Justin Murphy,Belton,,,,,,Single-ply,SBD,M
Boys,124.74+,DQ,Jeremy Rodriguez #1,Bastrop Cedar Creek,125.46,226.8,149.69,,,Single-ply,SBD,M
