Division,WeightClassKg,Place,Name,Team,BodyweightKg,Best3SquatKg,Best3BenchKg,Best3DeadliftKg,TotalKg,Equipment,Event,Sex
Boys,51.71,1,Robert Norega,Manor,51.53,154.22,77.11,163.29,394.63,Single-ply,SBD,M
Boys,51.71,2,Eric Samayoa,Burleson,50.62,145.15,65.77,165.56,376.48,Single-ply,SBD,M
Boys,51.71,3,Istvan Castilleja,Buda Hays,50.35,147.42,86.18,140.61,374.21,Single-ply,SBD,M
Boys,51.71,4,Cesar Ledesma,Burleson,47.72,140.61,74.84,154.22,369.68,Single-ply,SBD,M
Boys,51.71,5,Nick Sanchez,Georgetown,50.89,142.88,70.31,145.15,358.34,Single-ply,SBD,M
Boys,51.71,6,Nate Garza,Georgetown,50.53,140.61,70.31,133.81,344.73,Single-ply,SBD,M
Boys,51.71,7,Will Solomon,Bastrop Cedar Creek,50.8,127.01,79.38,133.81,340.19,Single-ply,SBD,M
Boys,51.71,8,Jack Dombrowski,Dripping Springs,51.44,120.2,74.84,145.15,340.19,Single-ply,SBD,M
Boys,51.71,9,Rudy Pina,Del Valle,50.53,115.67,68.04,142.88,326.59,Single-ply,SBD,M
Boys,51.71,10,Pedro Saldivar,Kyle Lehman,51.35,127.01,68.04,131.54,326.59,Single-ply,SBD,M
Boys,51.71,11,Mauricio Rangel,Buda Hays,47.99,111.13,74.84,122.47,308.44,Single-ply,SBD,M
Boys,51.71,12,Jd Davis,Joshua,51.71,117.93,68.04,120.2,306.17,Single-ply,SBD,M
Boys,55.79,1,Cameron Saucedo,Kyle Lehman,54.61,185.97,95.25,188.24,469.47,Single-ply,SBD,M
Boys,55.79,2,Ivan Venegas,Dripping Springs,55.16,165.56,106.59,167.83,439.98,Single-ply,SBD,M
Boys,55.79,3,Rushi Patel,College Station,54.25,181.44,86.18,163.29,430.91,Single-ply,SBD,M
Boys,55.79,4,Juan Sanchez #4,Waco,55.79,154.22,99.79,176.9,430.91,Single-ply,SBD,M
Boys,55.79,5,Michael Guerrero,Georgetown East View,55.16,158.76,86.18,158.76,403.7,Single-ply,SBD,M
Boys,55.79,6,Dylan Quintero,Burleson Centennial,55.52,154.22,86.18,158.76,399.16,Single-ply,SBD,M
Boys,55.79,7,David Cook,Burleson Centennial,55.16,147.42,90.72,154.22,392.36,Single-ply,SBD,M
Boys,55.79,8,Max Castelli,Belton,54.88,151.95,77.11,158.76,387.82,Single-ply,SBD,M
Boys,55.79,9,Jeremiah Thompson,Manor,54.88,136.08,92.99,142.88,371.95,Single-ply,SBD,M
Boys,55.79,10,Titus Newsom,Burleson Centennial,55.52,145.15,70.31,142.88,358.34,Single-ply,SBD,M
Boys,55.79,DQ,Journey Thompson,Manor,55.34,124.74,,,,Single-ply,SBD,M
Boys,55.79,DQ,Isaac Trejo,San Marcos,55.34,,,,,Single-ply,SBD,M
Boys,59.87,1,Jason Jones,Burleson,59.87,217.72,115.67,238.14,571.53,Single-ply,SBD,M
Boys,59.87,2,Trestan Hudnall,Killeen Ellison,59.69,190.51,122.47,188.24,501.22,Single-ply,SBD,M
Boys,59.87,3,Jacob Moss,Burleson,59.24,172.37,97.52,190.51,460.4,Single-ply,SBD,M
Boys,59.87,4,Therrance Soto,San Marcos,58.97,161.03,92.99,190.51,444.52,Single-ply,SBD,M
Boys,59.87,5,Mekye Kao,College Station A&M Cons,59.78,156.49,99.79,172.37,428.64,Single-ply,SBD,M
Boys,59.87,6,Luke Merchant,San Marcos,59.15,151.95,95.25,172.37,419.57,Single-ply,SBD,M
Boys,59.87,7,Jaylen Montgomery,Waco Midway,59.87,145.15,90.72,181.44,417.3,Single-ply,SBD,M
Boys,59.87,8,Noah Finch,Burleson,58.69,165.56,77.11,172.37,415.04,Single-ply,SBD,M
Boys,59.87,9,Avery Rodriguez #3,Temple,56.61,147.42,95.25,170.1,412.77,Single-ply,SBD,M
Boys,59.87,10,Celestino Rubio,Bryan Rudder,59.42,158.76,74.84,170.1,403.7,Single-ply,SBD,M
Boys,59.87,11,Marc Anthony Govea,Del Valle,58.6,149.69,86.18,165.56,401.43,Single-ply,SBD,M
Boys,67.13,1,Juan Rios,Dripping Springs,66.41,222.26,127.01,208.65,557.92,Single-ply,SBD,M
Boys,67.13,2,Chandler Brown,Burleson,67.13,208.65,131.54,210.92,551.11,Single-ply,SBD,M
Boys,67.13,3,Happy Jones,Manor,67.04,231.33,104.33,195.04,530.7,Single-ply,SBD,M
Boys,67.13,4,Ray Heiser,Kyle Lehman,66.04,190.51,113.4,201.85,505.76,Single-ply,SBD,M
Boys,67.13,5,Cory Price,College Station A&M Cons,66.86,192.78,113.4,199.58,505.76,Single-ply,SBD,M
Boys,67.13,6,Christian Castillo,Belton,66.68,190.51,104.33,199.58,494.42,Single-ply,SBD,M
Boys,67.13,7,Jason Leal,Buda Hays,65.05,192.78,111.13,188.24,492.15,Single-ply,SBD,M
Boys,67.13,8,Jacob Hughes #3,Joshua,66.86,170.1,124.74,185.97,480.81,Single-ply,SBD,M
Boys,67.13,9,Chandler Brill,Kyle Lehman,67.04,183.7,111.13,185.97,480.81,Single-ply,SBD,M
Boys,67.13,10,Patrick Frazho,Belton,64.23,170.1,95.25,176.9,442.25,Single-ply,SBD,M
Boys,67.13,DQ,Lindsey Kaleb,Hutto,66.13,170.1,102.06,,,Single-ply,SBD,M
Boys,67.13,DQ,Josh Howard,Hutto,66.5,,,,,Single-ply,SBD,M
Boys,74.84,1,Ethan Haynes,Burleson,74.84,240.4,136.08,224.53,601.01,Single-ply,SBD,M
Boys,74.84,2,Dwight Roberts,Temple,67.22,204.12,133.81,233.6,571.53,Single-ply,SBD,M
Boys,74.84,3,Kory Young,Killeen Ellison,73.75,226.8,113.4,231.33,571.53,Single-ply,SBD,M
Boys,74.84,4,Tyheme Isabel,Waco,74.84,215.46,122.47,208.65,546.58,Single-ply,SBD,M
Boys,74.84,5,Devyn Raper,Belton,74.84,183.7,127.01,222.26,532.97,Single-ply,SBD,M
Boys,74.84,6,Juan Venegas,Dripping Springs,73.48,199.58,133.81,197.31,530.7,Single-ply,SBD,M
Boys,74.84,7,Christian Caballero,San Marcos,72.94,183.7,115.67,208.65,508.02,Single-ply,SBD,M
Boys,74.84,8,KeKoa Engleman,Kyle Lehman,74.39,174.63,120.2,201.85,496.68,Single-ply,SBD,M
Boys,74.84,9,Casey Jackson,Burleson,73.75,174.63,102.06,201.85,478.54,Single-ply,SBD,M
Boys,74.84,DQ,Kyleland Sauls,Temple,74.84,226.8,,,,Single-ply,SBD,M
Boys,74.84,DQ,Tucker Trejo,Hutto,74.03,188.24,120.2,,,Single-ply,SBD,M
Boys,82.1,1,Matt Hemphill,Dripping Springs,80.92,278.96,174.63,258.55,712.14,Single-ply,SBD,M
Boys,82.1,2,Devin Stevenson,Burleson,80.65,231.33,115.67,263.08,610.08,Single-ply,SBD,M
Boys,82.1,3,Devin Norman,Lockhart,80.65,213.19,145.15,222.26,580.6,Single-ply,SBD,M
Boys,82.1,4,Chris Aguirre,Buda Hays,82.1,238.14,115.67,217.72,571.53,Single-ply,SBD,M
Boys,82.1,5,Hunter Cunningham,Burleson,81.74,215.46,131.54,222.26,569.26,Single-ply,SBD,M
Boys,82.1,6,Robert Nicholas,Killeen Ellison,77.93,233.6,108.86,222.26,564.72,Single-ply,SBD,M
Boys,82.1,7,Jorden Wilkerson,Granbury,80.1,204.12,147.42,204.12,555.65,Single-ply,SBD,M
Boys,82.1,8,Victor Torres,Kyle Lehman,80.38,208.65,145.15,195.04,548.85,Single-ply,SBD,M
Boys,82.1,9,Mark Vavra,Bryan,81.19,215.46,138.35,195.04,548.85,Single-ply,SBD,M
Boys,82.1,10,Jc Mueller,Burleson,80.29,183.7,124.74,206.38,514.83,Single-ply,SBD,M
Boys,82.1,11,Jacob Carney,Copperas Cove,82.01,179.17,108.86,222.26,510.29,Single-ply,SBD,M
Boys,82.1,DQ,Jayden Medina,Hutto,81.19,190.51,120.2,,,Single-ply,SBD,M
Boys,89.81,1,Brek Galbreath,Joshua,87.91,233.6,183.7,260.82,678.12,Single-ply,SBD,M
Boys,89.81,2,James Fullbright,Waco Midway,85.82,238.14,138.35,242.67,619.15,Single-ply,SBD,M
Boys,89.81,3,David Mata,Georgetown,87.91,258.55,129.27,217.72,605.55,Single-ply,SBD,M
Boys,89.81,4,Eduardo Ventura,Kyle Lehman,88.09,226.8,145.15,224.53,596.47,Single-ply,SBD,M
Boys,89.81,5,Ben Wolz,College Station,88.36,235.87,124.74,231.33,591.94,Single-ply,SBD,M
Boys,89.81,6,Josh Ewald,Kyle Lehman,89.27,217.72,124.74,249.48,591.94,Single-ply,SBD,M
Boys,89.81,7,Luis Hernandez,Granbury,89.54,226.8,142.88,217.72,587.4,Single-ply,SBD,M
Boys,89.81,8,Courtney Lee #1,Manor,83.91,204.12,113.4,240.4,557.92,Single-ply,SBD,M
Boys,89.81,9,Tim Edwards,Copperas Cove,87.18,215.46,127.01,210.92,553.38,Single-ply,SBD,M
Boys,89.81,10,Eric Ortega,Burleson Centennial,89.09,222.26,127.01,201.85,551.11,Single-ply,SBD,M
Boys,89.81,11,Kenny Long,Burleson Centennial,87.63,217.72,115.67,213.19,546.58,Single-ply,SBD,M
Boys,89.81,DQ,Michael Trull,Granbury,88.99,183.7,138.35,,,Single-ply,SBD,M
Boys,89.81,DQ,Davion Minnitt,Waco,89.81,,,,,Single-ply,SBD,M
Boys,99.79,1,Ryan Leal,Buda Hays,97.34,303.91,170.1,244.94,718.94,Single-ply,SBD,M
Boys,99.79,2,Rick Reyes,Buda Hays,98.7,288.03,161.03,263.08,712.14,Single-ply,SBD,M
Boys,99.79,3,Seth Sanchez,Kyle Lehman,97.25,222.26,145.15,244.94,612.35,Single-ply,SBD,M
Boys,99.79,4,Michael Kornak,Burleson Centennial,97.89,244.94,131.54,231.33,607.81,Single-ply,SBD,M
Boys,99.79,5,Devin Martinez,Belton,96.62,233.6,140.61,226.8,601.01,Single-ply,SBD,M
Boys,99.79,6,Stone Jones,Bastrop Cedar Creek,97.89,235.87,129.27,226.8,591.94,Single-ply,SBD,M
Boys,99.79,7,Aubrey Kelly,Killeen Ellison,94.98,226.8,113.4,231.33,571.53,Single-ply,SBD,M
Boys,99.79,8,Tajha Brooks,Manor,94.8,215.46,120.2,226.8,562.45,Single-ply,SBD,M
Boys,99.79,9,Jacob Turner,Bastrop Cedar Creek,97.34,229.06,124.74,195.04,548.85,Single-ply,SBD,M
Boys,99.79,DQ,Greg Rivas,Bastrop,99.06,,,,,Single-ply,SBD,M
Boys,99.79,DQ,Devon Taplin,Belton,96.89,213.19,145.15,,,Single-ply,SBD,M
Boys,99.79,DQ,Tyler Walker,Granbury,94.17,,,,,Single-ply,SBD,M
Boys,109.77,1,Thomas Godi,Burleson Centennial,109.04,285.76,181.44,251.74,718.94,Single-ply,SBD,M
Boys,109.77,2,Arturo Jaimes,Belton,104.14,276.69,147.42,274.42,698.53,Single-ply,SBD,M
Boys,109.77,3,Jason Umanzor,Granbury,104.69,283.5,161.03,238.14,682.66,Single-ply,SBD,M
Boys,109.77,4,Blake Edgington,Joshua,106.68,263.08,149.69,267.62,680.39,Single-ply,SBD,M
Boys,109.77,5,Olisa Uzuegbunam,Manor,106.32,260.82,170.1,242.67,673.58,Single-ply,SBD,M
Boys,109.77,6,Bailey Mullins,Burleson,109.77,260.82,147.42,263.08,671.32,Single-ply,SBD,M
Boys,109.77,7,Jordan Mauntel,Burleson,107.5,247.21,154.22,244.94,646.37,Single-ply,SBD,M
Boys,109.77,8,Jace Chambers,Pflugerville Hendrickson,108.32,233.6,151.95,254.01,639.57,Single-ply,SBD,M
Boys,109.77,9,Terrence Patterson,Burleson,108.77,215.46,165.56,254.01,635.03,Single-ply,SBD,M
Boys,109.77,10,Truce Tumlinson,College Station,103.78,249.48,124.74,240.4,614.62,Single-ply,SBD,M
Boys,109.77,DQ,Ochaun Mathis,Manor,102.69,204.12,142.88,,,Single-ply,SBD,M
Boys,124.74,1,Jaterrius Pleasant,Burleson,123.2,292.57,181.44,294.84,768.84,Single-ply,SBD,M
Boys,124.74,2,Raul Sandoval,Granbury,115.76,288.03,185.97,276.69,750.7,Single-ply,SBD,M
Boys,124.74,3,Antares Gillespie,Killeen Ellison,115.48,272.16,158.76,272.16,703.07,Single-ply,SBD,M
Boys,124.74,4,Clifford Chambers,Bryan Rudder,122.29,324.32,158.76,219.99,703.07,Single-ply,SBD,M
Boys,124.74,5,Veshawn Shellman,Killeen Ellison,120.11,272.16,149.69,229.06,650.91,Single-ply,SBD,M
Boys,124.74,6,Juan Jiminez,Copperas Cove,116.66,249.48,136.08,244.94,630.49,Single-ply,SBD,M
Boys,124.74,7,Tyrone Wilson,Bastrop,111.13,229.06,151.95,242.67,623.69,Single-ply,SBD,M
Boys,124.74,8,Sidney Sherwood,Belton,118.93,256.28,170.1,183.7,610.08,Single-ply,SBD,M
Boys,124.74,DQ,Justin Hoffman,Bastrop,119.48,,,,,Single-ply,SBD,M
Boys,124.74,DQ,Eliel Salazar,Elgin,120.66,,,,,Single-ply,SBD,M
Boys,124.74,DQ,Tyvionne Roaches,Kyle Lehman,123.65,285.76,183.7,,,Single-ply,SBD,M
Boys,124.74,DQ,Zion Petty,Lockhart,121.74,267.62,176.9,,,Single-ply,SBD,M
Boys,124.74+,1,Vincent Nakeveyon,Waco,171.91,378.75,206.38,278.96,864.09,Single-ply,SBD,M
Boys,124.74+,2,Richard Cuellar,Cleburne,134.54,319.78,199.58,226.8,746.16,Single-ply,SBD,M
Boys,124.74+,3,Keith Jackson II,Killeen Ellison,170.64,303.91,176.9,244.94,725.75,Single-ply,SBD,M
Boys,124.74+,4,Daizion Carroll,Waco Midway,146.96,294.84,158.76,260.82,714.41,Single-ply,SBD,M
Boys,124.74+,5,Phillip Haskins,Temple,132.63,276.69,174.63,260.82,712.14,Single-ply,SBD,M
Boys,124.74+,6,Aaron Shanahan,Copperas Cove,138.25,260.82,138.35,242.67,641.83,Single-ply,SBD,M
Boys,124.74+,7,Michael Rodriguez #10,Georgetown East View,141.7,242.67,140.61,226.8,610.08,Single-ply,SBD,M
Boys,124.74+,8,Jonathan Sutton,Granbury,124.92,226.8,136.08,235.87,598.74,Single-ply,SBD,M
Boys,124.74+,DQ,Jordan Hood,Elgin,132.18,274.42,158.76,,,Single-ply,SBD,M
Boys,124.74+,DQ,Scale Igiehon,Del Valle,140.98,,,,,Single-ply,SBD,M
Boys,124.74+,DQ,Jakobe Nutall,Bryan Rudder,139.62,,,,,Single-ply,SBD,M
