Division,WeightClassKg,Place,Name,Team,BodyweightKg,Best3SquatKg,Best3BenchKg,Best3DeadliftKg,TotalKg,Equipment,Event,Sex
Girls,44.23,1,Kelsey White,Georgetown East View,41.69,58.97,34.02,68.04,161.03,Single-ply,SBD,F
Girls,47.85,1,LeUyen Do,Georgetown East View,45.63,70.31,40.82,61.23,172.37,Single-ply,SBD,F
Girls,47.85,2,Amanda Gattis,Georgetown East View,46.58,58.97,29.48,72.57,161.03,Single-ply,SBD,F
Girls,56.02,1,Alyssa Lefevre,Dripping Springs,55.57,115.67,68.04,133.81,317.51,Single-ply,SBD,F
Girls,56.02,2,Baylee Hill,Georgetown,55.93,104.33,52.16,136.08,292.57,Single-ply,SBD,F
Girls,56.02,3,Katie Smith #4,Georgetown East View,55.84,108.86,43.09,111.13,263.08,Single-ply,SBD,F
Girls,56.02,DQ,Christina Horak,Dripping Springs,54.93,68.04,31.75,,,Single-ply,SBD,F
Girls,60.1,1,Crystal Williams,Little River Academy,59.51,111.13,52.16,117.93,281.23,Single-ply,SBD,F
Girls,60.1,2,Jules Peterson,Dripping Springs,56.11,97.52,40.82,104.33,242.67,Single-ply,SBD,F
Girls,60.1,3,Katelyn Edmonds,Little River Academy,59.51,86.18,45.36,104.33,235.87,Single-ply,SBD,F
Girls,60.1,4,Aileen Andrews,Georgetown East View,60.01,70.31,43.09,102.06,215.46,Single-ply,SBD,F
Girls,67.36,1,Morgan Lang,Little River Academy,65.91,111.13,52.16,127.01,290.3,Single-ply,SBD,F
Girls,67.36,2,Sarah Cowan,Little River Academy,67.36,108.86,52.16,115.67,276.69,Single-ply,SBD,F
Girls,67.36,3,Kristina Trykstad,Dripping Springs,66.72,81.65,38.56,83.91,204.12,Single-ply,SBD,F
Girls,67.36,4,Perla Rios,Dripping Springs,60.28,65.77,38.56,81.65,185.97,Single-ply,SBD,F
Girls,75.07,1,Shelby Edwards,Georgetown East View,74.43,115.67,52.16,115.67,283.5,Single-ply,SBD,F
Girls,75.07,2,Shuttea Jones,Little River Academy,71.94,81.65,38.56,106.59,226.8,Single-ply,SBD,F
Girls,75.07,DQ,Ashleigh Upchurch,Georgetown East View,74.84,,,,,Single-ply,SBD,F
Girls,82.33,1,Lauren Hurley,Dripping Springs,79.11,90.72,45.36,95.25,231.33,Single-ply,SBD,F
Girls,82.33,2,Jesyka Heskey,Pflugerville Hendrickson,81.1,90.72,52.16,83.91,226.8,Single-ply,SBD,F
Girls,90.04,1,Jordan Bush,Little River Academy,89.99,142.88,61.23,142.88,347,Single-ply,SBD,F
Girls,90.04,2,Chesney Kuper,Little River Academy,86.95,113.4,58.97,122.47,294.84,Single-ply,SBD,F
Girls,90.04,3,D'Anna Pastucci,Pflugerville Hendrickson,84.78,115.67,52.16,120.2,288.03,Single-ply,SBD,F
Girls,90.04,4,Nahiley Santana,Georgetown East View,83.28,74.84,31.75,74.84,181.44,Single-ply,SBD,F
Girls,100.02,1,Alexyss Herzog,Little River Academy,92.9,104.33,54.43,120.2,278.96,Single-ply,SBD,F
Girls,100.02,2,Sonia Huerta,Dripping Springs,94.48,63.5,40.82,70.31,174.63,Single-ply,SBD,F
Girls,100.02+,1,Rozalynn Sheppard,Dripping Springs,116.94,127.01,68.04,117.93,312.98,Single-ply,SBD,F
