Place,Name,Division,BirthYear,Country,BodyweightKg,Bench1Kg,Bench2Kg,Bench3Kg,Best3BenchKg,WeightClassKg,Sex,CyrillicName,Event,TotalKg,Equipment
1,Olga Pasichnaya,Open,1981,Russia,51.3,75,80,85,85,52,F,Ольга Пасичная,B,85,Single-ply
2,Anastasiya Buyskikh,Open,1992,Russia,49.75,62.5,67.5,70,70,52,F,Анастасия Буйских,B,70,Single-ply
3,Liliya Ilyasova,Open,1978,Russia,49.45,55,60,63,63,52,F,Лилия Ильясова,B,63,Single-ply
4,Diana Virstyuk,Open,2000,Russia,43.5,30,35,37.5,37.5,52,F,Диана Вирстюк,B,37.5,Single-ply
5,Ekaterina Ipatova,Open,1990,Russia,48.05,25,28,30,30,52,F,,B,30,Single-ply
6,Msynay Frolikova,Open,1960,Russia,51.35,20,25,27,27,52,F,Мсынай Фроликова,B,27,Single-ply
1,Natalia Melnikova,Open,1992,Russia,56.9,80,85,90,90,57,F,Наталья Мельникова,B,90,Single-ply
2,Viktoriya Shankova,Open,2000,Russia,54.8,60,65,70,70,57,F,Виктория Шанькова,B,70,Single-ply
1,Mariya Shestakova,Open,1991,Russia,62.9,85,90,95,95,63,F,Мария Шестакова,B,95,Single-ply
2,Olga Ovsyannikova,Open,1993,Russia,61.7,67.5,70,-72.5,70,63,F,Ольга Овсянникова,B,70,Single-ply
3,Vilayat Suleymanova,Open,1983,Russia,63,60,65,70,70,63,F,Вилаят Сулейманова,B,70,Single-ply
4,Anastasiya Cholak,Open,1998,Russia,63,55,60,65,65,63,F,Анастасия Чолак,B,65,Single-ply
5,Elena Kapustina,Open,1978,Russia,63,-60,60,65,65,63,F,Елена Капустина,B,65,Single-ply
6,Regina Nasanalieva,Open,1999,Russia,60,42.5,47.5,52.5,52.5,63,F,Регина Насаналиева,B,52.5,Single-ply
7,Diana Glovskaya,Open,2001,Russia,60.35,32.5,37.5,40,40,63,F,Диана Гловская,B,40,Single-ply
8,Anastasiya Pyasetskaya,Open,2003,Russia,60.55,35,38,-40,38,63,F,Анастасия Пясецкая,B,38,Single-ply
1,Darya Gerasimova,Open,1986,Russia,68.95,120,,,120,63+,F,Дарья Герасимова,B,120,Single-ply
2,Olga Kazankevich,Open,1974,Russia,84.85,80,90,100,100,63+,F,,B,100,Single-ply
3,Marina Galushko,Open,1966,Russia,69.4,80,85,-92.5,85,63+,F,Марина Галушко,B,85,Single-ply
4,Tatyana Polischuk,Open,1992,Russia,71,-55,60,,60,63+,F,Татьяна Полищук,B,60,Single-ply
5,Oksana Shtukatur,Open,1989,Russia,73.5,65,-70,-70,65,63+,F,Оксана Штукатур,B,65,Single-ply
6,Marina Orlova,Open,1973,Russia,73.6,25,28,30,30,63+,F,Марина Орлова,B,30,Single-ply
7,Alfiya Galikeeva,Open,1964,Russia,78.9,22.5,25,-28,25,63+,F,Альфия Галикеева,B,25,Single-ply
1,Vladimir Balynets,Open,1985,Russia,48.9,140,150,-160,150,59,M,Владимир Балынец,B,150,Single-ply
2,Gennadiy Yadne,Open,1994,Russia,57.3,135,142.5,150,150,59,M,Геннадий Ядне,B,150,Single-ply
3,Kirill Krut,Open,1991,Russia,56,130,135,,135,59,M,Кирилл Круть,B,135,Single-ply
4,Gadzhi Mamedov,Open,1992,Russia,52,115,122.5,125,125,59,M,Гаджи Мамедов,B,125,Single-ply
5,Vladislav Gritsenko,Open,1998,Russia,54.65,87.5,90,93,93,59,M,Владислав Гриценко,B,93,Single-ply
6,Valeriy Prokopyev,Open,2001,Russia,53,85,90,,90,59,M,Валерий Прокопьев,B,90,Single-ply
7,Viktor Simikin,Open,2000,Russia,56.7,85,90,,90,59,M,Виктор Симикин,B,90,Single-ply
8,Ilya Piskov,Open,2001,Russia,58.7,70,77.5,82.5,82.5,59,M,Илья Писков,B,82.5,Single-ply
9,Pavel Semibratov,Open,2000,Russia,53.95,80,,,80,59,M,Павел Семибратов,B,80,Single-ply
10,Kayrat Makhanbetov,Open,2000,Russia,58.2,70,75,-80,75,59,M,Кайрат Маханбетов,B,75,Single-ply
11,Mikhail Seredkin,Open,1977,Belarus,58.4,65,75,-85,75,59,M,,B,75,Single-ply
12,Dmitriy Demchenko,Open,2002,Russia,58.95,70,75,-80,75,59,M,Дмитрий Демченко,B,75,Single-ply
13,Denis Vorobyev,Open,2001,Russia,52.65,60,70,72,72,59,M,Денис Воробьев,B,72,Single-ply
14,Denis Dmitrishin,Open,2002,Russia,50.55,55,60,-65,60,59,M,Денис Дмитришин,B,60,Single-ply
15,Marat Bekshenev,Open,1991,Russia,58.1,50,55,60,60,59,M,Марат Бекшенев,B,60,Single-ply
16,Ruslan Minibaev,Open,2000,Russia,46.75,47.5,50,55,55,59,M,Руслан Минибаев,B,55,Single-ply
17,Ivan Saltuganov,Open,2004,Russia,51.45,50,55,-60,55,59,M,Иван Салтуганов,B,55,Single-ply
18,Semen Mikhaylov,Open,2002,Russia,53.8,45,50,53,53,59,M,Семен Михайлов,B,53,Single-ply
19,Ilya Alimgulov,Open,2002,Russia,47.2,45,50,52.5,52.5,59,M,Илья Алимгулов,B,52.5,Single-ply
20,Daniil Berglezov,Open,2002,Russia,59,47.5,52.5,-57.5,52.5,59,M,Даниил Берглезов,B,52.5,Single-ply
21,Marsel Kashafutdinov,Open,2001,Russia,53,45,50,-52.5,50,59,M,Марсель Кашафутдинов,B,50,Single-ply
22,Vadim Darbaev,Open,2003,Russia,41.1,30,-32.5,-32.5,30,59,M,Вадим Дарбаев,B,30,Single-ply
1,Aleksey Rikhter,Open,1998,Russia,65.35,155,165,172.5,172.5,66,M,Алексей Рихтер,B,172.5,Single-ply
2,Yaroslav Yazykov,Open,1999,Russia,65,120,125,,125,66,M,Ярослав Языков,B,125,Single-ply
3,Andrey Krapivin,Open,1999,Russia,65,95,100,-102.5,100,66,M,Андрей Крапивин,B,100,Single-ply
4,Boris Salinder,Open,1991,Russia,62.4,85,92.5,-100,92.5,66,M,,B,92.5,Single-ply
5,Daniil Parshakov,Open,1999,Russia,63.4,-90,90,92.5,92.5,66,M,Даниил Паршаков,B,92.5,Single-ply
6,Dmitriy Tikhomirov,Open,2001,Russia,65.5,85,90,-92.5,90,66,M,Дмитрий Тихомиров,B,90,Single-ply
7,Timur Murzin,Open,1999,Russia,61.35,80,87.5,-92.5,87.5,66,M,Тимур Мурзин,B,87.5,Single-ply
8,Daniil Zamotin,Open,2000,Russia,65.9,-85,85,-87.5,85,66,M,Даниил Замотин,B,85,Single-ply
9,Nikita Prilepskiy,Open,1995,Russia,59.1,70,75,80,80,66,M,Никита Прилепский,B,80,Single-ply
10,Maksim Aksaev,Open,2001,Russia,65.4,70,80,-82.5,80,66,M,Максим Аксаев,B,80,Single-ply
11,Akbar Sultanov,Open,1999,Russia,65.3,70,-75,75,75,66,M,Акбар Султанов,B,75,Single-ply
12,Nikita Chvalov,Open,2000,Russia,63.75,65,-70,70,70,66,M,Никита Чвалов,B,70,Single-ply
13,Anton Slobodchikov,Open,1985,Russia,59.15,55,60,62,62,66,M,Антон Слободчиков,B,62,Single-ply
14,Maksim Votinov,Open,2001,Russia,65.95,55,60,62.5,62.5,66,M,Максим Вотинов,B,62.5,Single-ply
15,Aleksandr Mikhaylenko,Open,2000,Russia,59.9,49,52,55,55,66,M,Александр Михайленко,B,55,Single-ply
1,Roman Bakhshiev,Open,1993,Russia,73.8,150,165,180,180,74,M,Роман Бахшиев,B,180,Single-ply
2,Ilya Perminov,Open,1989,Russia,74,160,-165,-165,160,74,M,Илья Перминов,B,160,Single-ply
3,Rustem Khaliullin,Open,1998,Russia,73.2,140,152.5,155,155,74,M,Рустем Халиуллин,B,155,Single-ply
4,Magomed Magomedov,Open,1999,Russia,72.15,130,137.5,-142.5,137.5,74,M,Магомед Магомедов,B,137.5,Single-ply
5,Anton Pichugin,Open,1978,Russia,74,125,130,135,135,74,M,Антон Пичугин,B,135,Single-ply
6,Evgeniy Tatarnikov,Open,1998,Russia,72.5,120,130,-140,130,74,M,Евгений Татарников,B,130,Single-ply
7,Aleksandr Khlynov,Open,1998,Russia,73.35,110,115,120,120,74,M,Александр Хлынов,B,120,Single-ply
8,Denis Savenko,Open,1998,Russia,73.8,115,117.5,120,120,74,M,Денис Савенко,B,120,Single-ply
9,Evgeniy Barsukov,Open,2001,Russia,72.4,112.5,-117.5,117.5,117.5,74,M,Евгений Барсуков,B,117.5,Single-ply
10,Sergey Tyrnovets,Open,1998,Russia,72.55,105,112.5,117.5,117.5,74,M,Сергей Тырновец,B,117.5,Single-ply
11,Efim Tatarnikov,Open,1999,Russia,67.5,100,110,115,115,74,M,Ефим Татарников,B,115,Single-ply
12,Yuriy Urubkov,Open,1968,Russia,68.95,100,105,110,110,74,M,Юрий Урубков,B,110,Single-ply
13,Kirill Svekla,Open,1991,Russia,70.1,-105,-105,105,105,74,M,Кирилл Свекла,B,105,Single-ply
14,Talekh Mamedov,Open,1990,Russia,73.9,100,-107.5,-107.5,100,74,M,Талех Мамедов,B,100,Single-ply
15,Artem Ligay,Open,1999,Russia,73.65,-67.5,67.5,72.5,72.5,74,M,Артем Лигай,B,72.5,Single-ply
16,Timofey Starodubtsev,Open,2002,Russia,73.7,62.5,67.5,70,70,74,M,Тимофей Стародубцев,B,70,Single-ply
17,Kirill Perkin,Open,2000,Russia,71.3,55,62.5,-65,62.5,74,M,Кирилл Перкин,B,62.5,Single-ply
18,Kirill Kabanov,Open,1999,Russia,72.15,40,47,-52,47,74,M,Кирилл Кабанов,B,47,Single-ply
1,Aleksandr Belinskiy,Open,1990,Russia,83,210,220,225,225,83,M,Александр Белинский,B,225,Single-ply
2,Karen Abramyants,Open,1977,Russia,82.5,180,-190,,180,83,M,,B,180,Single-ply
3,Sergey Skripnik,Open,1989,Russia,82.6,160,170,-180,170,83,M,Сергей Скрипник,B,170,Single-ply
4,Dmitriy Bardakh,Open,1999,Russia,80.85,160,167.5,-170,167.5,83,M,Дмитрий Бардах,B,167.5,Single-ply
5,Nikita Pavlenko,Open,1992,Russia,82.9,155,162.5,165,165,83,M,Никита Павленко,B,165,Single-ply
6,Vladislav Perevalov,Open,1999,Russia,81.7,130,140,150,150,83,M,Владислав Перевалов,B,150,Single-ply
7,Evgeniy Zhemchuzhnyy,Open,1999,Russia,82.65,140,150,,150,83,M,Евгений Жемчужный,B,150,Single-ply
8,Maksim Sabybin,Open,1985,Russia,75.9,140,147.5,-157.5,147.5,83,M,Максим Сабыбин,B,147.5,Single-ply
9,Konstantin Pershakov,Open,1981,Russia,78.35,112,117,122,122,83,M,Константин Першаков,B,122,Single-ply
10,Konstantin Sharko,Open,2001,Russia,79.45,110,117.5,122.5,122.5,83,M,Константин Шарко,B,122.5,Single-ply
11,Viktor Tsigankov,Open,1991,Russia,88.75,100,110,120,120,93,M,Виктор Циганков,B,120,Single-ply
12,Radik Minibaev,Open,1987,Russia,82.25,100,107.5,112.5,112.5,83,M,Радик Минибаев,B,112.5,Single-ply
13,Vladimir Ryazanov,Open,1962,Russia,80.3,85,90,95,95,83,M,Владимир Рязанов,B,95,Single-ply
14,Shamil Omargadzhiev,Open,1994,Russia,79.45,45,52.5,62.5,62.5,83,M,Шамиль Омаргаджиев,B,62.5,Single-ply
1,Valerian Bogdanov,Open,1988,Russia,91.3,230,240,245,245,93,M,Валериан Богданов,B,245,Single-ply
2,Yuriy Volobuev,Open,1991,Russia,91.4,200,205,207.5,207.5,93,M,Юрий Волобуев,B,207.5,Single-ply
3,Denis Klyashtornyy,Open,1994,Russia,91.75,175,182.5,187.5,187.5,93,M,Денис Кляшторный,B,187.5,Single-ply
4,Denis Pavlov,Open,1989,Russia,89.3,150,155,165,165,93,M,Денис Павлов,B,165,Single-ply
5,Fariz Guseynov,Open,1991,Russia,89.45,160,165,-170,165,93,M,Фариз Гусейнов,B,165,Single-ply
6,Artem Petrov #12,Open,1997,Russia,85.85,145,152.5,157.5,157.5,93,M,Артем Петров,B,157.5,Single-ply
7,Evgeniy Stan,Open,1993,Russia,93,125,135,140,140,93,M,Евгений Стан,B,140,Single-ply
8,Sergey Glavatskikh,Open,1980,Russia,83.7,117,123,128,128,93,M,Сергей Главатских,B,128,Single-ply
9,Zulfar Garipov,Open,1962,Russia,92.35,110,120,127.5,127.5,93,M,,B,127.5,Single-ply
10,Vladimir Vyalshin,Open,1976,Russia,92.7,70,80,,80,93,M,Владимир Вяльшин,B,80,Single-ply
1,Sergey Gerasimov,Open,1974,Russia,99.7,190,200,205,205,105,M,Сергей Герасимов,B,205,Single-ply
2,Yaroslav Proskuryakov,Open,1992,Russia,103.6,160,-170,-170,160,105,M,Ярослав Проскуряков,B,160,Single-ply
3,Bogdan Klimash,Open,1992,Russia,98,140,150,-155,150,105,M,Богдан Климаш,B,150,Single-ply
4,Daniil Telegin,Open,1999,Russia,102.05,-150,150,-160,150,105,M,Даниил Телегин,B,150,Single-ply
5,Dmitriy Gorokhov,Open,1999,Russia,93.8,125,-132.5,-132.5,125,105,M,Дмитрий Горохов,B,125,Single-ply
1,Evgeniy Antipov,Open,1981,Russia,135.4,255,262.5,267.5,267.5,105+,M,Евгений Антипов,B,267.5,Single-ply
2,Dmitriy Khvostenko,Open,1988,Russia,120.55,215,220,225,225,105+,M,Дмитрий Хвостенко,B,225,Single-ply
3,Vladislav Chvalov,Open,1998,Russia,105.25,180,190,200,200,105+,M,Владислав Чвалов,B,200,Single-ply
4,Ivan Goryachev,Open,1990,Russia,117,140,170,,170,105+,M,Иван Горячев,B,170,Single-ply
5,Dmitriy Romanyuk,Open,1996,Russia,118.75,140,150,160,160,105+,M,Дмитрий Романюк,B,160,Single-ply
6,Sergey Kolmakov,Open,2000,Russia,116.5,140,150,,150,105+,M,Сергей Колмаков,B,150,Single-ply
7,Sergey Borschev,Open,1949,Russia,118.3,120,130,135,135,105+,M,Сергей Борщев,B,135,Single-ply
8,Egor Tkachuk,Open,2001,Russia,124.6,90,-100,-100,90,105+,M,Егор Ткачук,B,90,Single-ply
9,Aleksandr Chernyy,Open,1960,Russia,118.8,65,-70,-70,65,105+,M,Александр Черный,B,65,Single-ply
1,Diana Virstyuk,Juniors,2000,Russia,43.5,30,35,37.5,37.5,47,F,Диана Вирстюк,B,37.5,Single-ply
1,Viktoriya Shankova,Juniors,2000,Russia,54.8,60,65,70,70,47+,F,Виктория Шанькова,B,70,Single-ply
2,Anastasiya Cholak,Juniors,1998,Russia,63,55,60,65,65,47+,F,Анастасия Чолак,B,65,Single-ply
3,Regina Nasanalieva,Juniors,1999,Russia,60,42.5,47.5,52.5,52.5,47+,F,Регина Насаналиева,B,52.5,Single-ply
4,Diana Glovskaya,Juniors,2001,Russia,60.35,32.5,37.5,40,40,47+,F,Диана Гловская,B,40,Single-ply
5,Anastasiya Pyasetskaya,Juniors,2003,Russia,60.55,35,38,-40,38,47+,F,Анастасия Пясецкая,B,38,Single-ply
1,Valeriy Prokopyev,Juniors,2001,Russia,53,85,90,,90,53,M,Валерий Прокопьев,B,90,Single-ply
2,Denis Vorobyev,Juniors,2001,Russia,52.65,60,70,72,72,53,M,Денис Воробьев,B,72,Single-ply
3,Eldar Gurbanov,Juniors,2001,Russia,50.5,50,60,-65,60,53,M,Эльдар Гурбанов,B,60,Single-ply
4,Denis Dmitrishin,Juniors,2002,Russia,50.55,55,60,-65,60,53,M,Денис Дмитришин,B,60,Single-ply
5,Ruslan Minibaev,Juniors,2000,Russia,46.75,47.5,50,55,55,53,M,Руслан Минибаев,B,55,Single-ply
6,Ivan Saltuganov,Juniors,2004,Russia,51.45,50,55,-60,55,53,M,Иван Салтуганов,B,55,Single-ply
7,Marsel Kashafutdinov,Juniors,2001,Russia,53,45,50,-52.5,50,53,M,Марсель Кашафутдинов,B,50,Single-ply
8,Ilya Alimgulov,Juniors,2002,Russia,47.2,45,50,52.5,52.5,53,M,Илья Алимгулов,B,52.5,Single-ply
9,Vadim Darbaev,Juniors,2003,Russia,41.1,30,-32.5,-32.5,30,53,M,Вадим Дарбаев,B,30,Single-ply
1,Gennadiy Yadne,Juniors,1994,Russia,57.3,135,142.5,150,150,59,M,Геннадий Ядне,B,150,Single-ply
2,Vladislav Gritsenko,Juniors,1998,Russia,54.65,87.5,90,93,93,59,M,Владислав Гриценко,B,93,Single-ply
3,Viktor Simikin,Juniors,2000,Russia,56.7,85,90,,90,59,M,Виктор Симикин,B,90,Single-ply
4,Ilya Piskov,Juniors,2001,Russia,58.7,70,77.5,82.5,82.5,59,M,Илья Писков,B,82.5,Single-ply
5,Pavel Semibratov,Juniors,2000,Russia,53.95,80,,,80,59,M,Павел Семибратов,B,80,Single-ply
6,Nikita Prilepskiy,Juniors,1995,Russia,59.1,70,75,80,80,66,M,Никита Прилепский,B,80,Single-ply
7,Kayrat Makhanbetov,Juniors,2000,Russia,58.2,70,75,-80,75,59,M,Кайрат Маханбетов,B,75,Single-ply
8,Dmitriy Demchenko,Juniors,2002,Russia,58.95,70,75,-80,75,59,M,Дмитрий Демченко,B,75,Single-ply
9,Aleksandr Mikhaylenko,Juniors,2000,Russia,59.9,49,52,55,55,66,M,Александр Михайленко,B,55,Single-ply
10,Semen Mikhaylov,Juniors,2002,Russia,53.8,45,50,53,53,59,M,Семен Михайлов,B,53,Single-ply
11,Daniil Berglezov,Juniors,2002,Russia,59,47.5,52.5,-57.5,52.5,59,M,Даниил Берглезов,B,52.5,Single-ply
1,Aleksey Rikhter,Juniors,1998,Russia,65.35,155,165,172.5,172.5,66,M,Алексей Рихтер,B,172.5,Single-ply
2,Yaroslav Yazykov,Juniors,1999,Russia,65,120,125,,125,66,M,Ярослав Языков,B,125,Single-ply
3,Andrey Krapivin,Juniors,1999,Russia,65,95,100,-102.5,100,66,M,Андрей Крапивин,B,100,Single-ply
4,Daniil Parshakov,Juniors,1999,Russia,63.4,-90,90,92.5,92.5,66,M,Даниил Паршаков,B,92.5,Single-ply
5,Dmitriy Tikhomirov,Juniors,2001,Russia,65.5,85,90,-92.5,90,66,M,Дмитрий Тихомиров,B,90,Single-ply
6,Timur Murzin,Juniors,1999,Russia,61.35,80,87.5,-92.5,87.5,66,M,Тимур Мурзин,B,87.5,Single-ply
7,Daniil Zamotin,Juniors,2000,Russia,65.9,-85,85,-87.5,85,66,M,Даниил Замотин,B,85,Single-ply
8,Maksim Aksaev,Juniors,2001,Russia,65.4,70,80,-82.5,80,66,M,Максим Аксаев,B,80,Single-ply
9,Akbar Sultanov,Juniors,1999,Russia,65.3,70,-75,75,75,66,M,Акбар Султанов,B,75,Single-ply
10,Nikita Chvalov,Juniors,2000,Russia,63.75,65,-70,70,70,66,M,Никита Чвалов,B,70,Single-ply
11,Maksim Votinov,Juniors,2001,Russia,65.95,55,60,62.5,62.5,66,M,Максим Вотинов,B,62.5,Single-ply
12,Anton Slobodchikov,Juniors,,Russia,59.15,55,60,62,62,66,M,Антон Слободчиков,B,62,Single-ply
1,Magomed Magomedov,Juniors,1999,Russia,72.15,130,137.5,-142.5,137.5,74,M,Магомед Магомедов,B,137.5,Single-ply
2,Evgeniy Tatarnikov,Juniors,1998,Russia,72.5,120,130,-140,130,74,M,Евгений Татарников,B,130,Single-ply
3,Aleksandr Khlynov,Juniors,1998,Russia,73.35,110,115,120,120,74,M,Александр Хлынов,B,120,Single-ply
4,Denis Savenko,Juniors,1998,Russia,73.8,115,117.5,120,120,74,M,Денис Савенко,B,120,Single-ply
5,Evgeniy Barsukov,Juniors,2001,Russia,72.4,112.5,-117.5,117.5,117.5,74,M,Евгений Барсуков,B,117.5,Single-ply
6,Sergey Tyrnovets,Juniors,1998,Russia,72.55,105,112.5,117.5,117.5,74,M,Сергей Тырновец,B,117.5,Single-ply
7,Efim Tatarnikov,Juniors,1999,Russia,67.5,100,110,115,115,74,M,Ефим Татарников,B,115,Single-ply
8,Artem Ligay,Juniors,1999,Russia,73.65,-67.5,67.5,72.5,72.5,74,M,Артем Лигай,B,72.5,Single-ply
9,Timofey Starodubtsev,Juniors,2002,Russia,73.7,62.5,67.5,70,70,74,M,Тимофей Стародубцев,B,70,Single-ply
10,Kirill Perkin,Juniors,2000,Russia,71.3,55,62.5,-65,62.5,74,M,Кирилл Перкин,B,62.5,Single-ply
11,Kirill Kabanov,Juniors,1999,Russia,72.15,40,47,-52,47,74,M,Кирилл Кабанов,B,47,Single-ply
1,Dmitriy Bardakh,Juniors,1999,Russia,80.85,160,167.5,-170,167.5,83,M,Дмитрий Бардах,B,167.5,Single-ply
2,Vladislav Perevalov,Juniors,1999,Russia,81.7,130,140,150,150,83,M,Владислав Перевалов,B,150,Single-ply
3,Evgeniy Zhemchuzhnyy,Juniors,1999,Russia,82.65,140,150,,150,83,M,Евгений Жемчужный,B,150,Single-ply
4,Konstantin Sharko,Juniors,2001,Russia,79.45,110,117.5,122.5,122.5,83,M,Константин Шарко,B,122.5,Single-ply
5,Shamil Omargadzhiev,Juniors,1994,Russia,79.45,45,52.5,62.5,62.5,83,M,Шамиль Омаргаджиев,B,62.5,Single-ply
1,Vladislav Chvalov,Juniors,1998,Russia,105.25,180,190,200,200,83+,M,Владислав Чвалов,B,200,Single-ply
2,Denis Klyashtornyy,Juniors,1994,Russia,91.75,175,182.5,187.5,187.5,83+,M,Денис Кляшторный,B,187.5,Single-ply
3,Dmitriy Romanyuk,Juniors,1996,Russia,118.75,140,150,160,160,83+,M,Дмитрий Романюк,B,160,Single-ply
4,Artem Petrov #12,Juniors,1997,Russia,85.85,145,152.5,157.5,157.5,83+,M,Артем Петров,B,157.5,Single-ply
5,Daniil Telegin,Juniors,1999,Russia,102.05,-150,150,-160,150,83+,M,Даниил Телегин,B,150,Single-ply
6,Sergey Kolmakov,Juniors,2000,Russia,116.5,140,150,,150,83+,M,Сергей Колмаков,B,150,Single-ply
7,Dmitriy Gorokhov,Juniors,1999,Russia,93.8,125,-132.5,-132.5,125,83+,M,Дмитрий Горохов,B,125,Single-ply
8,Egor Tkachuk,Juniors,2001,Russia,124.6,90,-100,-100,90,83+,M,Егор Ткачук,B,90,Single-ply
1,Diana Virstyuk,Sub-Juniors,2000,Russia,43.5,30,35,37.5,37.5,47,F,Диана Вирстюк,B,37.5,Single-ply
1,Viktoriya Shankova,Sub-Juniors,2000,Russia,54.8,60,65,70,70,47+,F,Виктория Шанькова,B,70,Single-ply
2,Regina Nasanalieva,Sub-Juniors,1999,Russia,60,42.5,47.5,52.5,52.5,47+,F,Регина Насаналиева,B,52.5,Single-ply
3,Diana Glovskaya,Sub-Juniors,2001,Russia,60.35,32.5,37.5,40,40,47+,F,Диана Гловская,B,40,Single-ply
4,Anastasiya Pyasetskaya,Sub-Juniors,2003,Russia,60.55,35,38,-40,38,47+,F,Анастасия Пясецкая,B,38,Single-ply
1,Vadim Darbaev,Sub-Juniors,2003,Russia,41.1,30,-32.5,-32.5,30,44,M,Вадим Дарбаев,B,30,Single-ply
1,Ruslan Minibaev,Sub-Juniors,2000,Russia,46.75,47.5,50,55,55,48,M,Руслан Минибаев,B,55,Single-ply
2,Ilya Alimgulov,Sub-Juniors,2002,Russia,47.2,45,50,52.5,52.5,48,M,Илья Алимгулов,B,52.5,Single-ply
1,Valeriy Prokopyev,Sub-Juniors,2001,Russia,53,85,90,,90,53,M,Валерий Прокопьев,B,90,Single-ply
2,Denis Vorobyev,Sub-Juniors,2001,Russia,52.65,60,70,72,72,53,M,Денис Воробьев,B,72,Single-ply
3,Eldar Gurbanov,Sub-Juniors,2001,Russia,50.5,50,60,-65,60,53,M,Эльдар Гурбанов,B,60,Single-ply
4,Denis Dmitrishin,Sub-Juniors,2002,Russia,50.55,55,60,-65,60,53,M,Денис Дмитришин,B,60,Single-ply
5,Ivan Saltuganov,Sub-Juniors,2004,Russia,51.45,50,55,-60,55,53,M,Иван Салтуганов,B,55,Single-ply
6,Marsel Kashafutdinov,Sub-Juniors,2001,Russia,53,45,50,-52.5,50,53,M,Марсель Кашафутдинов,B,50,Single-ply
1,Viktor Simikin,Sub-Juniors,2000,Russia,56.7,85,90,,90,59,M,Виктор Симикин,B,90,Single-ply
2,Ilya Piskov,Sub-Juniors,2001,Russia,58.7,70,77.5,82.5,82.5,59,M,Илья Писков,B,82.5,Single-ply
3,Pavel Semibratov,Sub-Juniors,2000,Russia,53.95,80,,,80,59,M,Павел Семибратов,B,80,Single-ply
4,Kayrat Makhanbetov,Sub-Juniors,2000,Russia,58.2,70,75,-80,75,59,M,Кайрат Маханбетов,B,75,Single-ply
5,Dmitriy Demchenko,Sub-Juniors,2002,Russia,58.95,70,75,-80,75,59,M,Дмитрий Демченко,B,75,Single-ply
6,Semen Mikhaylov,Sub-Juniors,2002,Russia,53.8,45,50,53,53,59,M,Семен Михайлов,B,53,Single-ply
7,Daniil Berglezov,Sub-Juniors,2002,Russia,59,47.5,52.5,-57.5,52.5,59,M,Даниил Берглезов,B,52.5,Single-ply
1,Yaroslav Yazykov,Sub-Juniors,1999,Russia,65,120,125,,125,66,M,Ярослав Языков,B,125,Single-ply
2,Andrey Krapivin,Sub-Juniors,1999,Russia,65,95,100,-102.5,100,66,M,Андрей Крапивин,B,100,Single-ply
3,Daniil Parshakov,Sub-Juniors,1999,Russia,63.4,-90,90,92.5,92.5,66,M,Даниил Паршаков,B,92.5,Single-ply
4,Dmitriy Tikhomirov,Sub-Juniors,2001,Russia,65.5,85,90,-92.5,90,66,M,Дмитрий Тихомиров,B,90,Single-ply
5,Timur Murzin,Sub-Juniors,1999,Russia,61.35,80,87.5,-92.5,87.5,66,M,Тимур Мурзин,B,87.5,Single-ply
6,Daniil Zamotin,Sub-Juniors,2000,Russia,65.9,-85,85,-87.5,85,66,M,Даниил Замотин,B,85,Single-ply
7,Maksim Aksaev,Sub-Juniors,2001,Russia,65.4,70,80,-82.5,80,66,M,Максим Аксаев,B,80,Single-ply
8,Akbar Sultanov,Sub-Juniors,1999,Russia,65.3,70,-75,75,75,66,M,Акбар Султанов,B,75,Single-ply
9,Nikita Chvalov,Sub-Juniors,2000,Russia,63.75,65,-70,70,70,66,M,Никита Чвалов,B,70,Single-ply
10,Maksim Votinov,Sub-Juniors,2001,Russia,65.95,55,60,62.5,62.5,66,M,Максим Вотинов,B,62.5,Single-ply
11,Aleksandr Mikhaylenko,Sub-Juniors,2000,Russia,59.9,49,52,55,55,66,M,Александр Михайленко,B,55,Single-ply
1,Magomed Magomedov,Sub-Juniors,1999,Russia,72.15,130,137.5,-142.5,137.5,74,M,Магомед Магомедов,B,137.5,Single-ply
2,Aleksandr Khlynov,Sub-Juniors,1998,Russia,73.35,110,115,120,120,74,M,Александр Хлынов,B,120,Single-ply
3,Evgeniy Barsukov,Sub-Juniors,2001,Russia,72.4,112.5,-117.5,117.5,117.5,74,M,Евгений Барсуков,B,117.5,Single-ply
4,Efim Tatarnikov,Sub-Juniors,1999,Russia,67.5,100,110,115,115,74,M,Ефим Татарников,B,115,Single-ply
5,Artem Ligay,Sub-Juniors,1999,Russia,73.65,-67.5,67.5,72.5,72.5,74,M,Артем Лигай,B,72.5,Single-ply
6,Timofey Starodubtsev,Sub-Juniors,2002,Russia,73.7,62.5,67.5,70,70,74,M,Тимофей Стародубцев,B,70,Single-ply
7,Kirill Perkin,Sub-Juniors,2000,Russia,71.3,55,62.5,-65,62.5,74,M,Кирилл Перкин,B,62.5,Single-ply
8,Kirill Kabanov,Sub-Juniors,1999,Russia,72.15,40,47,-52,47,74,M,Кирилл Кабанов,B,47,Single-ply
1,Dmitriy Bardakh,Sub-Juniors,1999,Russia,80.85,160,167.5,-170,167.5,74+,M,Дмитрий Бардах,B,167.5,Single-ply
2,Vladislav Perevalov,Sub-Juniors,1999,Russia,81.7,130,140,150,150,74+,M,Владислав Перевалов,B,150,Single-ply
3,Evgeniy Zhemchuzhnyy,Sub-Juniors,1999,Russia,82.65,140,150,,150,74+,M,Евгений Жемчужный,B,150,Single-ply
4,Daniil Telegin,Sub-Juniors,1999,Russia,102.05,-150,150,-160,150,74+,M,Даниил Телегин,B,150,Single-ply
5,Sergey Kolmakov,Sub-Juniors,2000,Russia,116.5,140,150,,150,74+,M,Сергей Колмаков,B,150,Single-ply
6,Dmitriy Gorokhov,Sub-Juniors,1999,Russia,93.8,125,-132.5,-132.5,125,74+,M,Дмитрий Горохов,B,125,Single-ply
7,Konstantin Sharko,Sub-Juniors,2001,Russia,79.45,110,117.5,122.5,122.5,74+,M,Константин Шарко,B,122.5,Single-ply
8,Egor Tkachuk,Sub-Juniors,2001,Russia,124.6,90,-100,-100,90,74+,M,Егор Ткачук,B,90,Single-ply
1,Olga Kazankevich,Masters 1,1974,Russia,84.85,80,90,100,100,,F,,B,100,Single-ply
2,Marina Galushko,Masters 2,1966,Russia,69.4,80,85,-92.5,85,,F,Марина Галушко,B,85,Single-ply
3,Msynay Frolikova,Masters 2,1960,Russia,51.35,20,25,27,27,,F,Мсынай Фроликова,B,27,Single-ply
4,Marina Orlova,Masters 1,1973,Russia,73.6,25,28,30,30,,F,Марина Орлова,B,30,Single-ply
5,Alfiya Galikeeva,Masters 2,1964,Russia,78.9,22.5,25,-28,25,,F,Альфия Галикеева,B,25,Single-ply
1,Sergey Gerasimov,Masters 1,1974,Russia,99.7,190,200,205,205,,M,Сергей Герасимов,B,205,Single-ply
2,Yuriy Urubkov,Masters 1,1968,Russia,68.95,100,105,110,110,,M,Юрий Урубков,B,110,Single-ply
3,Sergey Borschev,Masters 3,1949,Russia,118.3,120,130,135,135,,M,Сергей Борщев,B,135,Single-ply
4,Vladimir Ryazanov,Masters 2,1962,Russia,80.3,85,90,95,95,,M,Владимир Рязанов,B,95,Single-ply
5,Zulfar Garipov,Masters 2,1962,Russia,92.35,110,120,127.5,127.5,,M,,B,127.5,Single-ply
6,Aleksandr Chernyy,Masters 2,1960,Russia,118.8,65,-70,-70,65,,M,Александр Черный,B,65,Single-ply
7,Vladimir Vyalshin,Masters 1,1976,Russia,92.7,70,80,,80,,M,Владимир Вяльшин,B,80,Single-ply
1,Olga Kazankevich,Paralympics,1974,Russia,84.85,80,90,100,100,,F,,B,100,Single-ply
2,Marina Galushko,Paralympics,1966,Russia,69.4,80,85,-92.5,85,,F,Марина Галушко,B,85,Single-ply
3,Liliya Ilyasova,Paralympics,1978,Russia,49.45,55,60,63,63,,F,Лилия Ильясова,B,63,Single-ply
4,Anastasiya Pyasetskaya,Paralympics,2003,Russia,60.55,35,38,-40,38,,F,Анастасия Пясецкая,B,38,Single-ply
5,Ekaterina Ipatova,Paralympics,1990,Russia,48.05,25,28,30,30,,F,,B,30,Single-ply
6,Msynay Frolikova,Paralympics,1960,Russia,51.35,20,25,27,27,,F,Мсынай Фроликова,B,27,Single-ply
7,Marina Orlova,Paralympics,1973,Russia,73.6,25,28,30,30,,F,Марина Орлова,B,30,Single-ply
8,Alfiya Galikeeva,Paralympics,1964,Russia,78.9,22.5,25,-28,25,,F,Альфия Галикеева,B,25,Single-ply
1,Vladimir Balynets,Paralympics,1985,Russia,48.9,140,150,-160,150,,M,Владимир Балынец,B,150,Single-ply
2,Karen Abramyants,Paralympics,1977,Russia,82.5,180,-190,,180,,M,,B,180,Single-ply
3,Sergey Glavatskikh,Paralympics,1980,Russia,83.7,117,123,128,128,,M,Сергей Главатских,B,128,Single-ply
4,Konstantin Pershakov,Paralympics,1981,Russia,78.35,112,117,122,122,,M,Константин Першаков,B,122,Single-ply
5,Yuriy Urubkov,Paralympics,1968,Russia,68.95,100,105,110,110,,M,Юрий Урубков,B,110,Single-ply
6,Viktor Tsigankov,Paralympics,1991,Russia,88.75,100,110,120,120,,M,Виктор Циганков,B,120,Single-ply
7,Sergey Borschev,Paralympics,1949,Russia,118.3,120,130,135,135,,M,Сергей Борщев,B,135,Single-ply
8,Vladislav Gritsenko,Paralympics,1998,Russia,54.65,87.5,90,93,93,,M,Владислав Гриценко,B,93,Single-ply
9,Vladimir Ryazanov,Paralympics,1962,Russia,80.3,85,90,95,95,,M,Владимир Рязанов,B,95,Single-ply
10,Nikita Prilepskiy,Paralympics,1995,Russia,59.1,70,75,80,80,,M,Никита Прилепский,B,80,Single-ply
11,Denis Vorobyev,Paralympics,2001,Russia,52.65,60,70,72,72,,M,Денис Воробьев,B,72,Single-ply
12,Mikhail Seredkin,Paralympics,1977,Belarus,58.4,65,75,-85,75,,M,,B,75,Single-ply
13,Anton Slobodchikov,Paralympics,1985,Russia,59.15,55,60,62,62,,M,Антон Слободчиков,B,62,Single-ply
14,Marat Bekshenev,Paralympics,1991,Russia,58.1,50,55,60,60,,M,Марат Бекшенев,B,60,Single-ply
15,Semen Mikhaylov,Paralympics,2002,Russia,53.8,45,50,53,53,,M,Семен Михайлов,B,53,Single-ply
16,Aleksandr Mikhaylenko,Paralympics,2000,Russia,59.9,49,52,55,55,,M,Александр Михайленко,B,55,Single-ply
17,Aleksandr Chernyy,Paralympics,1960,Russia,118.8,65,-70,-70,65,,M,Александр Черный,B,65,Single-ply
18,Kirill Kabanov,Paralympics,1999,Russia,72.15,40,47,-52,47,,M,Кирилл Кабанов,B,47,Single-ply
1,Shamil Omargadzhiev,Blind,1994,Russia,79.45,45,52.5,62.5,62.5,83,M,Шамиль Омаргаджиев,B,62.5,Single-ply
