Division,WeightClassKg,Place,Name,Team,BodyweightKg,Best3SquatKg,Best3BenchKg,Best3DeadliftKg,TotalKg,Equipment,Event,Sex
Boys,51.71,1,Jeremiah Ramirez,Levelland,48.72,127.01,68.04,163.29,358.34,Single-ply,SBD,M
Boys,55.79,2,Tucker Craig,Midland,51.8,127.01,61.23,124.74,312.98,Single-ply,SBD,M
Boys,51.71,3,Omar Alonso,Snyder,50.35,104.33,65.77,124.74,294.84,Single-ply,SBD,M
Boys,51.71,4,Brandon Luevano,Haskell Paint Creek,50.26,83.91,52.16,108.86,244.94,Single-ply,SBD,M
Boys,55.79,1,Efren Miranda,Levelland,55.61,131.54,63.5,138.35,333.39,Single-ply,SBD,M
Boys,55.79,2,Luke Krueger,Snyder,55.79,122.47,61.23,145.15,328.85,Single-ply,SBD,M
Boys,55.79,3,Hayden McCalib,Wolfforth Frenship,54.79,97.52,43.09,124.74,265.35,Single-ply,SBD,M
Boys,59.87,1,Emilio Miranda,Levelland,59.06,136.08,61.23,156.49,353.8,Single-ply,SBD,M
Boys,59.87,2,Adrian Velasquez,Wolfforth Frenship,59.42,99.79,70.31,136.08,306.17,Single-ply,SBD,M
Boys,59.87,3,Cameron Arellano,Wolfforth Frenship,58.69,102.06,65.77,136.08,303.91,Single-ply,SBD,M
Boys,59.87,4,Fidel Trinidad,Post,59.51,97.52,49.9,106.59,254.01,Single-ply,SBD,M
Boys,67.13,1,Eli Rodriguez,Seagraves,66.95,217.72,102.06,201.85,521.63,Single-ply,SBD,M
Boys,67.13,2,Robert Sauceda,Ballinger,66.13,199.58,117.93,199.58,517.1,Single-ply,SBD,M
Boys,67.13,3,Brendan Garza,Snyder,66.68,163.29,97.52,181.44,442.25,Single-ply,SBD,M
Boys,67.13,4,Jd Townsend,Shallowater,63.59,127.01,83.91,161.03,371.95,Single-ply,SBD,M
Boys,67.13,5,Ivan Valverde,Denver City,66.41,111.13,79.38,136.08,326.59,Single-ply,SBD,M
Boys,67.13,6,Isaac Harper,Seagraves,66.32,115.67,72.57,131.54,319.78,Single-ply,SBD,M
Boys,67.13,7,Ethan Chavez,Seagraves,65.59,115.67,61.23,133.81,310.71,Single-ply,SBD,M
Boys,74.84,8,Hunter Graves,Post,67.31,108.86,65.77,111.13,285.76,Single-ply,SBD,M
Boys,74.84,1,Elliot Hanna,Levelland,68.95,208.65,122.47,238.14,569.26,Single-ply,SBD,M
Boys,82.1,2,Paul Perez #3,Levelland,75.02,190.51,113.4,192.78,496.68,Single-ply,SBD,M
Boys,74.84,3,Jose Juarez #4,Snyder,74.84,176.9,102.06,199.58,478.54,Single-ply,SBD,M
Boys,74.84,4,Tyler Hastings,Levelland,74.03,183.7,97.52,181.44,462.66,Single-ply,SBD,M
Boys,74.84,5,Enrique Barron,Snyder,71.35,145.15,95.25,188.24,428.64,Single-ply,SBD,M
Boys,74.84,6,Kabren Wills,Snyder,70.49,140.61,97.52,167.83,405.97,Single-ply,SBD,M
Boys,74.84,7,Dillon Hibbitts,Seagraves,72.39,136.08,86.18,158.76,381.02,Single-ply,SBD,M
Boys,74.84,8,Quince Workman,Wolfforth Frenship,72.3,115.67,81.65,172.37,369.68,Single-ply,SBD,M
Boys,74.84,9,Connor Smith,Shallowater,73.12,145.15,74.84,138.35,358.34,Single-ply,SBD,M
Boys,74.84,10,Jerry Simental,Seagraves,73.21,127.01,77.11,131.54,335.66,Single-ply,SBD,M
Boys,74.84,DQ,Taylor Ward #3,Midland,71.4,136.08,,,,Single-ply,SBD,M
Boys,74.84,DQ,Matthew Gloria,Ballinger,69.85,181.44,,,,Single-ply,SBD,M
Boys,74.84,DQ,Anthony Torres,Snyder,72.57,136.08,,,,Single-ply,SBD,M
Boys,82.1,1,Salvador Salinas,Midland,78.11,192.78,136.08,219.99,548.85,Single-ply,SBD,M
Boys,82.1,2,Steven Kirk,Ballinger,81.92,226.8,122.47,199.58,548.85,Single-ply,SBD,M
Boys,82.1,3,Robert Natividad,Midland,80.56,188.24,113.4,179.17,480.81,Single-ply,SBD,M
Boys,82.1,4,Jacob Horner,Midland,79.83,183.7,92.99,179.17,455.86,Single-ply,SBD,M
Boys,82.1,5,Jaden Zamora,Snyder,77.11,154.22,95.25,185.97,435.45,Single-ply,SBD,M
Boys,82.1,6,Breh Marmolejo,Shallowater,81.19,170.1,97.52,167.83,435.45,Single-ply,SBD,M
Boys,82.1,7,James Hampton,Wolfforth Frenship,75.75,156.49,83.91,192.78,433.18,Single-ply,SBD,M
Boys,82.1,8,AJ Escobedo,Post,81.19,163.29,97.52,151.95,412.77,Single-ply,SBD,M
Boys,82.1,9,Tyler Anderson,Snyder,81.65,149.69,83.91,179.17,412.77,Single-ply,SBD,M
Boys,82.1,10,Jacob Duenes,Shallowater,75.75,172.37,83.91,154.22,410.5,Single-ply,SBD,M
Boys,82.1,11,Adrian Martinez #7,Snyder,79.38,151.95,92.99,163.29,408.23,Single-ply,SBD,M
Boys,82.1,12,Caleb Thomas,Snyder,80.01,142.88,92.99,165.56,401.43,Single-ply,SBD,M
Boys,82.1,13,Colton Brown,Wolfforth Frenship,77.93,124.74,83.91,183.7,392.36,Single-ply,SBD,M
Boys,82.1,14,Adam Delgado,Wolfforth Frenship,79.83,122.47,90.72,165.56,378.75,Single-ply,SBD,M
Boys,82.1,15,Ethan Harper,Haskell Paint Creek,81.01,140.61,83.91,151.95,376.48,Single-ply,SBD,M
Boys,82.1,16,Austin Young,Shallowater,81.92,145.15,79.38,147.42,371.95,Single-ply,SBD,M
Boys,82.1,17,Caleb McDaniel,Wolfforth Frenship,79.11,127.01,81.65,156.49,365.14,Single-ply,SBD,M
Boys,82.1,DQ,Jordan Taylor #4,Midland,80.47,140.61,,,,Single-ply,SBD,M
Boys,89.81,1,Dannyk Ramos,Midland,89.36,249.48,136.08,226.8,612.35,Single-ply,SBD,M
Boys,89.81,2,Josh Acevedo,Wolfforth Frenship,87.91,188.24,131.54,192.78,512.56,Single-ply,SBD,M
Boys,89.81,3,Zack Salazar,Levelland,85.55,163.29,113.4,204.12,480.81,Single-ply,SBD,M
Boys,99.79,4,Asher Robinson,Wolfforth Frenship,89.99,190.51,90.72,149.69,430.91,Single-ply,SBD,M
Boys,89.81,5,Gage Morgan,Wolfforth Frenship,89.54,158.76,86.18,181.44,426.38,Single-ply,SBD,M
Boys,89.81,6,Chris Huitron,Midland,89.27,151.95,92.99,165.56,410.5,Single-ply,SBD,M
Boys,89.81,7,Justice Chavez,Shallowater,84.1,149.69,92.99,149.69,392.36,Single-ply,SBD,M
Boys,89.81,DQ,Camron Pando,Midland,86.45,133.81,,,,Single-ply,SBD,M
Boys,89.81,DQ,Meshach Mendoza,Levelland,87.72,,,,,Single-ply,SBD,M
Boys,89.81,DQ,Eduardo Hernandez,Denver City,84.73,217.72,,,,Single-ply,SBD,M
Boys,89.81,DQ,Robin Bolla,Wolfforth Frenship,88.81,181.44,,,,Single-ply,SBD,M
Boys,99.79,1,Paul Ochoa,Levelland,96.71,249.48,174.63,199.58,623.69,Single-ply,SBD,M
Boys,99.79,2,Dillon Springer,Midland,98.34,210.92,156.49,222.26,589.67,Single-ply,SBD,M
Boys,99.79,3,Keoni Garcia,Midland,97.98,208.65,129.27,219.99,557.92,Single-ply,SBD,M
Boys,99.79,4,Turner Phillips,Midland,90.26,192.78,129.27,208.65,530.7,Single-ply,SBD,M
Boys,99.79,5,Paul Mata,Snyder,98.88,208.65,122.47,199.58,530.7,Single-ply,SBD,M
Boys,99.79,6,Christian Rodriguez,Wolfforth Frenship,98.52,197.31,106.59,206.38,510.29,Single-ply,SBD,M
Boys,99.79,7,Willie Echols,Midland,93.62,185.97,111.13,197.31,494.42,Single-ply,SBD,M
Boys,99.79,8,Bolton Huerta,Wolfforth Frenship,96.89,179.17,120.2,195.04,494.42,Single-ply,SBD,M
Boys,99.79,9,Gage Holmes,Wolfforth Frenship,98.52,174.63,88.45,195.04,458.13,Single-ply,SBD,M
Boys,99.79,10,Valente Perez,Post,94.89,188.24,92.99,163.29,444.52,Single-ply,SBD,M
Boys,109.77,11,Alexis Gonzalez #1,Denver City,99.97,142.88,111.13,188.24,442.25,Single-ply,SBD,M
Boys,99.79,12,Christian Guitierrez,Denver City,94.35,142.88,83.91,170.1,396.89,Single-ply,SBD,M
Boys,99.79,13,Larry Galvan,Shallowater,95.16,158.76,88.45,147.42,394.63,Single-ply,SBD,M
Boys,99.79,14,Jordan Hernandez,Wolfforth Frenship,95.89,142.88,90.72,151.95,385.55,Single-ply,SBD,M
Boys,99.79,15,Iniel Bustos,Denver City,91.63,147.42,90.72,136.08,374.21,Single-ply,SBD,M
Boys,109.77,1,Paxton Heiting,Midland,109.32,204.12,147.42,244.94,596.47,Single-ply,SBD,M
Boys,109.77,2,Matt Cardenas,Wolfforth Frenship,109.41,222.26,140.61,219.99,582.87,Single-ply,SBD,M
Boys,109.77,3,Alex King,Levelland,105.05,183.7,129.27,231.33,544.31,Single-ply,SBD,M
Boys,109.77,4,Traver Vliem,Midland,105.41,190.51,120.2,226.8,537.51,Single-ply,SBD,M
Boys,109.77,5,Zane Sorrells,Snyder,107.5,208.65,106.59,215.46,530.7,Single-ply,SBD,M
Boys,109.77,6,Sean Humphrey,Snyder,109.36,185.97,145.15,190.51,521.63,Single-ply,SBD,M
Boys,109.77,7,Caleb Gonzales,Midland,105.6,181.44,124.74,185.97,492.15,Single-ply,SBD,M
Boys,109.77,8,Jacob Piel,Wolfforth Frenship,105.87,161.03,102.06,204.12,467.2,Single-ply,SBD,M
Boys,109.77,9,Matthew Nix,Snyder,103.87,176.9,97.52,185.97,460.4,Single-ply,SBD,M
Boys,109.77,10,Jacob Lehrer,Snyder,102.06,145.15,99.79,167.83,412.77,Single-ply,SBD,M
Boys,109.77,11,Russ Morris,Post,109.32,149.69,92.99,124.74,367.41,Single-ply,SBD,M
Boys,109.77,12,Alex Lozano,Denver City,103.96,111.13,83.91,158.76,353.8,Single-ply,SBD,M
Boys,124.74,1,Brenon Brunson,Snyder,116.39,240.4,147.42,226.8,614.62,Single-ply,SBD,M
Boys,124.74,2,Rowdy Islas,Ballinger,114.85,272.16,136.08,192.78,601.01,Single-ply,SBD,M
Boys,124.74,3,Jace King,Ballinger,116.21,226.8,127.01,190.51,544.31,Single-ply,SBD,M
Boys,124.74,4,Braxton Gardner,Midland,123.65,204.12,104.33,197.31,505.76,Single-ply,SBD,M
Boys,124.74,5,Lucas Flores,Wolfforth Frenship,111.67,190.51,99.79,204.12,494.42,Single-ply,SBD,M
Boys,124.74,6,Tito Salicido,Midland,119.48,183.7,124.74,183.7,492.15,Single-ply,SBD,M
Boys,124.74,7,Jesse Carter,Midland,112.22,165.56,102.06,210.92,478.54,Single-ply,SBD,M
Boys,124.74,8,Adrian Vasquez,Midland,123.92,158.76,106.59,154.22,419.57,Single-ply,SBD,M
Boys,124.74,9,Jonathan Casali,Shallowater,120.11,136.08,79.38,140.61,356.07,Single-ply,SBD,M
Boys,124.74,DQ,Brandon Rocha,Snyder,118.39,,,,,Single-ply,SBD,M
Boys,124.74+,1,Chris Simmons,Levelland,131.18,249.48,174.63,226.8,650.91,Single-ply,SBD,M
Boys,124.74+,2,Brandon Rowand,Levelland,158.3,244.94,161.03,233.6,639.57,Single-ply,SBD,M
Boys,124.74+,3,Vincent Mendoza,Wolfforth Frenship,127.19,276.69,122.47,231.33,630.49,Single-ply,SBD,M
Boys,124.74+,4,Dominick Puente,Levelland,152.04,249.48,131.54,206.38,587.4,Single-ply,SBD,M
Boys,124.74+,5,Cesar Juarez,Midland,128.37,233.6,129.27,190.51,553.38,Single-ply,SBD,M
Boys,124.74+,6,Trent Cottrell,Snyder,132.9,213.19,115.67,204.12,532.97,Single-ply,SBD,M
Boys,124.74+,7,Francisco Esparza,Snyder,136.08,192.78,115.67,213.19,521.63,Single-ply,SBD,M
Boys,124.74+,8,Alexander Dimba,Wolfforth Frenship,204.12,192.78,120.2,174.63,487.61,Single-ply,SBD,M
