Division,WeightClassKg,Place,Name,Team,BodyweightKg,Best3SquatKg,Best3BenchKg,Best3DeadliftKg,TotalKg,Equipment,Event,Sex
Boys,51.71,1,Devin Thompson,Gladewater Sabine,51.26,102.06,52.16,113.4,267.62,Single-ply,SBD,M
Boys,51.71,2,Braden Fears,White Oak,48.08,97.52,54.43,113.4,265.35,Single-ply,SBD,M
Boys,55.79,1,Aaron Johnson,Jefferson,53.61,158.76,88.45,163.29,410.5,Single-ply,SBD,M
Boys,55.79,2,Kevin Chavez,Laird Hill Leveretts Chapel,54.43,106.59,63.5,124.74,294.84,Single-ply,SBD,M
Boys,55.79,3,Pedro Rodriquez,Waskom,54.34,104.33,72.57,111.13,288.03,Single-ply,SBD,M
Boys,55.79,4,Gabe Lane,Gladewater Sabine,54.79,108.86,61.23,106.59,276.69,Single-ply,SBD,M
Boys,59.87,5,Ethan Robinson,Laird Hill Leveretts Chapel,55.97,65.77,45.36,92.99,204.12,Single-ply,SBD,M
Boys,59.87,1,Donovan Roberts,Winnsboro,56.34,138.35,72.57,106.59,317.51,Single-ply,SBD,M
Boys,59.87,2,Johnny Gordon,Gladewater,59.33,120.2,65.77,124.74,310.71,Single-ply,SBD,M
Boys,67.13,1,Kordell Parks,San Augustine,63.5,165.56,83.91,167.83,417.3,Single-ply,SBD,M
Boys,67.13,2,Kameron Smith,Big Sandy,63.78,142.88,102.06,172.37,417.3,Single-ply,SBD,M
Boys,67.13,3,Kyle Williams,Big Sandy,65.95,158.76,83.91,145.15,387.82,Single-ply,SBD,M
Boys,67.13,4,Tyler Leonard,Jefferson,64.23,129.27,88.45,154.22,371.95,Single-ply,SBD,M
Boys,67.13,5,Tevin Roberts,Gladewater Sabine,66.5,136.08,77.11,158.76,371.95,Single-ply,SBD,M
Boys,67.13,6,Carlos Camacho,White Oak,66.5,138.35,86.18,142.88,367.41,Single-ply,SBD,M
Boys,67.13,7,Mauro Galllegos,Gladewater Sabine,62.14,136.08,77.11,140.61,353.8,Single-ply,SBD,M
Boys,67.13,8,Nick Kilburn,Big Sandy,64.86,136.08,79.38,136.08,351.53,Single-ply,SBD,M
Boys,67.13,9,Jason Jinks,Waskom,62.87,145.15,,154.22,299.37,Single-ply,SD,M
Boys,67.13,10,Jessie Ackridge,Jefferson,63.59,102.06,72.57,120.2,294.84,Single-ply,SBD,M
Boys,74.84,1,Jeremy Moses,Winnsboro,72.67,201.85,117.93,210.92,530.7,Single-ply,SBD,M
Boys,74.84,2,Ethan Rakich,Winnsboro,71.12,201.85,111.13,192.78,505.76,Single-ply,SBD,M
Boys,74.84,3,Lucas Pinnell,Winnsboro,68.86,179.17,95.25,195.04,469.47,Single-ply,SBD,M
Boys,74.84,4,Terry Floyd,Gladewater,70.67,181.44,95.25,192.78,469.47,Single-ply,SBD,M
Boys,74.84,5,Da'Lyn Gipson,Mount Enterprise,70.94,172.37,79.38,204.12,455.86,Single-ply,SBD,M
Boys,74.84,6,Javian Bluford,San Augustine,74.75,154.22,115.67,179.17,449.06,Single-ply,SBD,M
Boys,74.84,7,Durian Bonner,Jefferson,72.67,149.69,111.13,183.7,444.52,Single-ply,SBD,M
Boys,74.84,8,Lane Croft,White Oak,72.39,163.29,97.52,172.37,433.18,Single-ply,SBD,M
Boys,74.84,9,Colby Shaw,Laird Hill Leveretts Chapel,71.3,142.88,92.99,181.44,417.3,Single-ply,SBD,M
Boys,74.84,10,Jonathan Spurlin,Winnsboro,71.3,138.35,102.06,156.49,396.89,Single-ply,SBD,M
Boys,74.84,11,Caden Clifford,Gladewater Sabine,68.04,149.69,81.65,147.42,378.75,Single-ply,SBD,M
Boys,74.84,12,Bryston Oliver,Gladewater,71.85,136.08,72.57,158.76,367.41,Single-ply,SBD,M
Boys,74.84,13,Shawn Johnson,Gladewater,71.49,124.74,79.38,158.76,362.87,Single-ply,SBD,M
Boys,74.84,14,Bradley Cochran,Waskom,72.76,127.01,72.57,131.54,331.12,Single-ply,SBD,M
Boys,74.84,15,Raymundo Alverez,Gladewater,70.58,113.4,74.84,129.27,317.51,Single-ply,SBD,M
Boys,82.1,1,Maurice Ramirez,Winnsboro,80.83,222.26,131.54,183.7,537.51,Single-ply,SBD,M
Boys,82.1,2,Cer'Charvie Berry,San Augustine,77.66,192.78,124.74,208.65,526.17,Single-ply,SBD,M
Boys,82.1,3,Cer'Charvis Berry,San Augustine,80.01,190.51,124.74,179.17,494.42,Single-ply,SBD,M
Boys,82.1,4,Mitchell Attaway,Winnsboro,80.56,195.04,97.52,172.37,464.93,Single-ply,SBD,M
Boys,82.1,5,Montana Bockman,Jefferson,78.74,163.29,88.45,174.63,426.38,Single-ply,SBD,M
Boys,82.1,6,Cody Preston,White Oak,78.65,142.88,72.57,183.7,399.16,Single-ply,SBD,M
Boys,82.1,7,Dante Byerly,Laird Hill Leveretts Chapel,75.11,102.06,79.38,142.88,324.32,Single-ply,SBD,M
Boys,82.1,8,Ricardo Sanchez,Laird Hill Leveretts Chapel,81.83,154.22,,154.22,308.44,Single-ply,SD,M
Boys,89.81,1,Tyson Gearner,Winnsboro,88.9,210.92,158.76,215.46,585.13,Single-ply,SBD,M
Boys,89.81,2,Tony Burns,Mount Enterprise,88.63,204.12,149.69,190.51,544.31,Single-ply,SBD,M
Boys,99.79,3,Koelin Munoz,White Oak,89.9,208.65,111.13,213.19,532.97,Single-ply,SBD,M
Boys,89.81,4,Jaylon Hardeman,Jefferson,88.54,210.92,120.2,192.78,523.9,Single-ply,SBD,M
Boys,89.81,5,Hunter Masterson,Gladewater,89.27,149.69,72.57,158.76,381.02,Single-ply,SBD,M
Boys,89.81,6,De'Vonte Gunter,Gladewater,88.09,136.08,90.72,147.42,374.21,Single-ply,SBD,M
Boys,89.81,7,Cane Ferguson,Gladewater,82.55,124.74,70.31,142.88,337.93,Single-ply,SBD,M
Boys,89.81,8,Chase Brewer,Laird Hill Leveretts Chapel,84.19,92.99,61.23,124.74,278.96,Single-ply,SBD,M
Boys,109.77,1,Bryan Winburn,Winnsboro,99.88,265.35,163.29,240.4,669.05,Single-ply,SBD,M
Boys,109.77,2,Brandon Gann,Gladewater Sabine,99.88,206.38,120.2,222.26,548.85,Single-ply,SBD,M
Boys,99.79,3,Mikey Grubbs,Mount Enterprise,98.61,204.12,120.2,222.26,546.58,Single-ply,SBD,M
Boys,99.79,4,Grant Stansberry,Gladewater Sabine,91.9,204.12,122.47,213.19,539.77,Single-ply,SBD,M
Boys,99.79,5,Drury Vaughn,Winnsboro,94.71,170.1,102.06,201.85,474,Single-ply,SBD,M
Boys,99.79,6,Isiah Tiner,Gladewater,93.71,161.03,102.06,170.1,433.18,Single-ply,SBD,M
Boys,99.79,7,Keylon Mack,Gladewater,91.81,172.37,92.99,158.76,424.11,Single-ply,SBD,M
Boys,99.79,8,Nick Johnston,White Oak,94.17,163.29,102.06,142.88,408.23,Single-ply,SBD,M
Boys,99.79,9,Tanner Morris,Big Sandy,91.9,172.37,,158.76,331.12,Single-ply,SD,M
Boys,99.79,10,Chris Cornett,Gladewater Sabine,99.06,117.93,61.23,142.88,322.05,Single-ply,SBD,M
Boys,109.77,1,Landon Simmons,Jefferson,105.6,249.48,142.88,233.6,625.96,Single-ply,SBD,M
Boys,109.77,2,Chris Bloyd,White Oak,103.87,254.01,136.08,210.92,601.01,Single-ply,SBD,M
Boys,109.77,3,DeSavion Crane,San Augustine,104.96,229.06,122.47,176.9,528.44,Single-ply,SBD,M
Boys,109.77,4,Charlie Ramsey,Big Sandy,107.86,158.76,131.54,192.78,483.08,Single-ply,SBD,M
Boys,109.77,5,Kris Kelley,Big Sandy,104.51,170.1,,192.78,362.87,Single-ply,SD,M
Boys,109.77,6,Chad Batie,Laird Hill Leveretts Chapel,103.06,102.06,61.23,136.08,299.37,Single-ply,SBD,M
Boys,124.74,1,Joseph McKee,Winnsboro,111.77,206.38,122.47,206.38,535.24,Single-ply,SBD,M
Boys,124.74,2,Caiden Phillips,Jefferson,115.12,204.12,131.54,192.78,528.44,Single-ply,SBD,M
Boys,124.74+,3,Tanner Tucker,Gladewater Sabine,124.92,142.88,120.2,136.08,399.16,Single-ply,SBD,M
Boys,124.74,4,Jon-Michael McKinney,Gladewater Sabine,121.56,190.51,,181.44,371.95,Single-ply,SD,M
Boys,124.74,5,Rodney Stevenson,Big Sandy,111.58,179.17,,158.76,337.93,Single-ply,SD,M
Boys,124.74+,1,Lyle Owens,White Oak,131.63,210.92,154.22,163.29,528.44,Single-ply,SBD,M
Boys,124.74+,2,Zach Stevenson,Big Sandy,143.88,195.04,117.93,190.51,503.49,Single-ply,SBD,M
Boys,124.74+,3,Jack Smith #3,Waskom,137.35,163.29,102.06,170.1,435.45,Single-ply,SBD,M
Boys,124.74+,4,Dre Tennison,Gladewater,138.89,,136.08,204.12,340.19,Single-ply,BD,M
