Division,WeightClassKg,Place,Name,Team,BodyweightKg,Best3SquatKg,Best3BenchKg,Best3DeadliftKg,TotalKg,Equipment,Event,Sex,BirthDate
Boys,55.79,1,Jose Vasquez Cruz,Andrews,52.53,127.01,72.57,142.88,342.46,Single-ply,SBD,M,
Boys,55.79,2,Ryan Ramirez,Monahans,54.43,113.4,61.23,129.27,303.91,Single-ply,SBD,M,
Boys,59.87,1,Caleb Lee,Monahans,56.88,138.35,68.04,122.47,328.85,Single-ply,SBD,M,
Boys,59.87,2,Nathan Wessels,Monahans,56.34,97.52,49.9,111.13,258.55,Single-ply,SBD,M,
Boys,67.13,1,Daniel Montano,Andrews,65.23,154.22,86.18,199.58,439.98,Single-ply,SBD,M,
Boys,67.13,2,Jonas Garza,Andrews,65.59,140.61,90.72,161.03,392.36,Single-ply,SBD,M,
Boys,67.13,3,Keagan Roberson,Monahans,61.87,127.01,74.84,140.61,342.46,Single-ply,SBD,M,
Boys,67.13,4,Alex Miranda,Monahans,66.59,120.2,68.04,145.15,333.39,Single-ply,SBD,M,
Boys,74.84,1,Gavin Rhoudes,Andrews,73.57,156.49,99.79,181.44,437.72,Single-ply,SBD,M,
Boys,74.84,2,Noah Powell,Monahans,72.39,131.54,83.91,140.61,356.07,Single-ply,SBD,M,
Boys,82.1,1,Jakob Guy,Andrews,80.2,167.83,108.86,163.29,439.98,Single-ply,SBD,M,
Boys,82.1,2,Javier Garcia #13,Andrews,75.66,138.35,97.52,199.58,435.45,Single-ply,SBD,M,
Boys,82.1,3,Matthew Valenzuela,Andrews,79.56,156.49,113.4,165.56,435.45,Single-ply,SBD,M,
Boys,82.1,4,Conner McCrarey,Andrews,75.39,158.76,79.38,181.44,419.57,Single-ply,SBD,M,
Boys,99.79,1,Damian Herrera,Monahans,95.89,170.1,127.01,204.12,501.22,Single-ply,SBD,M,
Boys,99.79,2,Daniel Guttierez,Andrews,90.08,147.42,99.79,165.56,412.77,Single-ply,SBD,M,
Boys,124.74,1,Moises Rodriguez,Monahans,112.22,192.78,124.74,197.31,514.83,Single-ply,SBD,M,
Boys,124.74,2,Jacob Payne,Monahans,110.86,217.72,117.93,174.63,510.29,Single-ply,SBD,M,
Boys,124.74,3,Jacob Alston,Monahans,115.3,172.37,127.01,201.85,501.22,Single-ply,SBD,M,
Boys,124.74,4,Camdon Thatcher,Andrews,122.74,208.65,106.59,165.56,480.81,Single-ply,SBD,M,
Boys,124.74,5,Beau Orson,Andrews,117.48,149.69,90.72,147.42,387.82,Single-ply,SBD,M,
Boys,139.71+,1,Chico Delgado,Andrews,139.98,190.51,131.54,172.37,494.42,Single-ply,SBD,M,
Boys,139.71+,2,Miguel Jauregui,Monahans,190.51,174.63,95.25,156.49,426.38,Single-ply,SBD,M,
