Place,Name,State,WeightClassKg,BodyweightKg,BirthDate,Age,Squat1Kg,Squat2Kg,Squat3Kg,Best3SquatKg,Bench1Kg,Bench2Kg,Bench3Kg,Best3BenchKg,Deadlift1Kg,Deadlift2Kg,Deadlift3Kg,Best3DeadliftKg,TotalKg,Bench4Kg,Deadlift4Kg,Event,Equipment,Sex,Division
1,Kayla Smith,GA,48,44.9,,23,65,70,72.5,72.5,45,50,-52.5,50,102.5,107.5,-115,107.5,230,,,SBD,Raw,F,Juniors 20-23
1,Haley Devers,PA,56,55.5,,20,130,135,140,140,100.5,-105,105,105,137.5,-142.5,-142.5,137.5,382.5,107.5,,SBD,Raw,F,Juniors 20-23
2,Madison Montes,AZ,56,55.1,,21,85,100,105,105,55,-62.5,-62.5,55,112.5,120,130,130,290,,,SBD,Raw,F,Juniors 20-23
1,Danielle Garrod,WA,60,59.3,,22,135,142.5,150,150,82.5,-87.5,87.5,87.5,145,152.5,160,160,397.5,,,SBD,Raw,F,Juniors 20-23
2,Alessandra Molina,MD,60,58.4,,21,117.5,125,-130,125,80,-85,-85,80,152.5,162.5,-170,162.5,367.5,,,SBD,Raw,F,Juniors 20-23
1,Madison Konkel,KS,67.5,66.6,,19,100,107.5,112.5,112.5,60,65,-70,65,112.5,120,127.5,127.5,305,,,SBD,Raw,F,Juniors 18-19
1,Sarah Hasner,KY,67.5,65.1,,21,112.5,122.5,127.5,127.5,67.5,75,80,80,125,137.5,147.5,147.5,355,,,SBD,Raw,F,Juniors 20-23
1,Addison Foster,TX,75,73.6,,15,110,120,-125,120,55,62.5,-65,62.5,117.5,127.5,-135,127.5,310,,,SBD,Raw,F,Juniors 13-15
DQ,Moorea Boardman,AZ,75,73.4,,23,127.5,132.5,-137.5,132.5,-75,-80,-80,,150,165,-172.5,165,,,,SBD,Raw,F,Juniors 20-23
1,Harley Adamson,OH,90+,110.8,,19,157.5,-167.5,-167.5,157.5,70,-77.5,-77.5,70,140,-152.5,160,160,387.5,,,SBD,Raw,F,Juniors 18-19
1,Jessica Thompson #2,TX,90+,123.4,,20,-192.5,-202.5,202.5,202.5,87.5,90,92.5,92.5,192.5,202.5,-215,202.5,497.5,,,SBD,Raw,F,Juniors 20-23
1,Kayla Smith,GA,48,44.9,,23,65,70,72.5,72.5,45,50,-52.5,50,102.5,107.5,-115,107.5,230,,,SBD,Raw,F,Open
1,Margie Haddon,TX,52,51,,59,85,-93,93,93,47.5,-50,50,50,110,115,-117.5,115,258,,,SBD,Raw,F,Open
DQ,Katie Lich,MI,52,51.7,,36,107.5,-110,110,110,-60,-60,60,60,-175,-175,,,,,,SBD,Raw,F,Open
1,Erin Harding,LA,56,54.8,,31,130,135,-140,135,80,85,87.5,87.5,150,160,-165,160,382.5,,,SBD,Raw,F,Open
2,Haley Devers,PA,56,55.5,,20,130,135,140,140,100.5,-105,105,105,137.5,-142.5,-142.5,137.5,382.5,107.5,,SBD,Raw,F,Open
3,Madison Montes,AZ,56,55.1,,21,85,100,105,105,55,-62.5,-62.5,55,112.5,120,130,130,290,,,SBD,Raw,F,Open
1,Nikki Solis,TX,60,59.2,,26,162.5,170,175,175,-75,75,80,80,180,190,195,195,450,,,SBD,Raw,F,Open
2,Danielle Garrod,WA,60,59.3,,22,135,142.5,150,150,82.5,-87.5,87.5,87.5,145,152.5,160,160,397.5,,,SBD,Raw,F,Open
3,Allison Whorton,MD,60,59.4,,26,125,137.5,142.5,142.5,60,65,-70,65,167.5,177.5,185,185,392.5,,,SBD,Raw,F,Open
4,Teri Ivey Gehring,TX,60,59,,50,112.5,117.5,122.5,122.5,90,95,-100,95,150,160.5,-165,160.5,378,,,SBD,Raw,F,Open
5,Alessandra Molina,MD,60,58.4,,21,117.5,125,-130,125,80,-85,-85,80,152.5,162.5,-170,162.5,367.5,,,SBD,Raw,F,Open
6,Nikki Davis,TX,60,59.3,,27,117.5,127.5,132.5,132.5,65,70,-72.5,70,135,147.5,-155,147.5,350,,,SBD,Raw,F,Open
7,Nicole Hunter #1,GA,60,59,,35,95,100,105,105,60,65,67.5,67.5,110,117.5,127.5,127.5,300,,,SBD,Raw,F,Open
1,Valerie Smith #1,GA,67.5,66.6,,47,140,150,155,155,100,105,107.5,107.5,167.5,182.5,190.5,190.5,453,,,SBD,Raw,F,Open
2,Michelle Mazulis,NM,67.5,66.7,,52,140,155,161,161,92.5,-96,-96,92.5,180,190,-200,190,443.5,,,SBD,Raw,F,Open
3,Marshelle Johnston,CO,67.5,65.6,,27,-125,125,132.5,132.5,75,77.5,80,80,160,165,170,170,382.5,,,SBD,Raw,F,Open
4,Danielle DeWitt #1,LA,67.5,65.6,,32,130,137.5,-145,137.5,65,70,75,75,142.5,155,170,170,382.5,,,SBD,Raw,F,Open
5,Sara Frankovich-Hannie,LA,67.5,66.9,,35,125,130,-135,130,67.5,72.5,-77.5,72.5,140,145,150,150,352.5,,,SBD,Raw,F,Open
6,Emilie Sallee,TX,67.5,65.4,,30,115,120,-125,120,57.5,60,-62.5,60,122.5,130,137.5,137.5,317.5,,,SBD,Raw,F,Open
7,Jodi Hamlin,TX,67.5,67.2,,52,-85,-85,85,85,77.5,80,82.5,82.5,115,-117.5,117.5,117.5,285,,,SBD,Raw,F,Open
1,Cindy Shockman,OR,75,73.6,,54,137.5,147.5,-152.5,147.5,122.5,-132.5,-132.5,122.5,182.5,195,-200,195,465,,,SBD,Raw,F,Open
2,Shelbie Jones,IN,75,74.1,,28,137.5,145,-152.5,145,62.5,67.5,70,70,200,212.5,217.5,217.5,432.5,,,SBD,Raw,F,Open
3,Jessica George,NM,75,70,,34,142.5,-150,155,155,82.5,87.5,90,90,170,177.5,182.5,182.5,427.5,,,SBD,Raw,F,Open
4,Lindsey Scrivner,TX,75,74.3,,32,140,147.5,-155,147.5,75,80,-85,80,177.5,187.5,195,195,422.5,,,SBD,Raw,F,Open
5,Erika Cordova,TX,75,68.4,,34,150,-165,-165,150,77.5,82.5,85,85,170,180,-182.5,180,415,,,SBD,Raw,F,Open
6,Hailey Badon,LA,75,70.2,,30,140,150,-155,150,80,-85,85,85,162.5,172.5,-182.5,172.5,407.5,,,SBD,Raw,F,Open
7,Barbara Taylor,CA,75,74.8,,63,112.5,120,125.5,125.5,100,-103,103,103,-150,167.5,175,175,403.5,,,SBD,Raw,F,Open
8,Tammy Mims,AL,75,68.3,,51,142.5,150,-157.5,150,80,85,87.5,87.5,142.5,152.5,162.5,162.5,400,,,SBD,Raw,F,Open
9,Courtney Dewitt,AZ,75,69.9,,24,137.5,145,-147.5,145,72.5,77.5,-82.5,77.5,140,147.5,150,150,372.5,,,SBD,Raw,F,Open
10,Sarah Foster,TX,75,74,,47,107.5,117.5,-125,117.5,62.5,70,-72.5,70,112.5,120,127.5,127.5,315,,,SBD,Raw,F,Open
11,Addison Foster,TX,75,73.6,,15,110,120,-125,120,55,62.5,-65,62.5,117.5,127.5,-135,127.5,310,,,SBD,Raw,F,Open
1,Tabetha Held,MO,82.5,75.8,,51,145,160,-165,160,97.5,102.5,-107.5,102.5,142.5,150,157.5,157.5,420,,,SBD,Raw,F,Open
2,Holly Torrez,KS,82.5,80.2,,30,-142.5,-142.5,142.5,142.5,82.5,95,-97.5,95,160,172.5,-182.5,172.5,410,,,SBD,Raw,F,Open
3,Tina Collins #1,TX,82.5,81.1,,52,120,132.5,142.5,142.5,75,85,87.5,87.5,142.5,165,175,175,405,,,SBD,Raw,F,Open
4,Jessica Lewis,NY,82.5,81.8,,25,130,140,152.5,152.5,87.5,95,-105,95,140,157.5,-175,157.5,405,,,SBD,Raw,F,Open
5,April Huynh,TX,82.5,75.6,,30,125,135,142.5,142.5,77.5,82.5,-87.5,82.5,155,165,170,170,395,,,SBD,Raw,F,Open
6,Lauren Plooster,WA,82.5,81.3,,37,125,137.5,-142.5,137.5,67.5,72.5,75,75,152.5,162.5,-172.5,162.5,375,,,SBD,Raw,F,Open
7,Kirsten Rockwood,PA,82.5,81.4,,25,120,130,137.5,137.5,75,-85,-85,75,-137.5,-155,155,155,367.5,,,SBD,Raw,F,Open
DQ,Lacey Gretsinger,OK,82.5,81.1,,27,-160,-160,-160,,-95,,,,,,,,,,,SBD,Raw,F,Open
1,Chelsea Gamble,KS,90,89.8,,30,150,162.5,-170,162.5,80,85,87.5,87.5,175,192.5,205,205,455,,,SBD,Raw,F,Open
2,Lauren Calloway,GA,90,90,,33,145,-152.5,155,155,77.5,-85,85,85,165,175,-182.5,175,415,,,SBD,Raw,F,Open
3,Rae Ballard,GA,90,86.4,,46,125,-145,147.5,147.5,75,87.5,-92.5,87.5,150,172.5,-180,172.5,407.5,,,SBD,Raw,F,Open
4,Stacy Robison,TX,90,88.9,,43,132.7,147.5,155,155,77.5,87.5,-92.5,87.5,147.5,160,-167.5,160,402.5,,,SBD,Raw,F,Open
5,Alexis Evans,ME,90,88.8,,32,-150,150,-157.5,150,67.5,-72.5,-72.5,67.5,167.5,-182.5,-182.5,167.5,385,,,SBD,Raw,F,Open
DQ,Julia Sweet,IN,90,89.9,,51,-147.5,147.5,-160,147.5,-92.5,-97.5,-97.5,,-160,160,172.5,172.5,,,177.5,SBD,Raw,F,Open
1,Tiffany Richards,TX,90+,96.3,,33,185,195,-202.5,195,107.5,117.5,-122.5,117.5,185,197.5,-205,197.5,510,,,SBD,Raw,F,Open
2,Jessica Thompson #2,TX,90+,123.4,,20,-192.5,-202.5,202.5,202.5,87.5,90,92.5,92.5,192.5,202.5,-215,202.5,497.5,,,SBD,Raw,F,Open
3,Katilyn LaBove,LA,90+,115.4,,28,172.5,-182.5,187.5,187.5,87.5,92.5,97.5,97.5,187.5,202.5,210,210,495,,,SBD,Raw,F,Open
4,Carina Mone,NC,90+,114.4,,38,145,160,165,165,85,92.5,-97.5,92.5,142.5,152.5,-160,152.5,410,,,SBD,Raw,F,Open
DQ,Candice Janco,TN,90+,128.8,,35,175,182.5,190,190,95,-100,-100,95,-160,-160,-160,,,,,SBD,Raw,F,Open
1,Anna Fedie,TX,60,59.4,,35,115,-122.5,127.5,127.5,55,65,-70,65,120,130,137.5,137.5,330,,,SBD,Raw,F,Submasters 35-39
2,Nicole Hunter #1,GA,60,59,,35,95,100,105,105,60,65,67.5,67.5,110,117.5,127.5,127.5,300,,,SBD,Raw,F,Submasters 35-39
1,Ashia Lavergne,LA,67.5,66.9,,37,-107.5,-107.5,107.5,107.5,62.5,67.5,70,70,127.5,137.5,-140,137.5,315,,,SBD,Raw,F,Submasters 35-39
1,Lauren Plooster,WA,82.5,81.3,,37,125,137.5,-142.5,137.5,67.5,72.5,75,75,152.5,162.5,-172.5,162.5,375,,,SBD,Raw,F,Submasters 35-39
1,Jayia Williams,TX,90,84.4,,39,155,162.5,-172.5,162.5,85,87.5,-90,87.5,155,162.5,172.5,172.5,422.5,,,SBD,Raw,F,Submasters 35-39
1,Carina Mone,NC,90+,114.4,,38,145,160,165,165,85,92.5,-97.5,92.5,142.5,152.5,-160,152.5,410,,,SBD,Raw,F,Submasters 35-39
1,Margie Haddon,TX,52,51,,59,85,-93,93,93,47.5,-50,50,50,110,115,-117.5,115,258,,,SBD,Raw,F,Masters 55-59
1,Brandee Bratton,TX,56,53.2,,47,107.5,117.5,-125,117.5,67.5,72.5,-80,72.5,140,150,152.5,152.5,342.5,,,SBD,Raw,F,Masters 45-49
2,Jennifer Washburn,PA,56,54.3,,46,82.5,90,-97.5,90,-65,65,-67.5,65,115,-125,130,130,285,,,SBD,Raw,F,Masters 45-49
1,Monica Martinez,TX,60,58.9,,45,100,105,-112.5,105,50,52.5,-55,52.5,112.5,122.5,-127.5,122.5,280,,,SBD,Raw,F,Masters 45-49
1,Teri Ivey Gehring,TX,60,59,,50,112.5,117.5,122.5,122.5,90,95,-100,95,150,160.5,-165,160.5,378,,,SBD,Raw,F,Masters 50-54
2,Christina Briggs,NJ,60,58.7,,52,105,115,120,120,57.5,62.5,-67.5,62.5,142.5,150,157.5,157.5,340,,,SBD,Raw,F,Masters 50-54
1,Cindy Vasilantone,PA,60,58.8,,58,-90,90,97.5,97.5,50,52.5,57.5,57.5,100,112.5,-117.5,112.5,267.5,,,SBD,Raw,F,Masters 55-59
2,Loraine Efron,TX,60,56.2,,58,82.5,90,-95,90,42.5,47.5,50,50,95,102.5,-107.5,102.5,242.5,,,SBD,Raw,F,Masters 55-59
1,Alice Hulsey,TX,60,57.1,,60,75,80,85,85,42.5,-45,45,45,107.5,110,-112.5,110,240,,,SBD,Raw,F,Masters 60-64
DQ,Helen Davey,TX,60,57.1,,71,60,62.5,65,65,-32.5,-32.5,-32.5,,85,87.5,-90,87.5,,,,SBD,Raw,F,Masters 70-74
1,Valerie Smith #1,GA,67.5,66.6,,47,140,150,155,155,100,105,107.5,107.5,167.5,182.5,190.5,190.5,453,,,SBD,Raw,F,Masters 45-49
DQ,Linette Kinsley,PA,67.5,64.1,,45,-100,-105,-105,,65,-70,-70,65,-140,142.5,152.5,152.5,,,,SBD,Raw,F,Masters 45-49
1,Michelle Mazulis,NM,67.5,66.7,,52,140,155,161,161,92.5,-96,-96,92.5,180,190,-200,190,443.5,,,SBD,Raw,F,Masters 50-54
2,Christina Leonatti,CO,67.5,64.2,,52,105,-112.5,-112.5,105,80,87.5,92.5,92.5,127.5,132.5,140,140,337.5,,,SBD,Raw,F,Masters 50-54
3,Katie Intini,PA,67.5,65.3,,52,-107.5,107.5,-110,107.5,47.5,50,-52.5,50,117.5,125,130,130,287.5,,,SBD,Raw,F,Masters 50-54
4,Jodi Hamlin,TX,67.5,67.2,,52,-85,-85,85,85,77.5,80,82.5,82.5,115,-117.5,117.5,117.5,285,,,SBD,Raw,F,Masters 50-54
1,Tessa Yelvington,TX,67.5,64.3,,58,85,90,95,95,57.5,-62.5,-62.5,57.5,132.5,140,-142.5,140,292.5,,,SBD,Raw,F,Masters 55-59
1,Sarah Foster,TX,75,74,,47,107.5,117.5,-125,117.5,62.5,70,-72.5,70,112.5,120,127.5,127.5,315,,,SBD,Raw,F,Masters 45-49
1,Cindy Shockman,OR,75,73.6,,54,137.5,147.5,-152.5,147.5,122.5,-132.5,-132.5,122.5,182.5,195,-200,195,465,,,SBD,Raw,F,Masters 50-54
2,Tammy Mims,AL,75,68.3,,51,142.5,150,-157.5,150,80,85,87.5,87.5,142.5,152.5,162.5,162.5,400,,,SBD,Raw,F,Masters 50-54
3,Herlinda Hinojosa,TX,75,73.2,,50,112.5,-122.5,122.5,122.5,52.5,-55,55,55,-125,125,140,140,317.5,,,SBD,Raw,F,Masters 50-54
1,Barbara Taylor,CA,75,74.8,,63,112.5,120,125.5,125.5,100,-103,103,103,-150,167.5,175,175,403.5,,,SBD,Raw,F,Masters 60-64
1,Amy Gagnon,WA,82.5,79.6,,42,135,145,-152.5,145,72.5,75,-80,75,135,145,150,150,370,,,SBD,Raw,F,Masters 40-44
1,Tabetha Held,MO,82.5,75.8,,51,145,160,-165,160,97.5,102.5,-107.5,102.5,142.5,150,157.5,157.5,420,,,SBD,Raw,F,Masters 50-54
2,Tina Collins #1,TX,82.5,81.1,,52,120,132.5,142.5,142.5,75,85,87.5,87.5,142.5,165,175,175,405,,,SBD,Raw,F,Masters 50-54
1,Stacy Robison,TX,90,88.9,,43,132.7,147.5,155,155,77.5,87.5,-92.5,87.5,147.5,160,-167.5,160,402.5,,,SBD,Raw,F,Masters 40-44
1,Jennifer Martinez #3,TX,90,87.7,,46,130,142.5,152.5,152.5,67.5,75,80,80,157.5,170,177.5,177.5,410,,,SBD,Raw,F,Masters 45-49
2,Rae Ballard,GA,90,86.4,,46,125,-145,147.5,147.5,75,87.5,-92.5,87.5,150,172.5,-180,172.5,407.5,,,SBD,Raw,F,Masters 45-49
1,Tazzie Colomb,LA,90,88.1,,54,137.5,152.5,162.5,162.5,97.5,107.5,112.5,112.5,150,165,172.5,172.5,447.5,,,SBD,Raw,F,Masters 50-54
2,Anna Spears,TX,90,87.1,,52,145,157.5,167.5,167.5,82.5,87.5,-95,87.5,167.5,182.5,187.5,187.5,442.5,,,SBD,Raw,F,Masters 50-54
DQ,Julia Sweet,IN,90,89.9,,51,-147.5,147.5,-160,147.5,-92.5,-97.5,-97.5,,-160,160,172.5,172.5,,,177.5,SBD,Raw,F,Masters 50-54
1,Robin Clark,TX,90,87.5,,60,122.5,130,132.5,132.5,87.5,92.5,-95,92.5,140,150,162.5,162.5,387.5,,,SBD,Raw,F,Masters 60-64
DQ,Donna Lovetro,AZ,90,85.6,,64,-105,-107.5,107.5,107.5,72.5,75,-77.5,75,-137.5,-137.5,-137.5,,,,,SBD,Raw,F,Masters 60-64
1,Tracy Castillo,TX,90+,93,,52,-135,135,142.5,142.5,72.5,-77.5,-77.5,72.5,165,175,185,185,400,,,SBD,Raw,F,Masters 50-54
1,Sam Devin,IL,67.5,66.1,,18,142.5,150,-155,150,97.5,105,-107.5,105,165,172.5,182.5,182.5,437.5,,,SBD,Raw,M,Juniors 18-19
1,Colby Humphries,CA,75,71.4,,19,205,210,-215,210,135,140,145,145,227.5,235,-240,235,590,,,SBD,Raw,M,Juniors 18-19
1,Leo Sustaita,TX,75,74.8,,21,235,242.5,247.5,247.5,147.5,155,-160,155,242.5,262.5,265,265,667.5,,,SBD,Raw,M,Juniors 20-23
2,Tracy Gilliard,VA,75,74.3,,23,210,220,-225,220,155,160,162.5,162.5,280,-290,-290,280,662.5,,,SBD,Raw,M,Juniors 20-23
3,Evan Rogers,TX,75,74.1,,22,195,205,-215,205,-140,140,-145,140,260,270,-280,270,615,,,SBD,Raw,M,Juniors 20-23
4,Giovanni Ardalan,VA,75,74.7,,20,205,215,222.5,222.5,130,147.5,152.5,152.5,212.5,235,-242.5,235,610,,,SBD,Raw,M,Juniors 20-23
5,Jeremy Kane,PA,75,73.8,,20,192.5,197.5,-200,197.5,127.5,135,-140,135,260,272.5,-277.5,272.5,605,,,SBD,Raw,M,Juniors 20-23
6,Roman Ornelaz,TX,75,74.2,,21,195,202.5,-210,202.5,-127.5,135,-137.5,135,240,257.5,-262.5,257.5,595,,,SBD,Raw,M,Juniors 20-23
7,Zubin Patel,VA,75,74.1,,23,170,180,185,185,112.5,120,122.5,122.5,190,205,-220,205,512.5,,,SBD,Raw,M,Juniors 20-23
1,Fernando Garcia,NC,82.5,80.4,,19,212.5,-222.5,222.5,222.5,127.5,132.5,137.5,137.5,257.5,262.5,272.5,272.5,632.5,,,SBD,Raw,M,Juniors 18-19
2,Destin Morrison,AL,82.5,82,,19,192.5,197.5,202.5,202.5,142.5,-147.5,-147.5,142.5,265,-275,-275,265,610,,,SBD,Raw,M,Juniors 18-19
3,Jamarion Stewart,MS,82.5,81.1,,18,205,-220,-220,205,137.5,145,-147.5,145,240,255,-262.5,255,605,,,SBD,Raw,M,Juniors 18-19
1,Ryan Colburn,OH,82.5,80,,23,-222.5,227.5,235,235,155,162.5,-167.5,162.5,242.5,252.5,265,265,662.5,,,SBD,Raw,M,Juniors 20-23
2,Calerb D'Haiti,OH,82.5,79.9,,23,227.5,230,232.5,232.5,142.5,-155,155,155,237.5,265,272.5,272.5,660,,,SBD,Raw,M,Juniors 20-23
3,Grayson Frazier,AL,82.5,80.2,,20,197.5,210,227.5,227.5,125,137.5,145,145,212.5,227.5,245,245,617.5,,,SBD,Raw,M,Juniors 20-23
4,Andrew Solis,TX,82.5,79.3,,20,175,-185,185,185,150,-160,-160,150,205,230,-242.5,230,565,,,SBD,Raw,M,Juniors 20-23
5,Josue Lozano,TX,82.5,80.5,,21,170,190,200,200,-105,110,-120,110,220,245,255,255,565,,,SBD,Raw,M,Juniors 20-23
6,Michael McCann,OH,82.5,80.7,,20,180,192.5,-200,192.5,100,107.5,-110,107.5,205,217.5,-227.5,217.5,517.5,,,SBD,Raw,M,Juniors 20-23
1,Kyle Elder,SD,90,89.2,,21,230,250,-255,250,145,-155,-155,145,260,275,280,280,675,,,SBD,Raw,M,Juniors 20-23
2,Hong Le,KY,90,89,,20,-240,255,-267.5,255,137.5,145,147.5,147.5,240,252.5,-260,252.5,655,,,SBD,Raw,M,Juniors 20-23
3,Marco Duran,IA,90,88.8,,22,217.5,227.5,232.5,232.5,135,142.5,-150,142.5,220,227.5,-232.5,227.5,602.5,,,SBD,Raw,M,Juniors 20-23
4,Anthony Horn,IA,90,88.1,,21,185,197.5,-210,197.5,112.5,120,-125,120,205,217.5,-227.5,217.5,535,,,SBD,Raw,M,Juniors 20-23
1,Jake Rendina,MT,100,99.2,,17,242.5,255,-267.5,255,150,160,167.5,167.5,260,275,-290,275,697.5,,,SBD,Raw,M,Juniors 16-17
1,Samuel Poggioli,VA,100,98.9,,21,247.5,265,280,280,160,170,-175,170,270,292.5,305,305,755,,,SBD,Raw,M,Juniors 20-23
2,Zane Johnson,WA,100,99.8,,23,222.5,232.5,242.5,242.5,150,157.5,165,165,250,265,275,275,682.5,,,SBD,Raw,M,Juniors 20-23
3,Will Goddard,OR,100,98.8,,23,217.5,-230,-230,217.5,132.5,142.5,-155,142.5,250,270,-280,270,630,,,SBD,Raw,M,Juniors 20-23
1,Alex Collazo,OR,110,105.8,,19,207.5,215,217.5,217.5,120,125,130,130,260,275,280,280,627.5,,,SBD,Raw,M,Juniors 18-19
1,David Pardy,RI,110,108.6,,23,300,317.5,325,325,172.5,182.5,-187.5,182.5,300,317.5,-330,317.5,825,,,SBD,Raw,M,Juniors 20-23
2,Evan Kowadla,KY,110,109.3,,22,210,227.5,232.5,232.5,142.5,-155,-155,142.5,245,265,-282.5,265,640,,,SBD,Raw,M,Juniors 20-23
1,James Jezyk,TX,125,123.3,,23,282.5,297.5,310,310,202.5,210,-215,210,270,285,-292.5,285,805,,,SBD,Raw,M,Juniors 20-23
2,Thomas Kuhn,AL,125,123.4,,23,245,262.5,-272.5,262.5,160,170,-180,170,245,265,277.5,277.5,710,,,SBD,Raw,M,Juniors 20-23
3,Hector Arteaga,CA,125,120,,20,230,245,255,255,137.5,147.5,150,150,255,270,-280,270,675,,,SBD,Raw,M,Juniors 20-23
1,Caleb Bicknell,MS,140,133.6,,19,287.5,312.5,320,320,155,175,-180,175,-250,265,-277.5,265,760,,,SBD,Raw,M,Juniors 18-19
1,Aaron Mallette,AL,140,132.8,,21,262.5,277.5,-292.5,277.5,-185,185,205,205,265,280,292.5,292.5,775,,,SBD,Raw,M,Juniors 20-23
1,Seth Naranjo,TX,67.5,67.5,,25,215,227.5,-235,227.5,145,155,-160,155,257.5,-267.5,267.5,267.5,650,,,SBD,Raw,M,Open
2,Cesar Guadalupe,OH,67.5,67.4,1988-04-22,33,207.5,222.5,227.5,227.5,130,142.5,-147.5,142.5,230,245,-257.5,245,615,,,SBD,Raw,M,Open
3,Cole Lavergne,LA,67.5,66.5,,38,182.5,-190,190,190,117.5,-127.5,127.5,127.5,215,227.5,235,235,552.5,,,SBD,Raw,M,Open
4,Jonathan Symons,SC,67.5,65.6,,29,160,172.5,-177.5,172.5,100,110,-117.5,110,210,217.5,230,230,512.5,,,SBD,Raw,M,Open
5,Neil Touchet,LA,67.5,66.9,,55,142.5,-160.5,-160.5,142.5,97.5,102.5,-107.5,102.5,182.5,195,-200,195,440,,,SBD,Raw,M,Open
1,Kyle Miller #11,PA,75,74,,24,-192.5,192.5,-207.5,192.5,160,170,177.5,177.5,237.5,257.5,-267.5,257.5,627.5,,,SBD,Raw,M,Open
2,Derrick Cooper,ME,75,74.3,,39,-187.5,192.5,210,210,135,-140,-140,135,247.5,-267.5,267.5,267.5,612.5,,,SBD,Raw,M,Open
3,Zach Gran,MN,75,74.6,,30,210,225,-232.5,225,137.5,145,150,150,-220,230,235,235,610,,,SBD,Raw,M,Open
4,Giovanni Ardalan,VA,75,74.7,,20,205,215,222.5,222.5,130,147.5,152.5,152.5,212.5,235,-242.5,235,610,,,SBD,Raw,M,Open
5,Jeremy Kane,PA,75,73.8,,20,192.5,197.5,-200,197.5,127.5,135,-140,135,260,272.5,-277.5,272.5,605,,,SBD,Raw,M,Open
6,Roman Ornelaz,TX,75,74.2,,21,195,202.5,-210,202.5,-127.5,135,-137.5,135,240,257.5,-262.5,257.5,595,,,SBD,Raw,M,Open
7,Colby Humphries,CA,75,71.4,,19,205,210,-215,210,135,140,145,145,227.5,235,-240,235,590,,,SBD,Raw,M,Open
8,Tyler Fuselier,TX,75,73.1,,28,-205,215,-222.5,215,120,130,-135,130,210,225,-235,225,570,,,SBD,Raw,M,Open
9,Richard James,TX,75,72.6,,48,190,-210,-210,190,127.5,-137.5,-137.5,127.5,237.5,242.5,-260,242.5,560,,,SBD,Raw,M,Open
DQ,Khianti Mczeal,TX,75,70.9,,28,-197.5,197.5,205,205,-117.5,-117.5,-117.5,,,,,,,,,SBD,Raw,M,Open
1,Andrew Linch,MS,82.5,81.5,1993-08-31,27,240,255,272.5,272.5,157.5,167.5,175,175,285,302.5,-317.5,302.5,750,,,SBD,Raw,M,Open
2,Abraham Ramirez #2,TX,82.5,80.8,,23,-245,245,-275,245,170,,,170,265,285,-292.5,285,700,,,SBD,Raw,M,Open
3,Ryan Colburn,OH,82.5,80,,23,-222.5,227.5,235,235,155,162.5,-167.5,162.5,242.5,252.5,265,265,662.5,,,SBD,Raw,M,Open
4,Erick Perez,TX,82.5,82.2,,27,247.5,257.5,-262.5,257.5,165,172.5,-182.5,172.5,217.5,227.5,-250,227.5,657.5,,,SBD,Raw,M,Open
5,Aaron Madriaga,WA,82.5,81.6,,37,197.5,207.5,217.5,217.5,155,162.5,-170,162.5,247.5,265,275,275,655,,,SBD,Raw,M,Open
6,Eric Craig,TX,82.5,80.3,,36,225,235,-245,235,145,155,-165,155,240,-250,250,250,640,,,SBD,Raw,M,Open
7,Jake Helphingstine,KS,82.5,81.1,,26,200,-212.5,220,220,140,-147.5,-147.5,140,225,235,245,245,605,,,SBD,Raw,M,Open
8,David Gibson #1,GA,82.5,78.3,,42,-170,170,187.5,187.5,115,-125,127.5,127.5,242.5,260,-273,260,575,,,SBD,Raw,M,Open
1,Abraham Casas,TX,90,89,,28,250,265,-277.5,265,145,152.5,160,160,320,335,352.5,352.5,777.5,,,SBD,Raw,M,Open
2,Mike Cooney,MT,90,84.1,,24,255,265,-272.5,265,155,-165,-165,155,290,-307.5,-307.5,290,710,,,SBD,Raw,M,Open
3,Matthew Burns,KS,90,88,,35,-247.5,247.5,,247.5,162.5,-170,-170,162.5,275,285,295,295,705,,,SBD,Raw,M,Open
4,Jodan Minnick,TX,90,89.6,,42,232.5,237.5,-247.5,237.5,160,172.5,-182.5,172.5,245,262.5,280,280,690,,,SBD,Raw,M,Open
5,James Lima,AZ,90,89.6,,34,210,220,230,230,147.5,155,-162.5,155,282.5,297.5,-307.5,297.5,682.5,,,SBD,Raw,M,Open
6,Drake Seymour,AK,90,89.2,,28,215,232.5,247.5,247.5,150,165,-172.5,165,222.5,245,262.5,262.5,675,,,SBD,Raw,M,Open
7,Cody Kann,TX,90,87.9,,27,215,227.5,237.5,237.5,160,-170,-170,160,205,217.5,227.5,227.5,625,,,SBD,Raw,M,Open
1,Demerrius Slocum,LA,100,99.6,,35,320,-337.5,-337.5,320,-215,215,-232.5,215,282.5,320,-327.5,320,855,,,SBD,Raw,M,Open
2,Kevin Anderson,TX,100,95.2,,28,260,280,295,295,160,-170,175,175,290,310,320,320,790,,,SBD,Raw,M,Open
3,Samuel Poggioli,VA,100,98.9,,21,247.5,265,280,280,160,170,-175,170,270,292.5,305,305,755,,,SBD,Raw,M,Open
4,Michael Delbosque,TX,100,95.3,,30,225,247.5,260,260,160,170,-177.5,170,285,307.5,317.5,317.5,747.5,,,SBD,Raw,M,Open
5,Seth Tyner,GA,100,99.6,,26,250,262.5,-275,262.5,160,167.5,-175,167.5,287.5,307.5,-320,307.5,737.5,,,SBD,Raw,M,Open
6,Jonathan Casares,CA,100,98.1,,31,-275,275,280,280,192.5,200,-205,200,255,-260,-260,255,735,,,SBD,Raw,M,Open
7,Ryan Carina,TX,100,98.2,,31,235,250,260,260,-152.5,152.5,162.5,162.5,285,302.5,-317.5,302.5,725,,,SBD,Raw,M,Open
8,Christopher Clonch,OR,100,97.6,,41,260,-272.5,-272.5,260,170,177.5,-185,177.5,-260,-260,260,260,697.5,,,SBD,Raw,M,Open
9,Kerry Gibson,MT,100,99.3,,30,227.5,240,252.5,252.5,140,150,-160,150,277.5,290,-297.5,290,692.5,,,SBD,Raw,M,Open
10,Chris Gonzales #1,TX,100,95.9,,31,215,227.5,240,240,140,150,-160,150,270,295,-300,295,685,,,SBD,Raw,M,Open
11,Jesse Brewer,MS,100,99.1,,30,-227.5,227.5,-237.5,227.5,-170,170,-177.5,170,230,240,-247.5,240,637.5,,,SBD,Raw,M,Open
12,Javad Bakhshinejad,WA,100,90.5,,26,205,217.5,-227.5,217.5,130,135,-140,135,255,-270,,255,607.5,,,SBD,Raw,M,Open
1,Robert Knutsson,OH,110,108.8,,32,287.5,-302.5,-302.5,287.5,202.5,-212.5,212.5,212.5,355,370,-385,370,870,,,SBD,Raw,M,Open
2,David Pardy,RI,110,108.6,,23,300,317.5,325,325,172.5,182.5,-187.5,182.5,300,317.5,-330,317.5,825,,,SBD,Raw,M,Open
3,BJ Whitehead,TX,110,109.3,,44,280,297.5,-307.5,297.5,165,177.5,187.5,187.5,295,,,295,780,,,SBD,Raw,M,Open
4,Timothy Callahan,MO,110,107.4,,29,250,262.5,267.5,267.5,170,180,190,190,272.5,287.5,302.5,302.5,760,,,SBD,Raw,M,Open
5,Terry Held,MO,110,105.1,,51,210,240,255,255,190,205,-210,205,265,285,-300,285,745,,,SBD,Raw,M,Open
6,Ennis White,TX,110,109,,56,227.5,237.5,-240,237.5,172.5,182.5,-188,182.5,275,292.5,-297.5,292.5,712.5,,,SBD,Raw,M,Open
DQ,Travis Calloway,GA,110,102.9,,35,-295,-295,295,295,-215,-215,-215,,290,-305,-310,290,,,,SBD,Raw,M,Open
1,Zac Meyers,MD,125,122.9,,27,390,-405,-405,390,255,270,277.5,277.5,355,372.5,-386,372.5,1040,,,SBD,Raw,M,Open
2,Ruben Lewis,TN,125,122.6,1992-01-15,29,242.5,260,272.5,272.5,185,197.5,207.5,207.5,320,337.5,-342.5,337.5,817.5,,,SBD,Raw,M,Open
3,Mario Risso,NM,125,118.9,,40,230,250,-260,250,205,215,220,220,305,317.5,325,325,795,,,SBD,Raw,M,Open
4,Martin Olivera,CA,125,125,,31,272.5,-282.5,,272.5,215,-227.5,-227.5,215,272.5,282.5,295,295,782.5,,,SBD,Raw,M,Open
5,Andy Perez,CA,125,121.6,,23,287.5,300,307.5,307.5,162.5,-167.5,167.5,167.5,285,295,-305,295,770,,,SBD,Raw,M,Open
6,Jason Maiden,TX,125,113.6,,40,227.5,-250,250,250,190,205,222.5,222.5,272.5,295,-317.5,295,767.5,,,SBD,Raw,M,Open
7,Robert Mejia,TX,125,110.2,,20,-252.5,252.5,272.5,272.5,137.5,150,160,160,-295,315,322.5,322.5,755,,,SBD,Raw,M,Open
8,Eric Dahl,PA,125,120.6,,42,242.5,255,267.5,267.5,192.5,207.5,-212.5,207.5,240,260,-267.5,260,735,,,SBD,Raw,M,Open
9,Ian Walker #1,GA,125,113,,24,225,242.5,,242.5,192.5,200,-205,200,290,-292.5,-300,290,732.5,,,SBD,Raw,M,Open
10,Anh Huynh,TX,125,122.5,,32,260,275,280,280,155,-165,165,165,255,272.5,280,280,725,,,SBD,Raw,M,Open
11,Bobby Morgan #2,MS,125,115.6,,29,222.5,-232.5,235,235,187.5,200,-205,200,250,265,-275,265,700,,,SBD,Raw,M,Open
G,Nate Gonzales,VA,125,113.3,,46,225,245,255,255,165,177.5,-185,177.5,-225,235,255,255,687.5,,,SBD,Raw,M,Open
12,Steve Denison,CA,125,122.5,,59,210,220,-230,220,170,180,190,190,210,220,232.5,232.5,642.5,,,SBD,Raw,M,Open
DQ,Michael Pinkham,ME,125,115.8,,33,-265,-265,,,,,,,,,,,,,,SBD,Raw,M,Open
DQ,Dillon Dyar,MS,125,118.7,,25,-252.5,-252.5,,,-157.5,157.5,-165,157.5,265,-272.5,272.5,272.5,,,,SBD,Raw,M,Open
1,Donny Tudahl,MT,140,130.7,,30,295,310,322.5,322.5,210,220,227.5,227.5,315,337.5,-355,337.5,887.5,,,SBD,Raw,M,Open
2,Solomon Levin-Sanders,AZ,140,138.2,,27,300,-320,,300,227.5,235,-240,235,307.5,325,,325,860,,,SBD,Raw,M,Open
3,Mark Williams,MS,140,134.9,,39,-277.5,290,300,300,232.5,-250,250,250,-275,275,287.5,287.5,837.5,,,SBD,Raw,M,Open
4,Justin Ruiz,CA,140,138.2,,31,260,267.5,272.5,272.5,-245,245,-252.5,245,302.5,-317.5,-317.5,302.5,820,,,SBD,Raw,M,Open
5,Jason Traister,TX,140,136.7,,41,272.5,287.5,295,295,167.5,177.5,182.5,182.5,307.5,322.5,-328,322.5,800,,,SBD,Raw,M,Open
1,Alberto Portillo,VA,140+,175.8,,28,-307.5,307.5,320,320,185,195,-200,195,320,335,-340,335,850,,,SBD,Raw,M,Open
2,AJ Renshaw,TX,140+,176.6,,35,300,317.5,-337.5,317.5,190,200,210,210,275,285,295,295,822.5,,,SBD,Raw,M,Open
3,AJ Charlton,TX,140+,144.4,,29,280,295,-307.5,295,-160,175,182.5,182.5,275,295,-305,295,772.5,,,SBD,Raw,M,Open
4,Darrell Cooley,OK,140+,145.6,,39,-275,-287.5,287.5,287.5,-182.5,185,-192.5,185,260,265,275,275,747.5,,,SBD,Raw,M,Open
5,Juan Perez #2,TX,140+,197.9,,28,250,270,287.5,287.5,172.5,185,-192.5,185,235,240,250,250,722.5,,,SBD,Raw,M,Open
1,Cole Lavergne,LA,67.5,66.5,,38,182.5,-190,190,190,117.5,-127.5,127.5,127.5,215,227.5,235,235,552.5,,,SBD,Raw,M,Submasters 35-39
1,Derrick Cooper,ME,75,74.3,,39,-187.5,192.5,210,210,135,-140,-140,135,247.5,-267.5,267.5,267.5,612.5,,,SBD,Raw,M,Submasters 35-39
1,Aaron Madriaga,WA,82.5,81.6,,37,197.5,207.5,217.5,217.5,155,162.5,-170,162.5,247.5,265,275,275,655,,,SBD,Raw,M,Submasters 35-39
2,Eric Craig,TX,82.5,80.3,,36,225,235,-245,235,145,155,-165,155,240,-250,250,250,640,,,SBD,Raw,M,Submasters 35-39
1,Justin Jeffers,WY,90,89.9,,35,210,232.5,240,240,142.5,155,-162.5,155,260,277.5,282.5,282.5,677.5,,,SBD,Raw,M,Submasters 35-39
1,Billy King,SC,110,107.6,,38,167.5,182.5,192.5,192.5,132.5,147.5,,147.5,220,242.5,-260,242.5,582.5,,,SBD,Raw,M,Submasters 35-39
1,Mark Williams,MS,140,134.9,,39,-277.5,290,300,300,232.5,-250,250,250,-275,275,287.5,287.5,837.5,,,SBD,Raw,M,Submasters 35-39
1,AJ Renshaw,TX,140+,176.6,,35,300,317.5,-337.5,317.5,190,200,210,210,275,285,295,295,822.5,,,SBD,Raw,M,Submasters 35-39
2,Darrell Cooley,OK,140+,145.6,,39,-275,-287.5,287.5,287.5,-182.5,185,-192.5,185,260,265,275,275,747.5,,,SBD,Raw,M,Submasters 35-39
1,Neil Touchet,LA,67.5,66.9,,55,142.5,-160.5,-160.5,142.5,97.5,102.5,-107.5,102.5,182.5,195,-200,195,440,,,SBD,Raw,M,Masters 55-59
1,Sophy Teng,MI,75,74.1,,40,205,-222.5,-222.5,205,117.5,125,130,130,210,227.5,237.5,237.5,572.5,,,SBD,Raw,M,Masters 40-44
1,Richard James,TX,75,72.6,,48,190,-210,-210,190,127.5,-137.5,-137.5,127.5,237.5,242.5,-260,242.5,560,,,SBD,Raw,M,Masters 45-49
2,Seth Lamden,IL,75,73.6,,47,185,197.5,-205.5,197.5,100,102.5,-105,102.5,200,207.5,212.5,212.5,512.5,,,SBD,Raw,M,Masters 45-49
1,David Gibson #1,GA,82.5,78.3,,42,-170,170,187.5,187.5,115,-125,127.5,127.5,242.5,260,-273,260,575,,,SBD,Raw,M,Masters 40-44
1,Darrel Dryden,NM,82.5,81.1,,45,220,-228,228,228,-180,180,-182.5,180,-227.5,247.5,260.5,260.5,668.5,,,SBD,Raw,M,Masters 45-49
2,Christopher Rountree,TX,82.5,82.2,,45,192.5,202.5,-207.5,202.5,130,135,137.5,137.5,240,252.5,262.5,262.5,602.5,,,SBD,Raw,M,Masters 45-49
1,Paul Lariviere,NH,82.5,81,,57,170,-182.5,-190,170,120,127.5,-132.5,127.5,210,217.5,-230,217.5,515,,,SBD,Raw,M,Masters 55-59
1,Terrence Austin,WA,82.5,80.9,,60,150,162.5,170.5,170.5,120,130,135,135,-187.5,-202.5,210.5,210.5,516,,215,SBD,Raw,M,Masters 60-64
1,William Davey,TX,82.5,79.9,,74,130,135,-137.5,135,100,-105,105,105,140,142.5,145,145,385,,,SBD,Raw,M,Masters 70-74
DQ,David Duffee,AZ,82.5,79.1,,72,-135,-135,-135,,102.5,105,-107.5,105,185,192.5,196,196,,,,SBD,Raw,M,Masters 70-74
1,Jack Stevens,FL,82.5,80,,75,137.5,-150,-150,137.5,-72.5,77.5,-80,77.5,182.5,,,182.5,397.5,,,SBD,Raw,M,Masters 75-79
1,Jodan Minnick,TX,90,89.6,,42,232.5,237.5,-247.5,237.5,160,172.5,-182.5,172.5,245,262.5,280,280,690,,,SBD,Raw,M,Masters 40-44
1,Brad Phillips,TX,90,88.7,,56,195,205,,205,130,-137.5,-137.5,130,220,235,-242.5,235,570,,,SBD,Raw,M,Masters 55-59
1,Christopher Clonch,OR,100,97.6,,41,260,-272.5,-272.5,260,170,177.5,-185,177.5,-260,-260,260,260,697.5,,,SBD,Raw,M,Masters 40-44
2,Jacob Cloud,TN,100,98.6,,41,210,225,235,235,155,162.5,-165,162.5,225,242.5,-252.5,242.5,640,,,SBD,Raw,M,Masters 40-44
1,Kris Kennedy,TX,100,97.4,,45,215,222.5,-230,222.5,152.5,-160,160,160,227.5,242.5,255,255,637.5,,,SBD,Raw,M,Masters 45-49
1,Scott Brockelman,TX,100,98,,61,210,227.5,-240,227.5,100,110,-112.5,110,210,227.5,-232.5,227.5,565,,,SBD,Raw,M,Masters 60-64
1,Bobby Whitten,FL,100,98,,71,130,140,147.5,147.5,102.5,107.5,-110,107.5,175,185,-190,185,440,,,SBD,Raw,M,Masters 70-74
1,BJ Whitehead,TX,110,109.3,,44,280,297.5,-307.5,297.5,165,177.5,187.5,187.5,295,,,295,780,,,SBD,Raw,M,Masters 40-44
1,Michael Petyak,MS,110,102.6,,47,235,245,247.5,247.5,172.5,182.5,-185,182.5,260,272.5,277.5,277.5,707.5,,,SBD,Raw,M,Masters 45-49
2,Rube Rodriguez,TX,110,106.2,,47,210,225,232.5,232.5,177.5,-185,-185,177.5,255,267.5,272.5,272.5,682.5,,,SBD,Raw,M,Masters 45-49
3,Marcus Warren,TX,110,106.3,,47,217.5,232.5,-245,232.5,172.5,182.5,-190,182.5,265,-282.5,,265,680,,,SBD,Raw,M,Masters 45-49
1,Terry Held,MO,110,105.1,,51,210,240,255,255,190,205,-210,205,265,285,-300,285,745,,,SBD,Raw,M,Masters 50-54
1,Ennis White,TX,110,109,,56,227.5,237.5,-240,237.5,172.5,182.5,-188,182.5,275,292.5,-297.5,292.5,712.5,,,SBD,Raw,M,Masters 55-59
1,Mario Risso,NM,125,118.9,,40,230,250,-260,250,205,215,220,220,305,317.5,325,325,795,,,SBD,Raw,M,Masters 40-44
2,Jason Maiden,TX,125,113.6,,40,227.5,-250,250,250,190,205,222.5,222.5,272.5,295,-317.5,295,767.5,,,SBD,Raw,M,Masters 40-44
3,Eric Dahl,PA,125,120.6,,42,242.5,255,267.5,267.5,192.5,207.5,-212.5,207.5,240,260,-267.5,260,735,,,SBD,Raw,M,Masters 40-44
G,Nate Gonzales,VA,125,113.3,,46,225,245,255,255,165,177.5,-185,177.5,-225,235,255,255,687.5,,,SBD,Raw,M,Masters 45-49
1,Steve Denison,CA,125,122.5,,59,210,220,-230,220,170,180,190,190,210,220,232.5,232.5,642.5,,,SBD,Raw,M,Masters 55-59
2,Brendan Burke,FL,125,110.2,,57,167.5,-170,180,180,135,145,-152.5,145,190,200,-217.5,200,525,,,SBD,Raw,M,Masters 55-59
1,Lee Kelley,TX,140,135.5,,40,320,332.5,,332.5,227.5,242.5,-250,242.5,272.5,-290,-290,272.5,847.5,,,SBD,Raw,M,Masters 40-44
2,Jason Traister,TX,140,136.7,,41,272.5,287.5,295,295,167.5,177.5,182.5,182.5,307.5,322.5,-328,322.5,800,,,SBD,Raw,M,Masters 40-44
3,David McCartney,TX,140,137.5,,42,207.5,215,225,225,160,165,-170,165,267.5,277.5,-285,277.5,667.5,,,SBD,Raw,M,Masters 40-44
1,James Shifflett,MD,140,133.4,,51,237.5,-257.5,257.5,257.5,222.5,230,235.5,235.5,257.5,272.5,275,275,768,237.5,,SBD,Raw,M,Masters 50-54
2,Edward Moore,VA,140,136.6,,50,240,260,272.5,272.5,162.5,182.5,-185,182.5,227.5,-247.5,-247.5,227.5,682.5,,,SBD,Raw,M,Masters 50-54
1,John James,VA,140,137.6,,58,182.5,192.5,202.5,202.5,122.5,130,137.5,137.5,232.5,242.5,250,250,590,,,SBD,Raw,M,Masters 55-59
1,Brad Potts,IN,140,125.8,,62,215,-228,,215,105,110,-115,110,207.5,-227.5,227.5,227.5,552.5,,,SBD,Raw,M,Masters 60-64
1,Mark Branham,IN,140,128.3,,66,125,-190,-190,125,125,142.5,-150,142.5,150,-195,195,195,462.5,,,SBD,Raw,M,Masters 65-69
1,Marvin Williford,AL,140+,161.1,,46,190,230,250,250,160,175,185,185,182.5,200,210,210,645,,,SBD,Raw,M,Masters 45-49
1,Abigail Narvaez,TX,52,50.3,,23,130,140,150,150,60,70,-75,70,140,150,-160,150,370,,,SBD,Wraps,F,Juniors 20-23
1,Tayara M Manchem,PA,75,73.7,,16,132.5,135,-140,135,57.5,60,65,65,122.5,130,-135,130,330,,,SBD,Wraps,F,Juniors 16-17
1,Taylor Castille,LA,90+,164.2,,18,200,215,230,230,82.5,92.5,-102.5,92.5,182.5,195,207.5,207.5,530,,,SBD,Wraps,F,Juniors 18-19
1,Abigail Narvaez,TX,52,50.3,,23,130,140,150,150,60,70,-75,70,140,150,-160,150,370,,,SBD,Wraps,F,Open
2,Linda Badillo,OK,52,50,,39,85,90,92.5,92.5,52.5,-62.5,-62.5,52.5,95,100,107.5,107.5,252.5,,,SBD,Wraps,F,Open
1,Jade Demaray,NM,56,54.8,,31,135,-140,-142.5,135,60,62.5,-65,62.5,147.5,152.5,-165,152.5,350,,,SBD,Wraps,F,Open
1,Darion Gomez,TX,60,58.6,,27,182.5,197.5,202.5,202.5,77.5,85,87.5,87.5,147.5,157.5,165,165,455,,,SBD,Wraps,F,Open
1,Kelly Riner,KY,67.5,65.9,,31,120,-122.5,-130,120,67.5,70,-72.5,70,127.5,140,-147.5,140,330,,,SBD,Wraps,F,Open
1,Julia Hamilton #1,TX,90+,141.4,,32,237.5,255,267.5,267.5,105,-115,-115,105,215,232.5,237.5,237.5,610,,,SBD,Wraps,F,Open
2,Kelli Coleman,IL,90+,105,,31,187.5,-200,205,205,95,105,112.5,112.5,170,185,200,200,517.5,,,SBD,Wraps,F,Open
3,Karla Rendon,TX,90+,99.7,,37,190,200,207.5,207.5,97.5,102.5,107.5,107.5,185,192.5,200,200,515,,,SBD,Wraps,F,Open
1,Linda Badillo,OK,52,50,,39,85,90,92.5,92.5,52.5,-62.5,-62.5,52.5,95,100,107.5,107.5,252.5,,,SBD,Wraps,F,Submasters 35-39
1,Karla Rendon,TX,90+,99.7,,37,190,200,207.5,207.5,97.5,102.5,107.5,107.5,185,192.5,200,200,515,,,SBD,Wraps,F,Submasters 35-39
1,Paula Powell,TX,67.5,67.1,,57,137.5,-147.5,-147.5,137.5,72.5,77.5,-80,77.5,150,-162.5,162.5,162.5,377.5,,165,SBD,Wraps,F,Masters 55-59
1,Yvonne Urteaga,TX,82.5,80,,43,-137.5,145,-152.5,145,70,75,-82.5,75,152.5,162.5,170,170,390,,,SBD,Wraps,F,Masters 40-44
1,Angela Richardson,GA,90+,104.5,,46,137.5,160,178,178,102.5,110,-117.5,110,137.5,,,137.5,425.5,,,SBD,Wraps,F,Masters 45-49
1,Julver Morales,CA,75,71.3,,19,175,182.5,192.5,192.5,112.5,-115,117.5,117.5,202.5,210,220,220,530,,,SBD,Wraps,M,Juniors 18-19
1,Brian Morales,TX,75,74.6,,23,170,-182.5,185,185,127.5,-140,-140,127.5,-232.5,232.5,250,250,562.5,,,SBD,Wraps,M,Juniors 20-23
1,Austin Hutzenbiler,ND,82.5,79.6,,23,-277.5,277.5,-297.5,277.5,140,150,157.5,157.5,265,280,-290,280,715,,,SBD,Wraps,M,Juniors 20-23
1,Devon Munoz,TX,90,88.3,,17,220,-232.5,-232.5,220,-147.5,157.5,-160,157.5,227.5,242.5,245,245,622.5,,,SBD,Wraps,M,Juniors 16-17
1,Jesse Beckwith,TX,125,123.8,,23,357.5,370,-377.5,370,197.5,202.5,-215,202.5,352.5,-365,-365,352.5,925,,,SBD,Wraps,M,Juniors 20-23
1,Carter Kearby,OK,140+,196.2,,18,-270,292.5,-305,292.5,152.5,162.5,-175,162.5,185,-207.5,-207.5,185,640,,,SBD,Wraps,M,Juniors 18-19
1,Nicholas Moskowitz,OH,75,73.6,,27,187.5,197.5,-210,197.5,152.5,160,-167.5,160,215,230,235,235,592.5,,,SBD,Wraps,M,Open
2,Brian Morales,TX,75,74.6,,23,170,-182.5,185,185,127.5,-140,-140,127.5,-232.5,232.5,250,250,562.5,,,SBD,Wraps,M,Open
3,Chris Cameron,MA,75,75,,26,195,-215,-230,195,117.5,122.5,127.5,127.5,210,230,,230,552.5,,,SBD,Wraps,M,Open
4,Julver Morales,CA,75,71.3,,19,175,182.5,192.5,192.5,112.5,-115,117.5,117.5,202.5,210,220,220,530,,,SBD,Wraps,M,Open
DQ,Edgar Acevedo,TX,75,74.9,,25,-280,-280,-280,,,,,,,,,,,,,SBD,Wraps,M,Open
1,Austin Hutzenbiler,ND,82.5,79.6,,23,-277.5,277.5,-297.5,277.5,140,150,157.5,157.5,265,280,-290,280,715,,,SBD,Wraps,M,Open
1,Daniel Dalenberg,MI,90,89.8,,32,270,-292.5,292.5,292.5,185,205,-212.5,205,275,300,,300,797.5,,,SBD,Wraps,M,Open
2,AJ Rose,TX,90,89.7,,24,250,-272.5,-272.5,250,197.5,-212.5,-212.5,197.5,272.5,-285,,272.5,720,,,SBD,Wraps,M,Open
3,Dustin Wedgeworth,TX,90,89.4,,34,265,280,295,295,160,165,-170,165,230,240,-260,240,700,,,SBD,Wraps,M,Open
4,Christopher Carr,TX,90,89.7,,34,232.5,240,-265,240,170,182.5,-190,182.5,252.5,257.5,-267.5,257.5,680,,,SBD,Wraps,M,Open
5,Taylor Mckeel,TN,90,87.3,,26,227.5,240,-257.5,240,142.5,152.5,-160,152.5,230,245,-260,245,637.5,,,SBD,Wraps,M,Open
6,Adrian Valenciano,NM,90,88.5,,25,220,-237.5,-237.5,220,137.5,147.5,-152.5,147.5,247.5,260,265,265,632.5,,,SBD,Wraps,M,Open
1,Zackary Sanders #1,TN,100,98,,26,325,345,365,365,177.5,187.5,197.5,197.5,325,345,365,365,927.5,,,SBD,Wraps,M,Open
2,Antonio Carter,WV,100,97.3,,32,320,332.5,340,340,-215,215,-227.5,215,332.5,342.5,-352.5,342.5,897.5,,,SBD,Wraps,M,Open
3,John Rendon,TX,100,98.5,,30,-265,265,277.5,277.5,160,-162.5,162.5,162.5,252.5,262.5,-265,262.5,702.5,,,SBD,Wraps,M,Open
4,Domynick Gomez,TX,100,97.5,,37,205,222.5,-232.5,222.5,170,182.5,187.5,187.5,262.5,272.5,277.5,277.5,687.5,,,SBD,Wraps,M,Open
5,Devon Smith,WA,100,97.3,,25,237.5,252.5,-257.5,252.5,160,-170,-177.5,160,245,-257.5,,245,657.5,,,SBD,Wraps,M,Open
6,Alfred Munoz,TX,100,98.3,,41,207.5,225,-230,225,150,160,-172.5,160,232.5,247.5,-255,247.5,632.5,,,SBD,Wraps,M,Open
DQ,Craig Recore,WA,100,97.6,,48,-235,-235,-255,,185,-197.5,-197.5,185,290,-307.5,,290,,,,SBD,Wraps,M,Open
1,Derek Thistlethwaite,TX,110,108.7,,21,-380,-400,400,400,205,215,,215,370,390,397.5,397.5,1012.5,,,SBD,Wraps,M,Open
2,Chris Noble,MI,110,107.2,,33,270,295,-302.5,295,165,177.5,-182.5,177.5,265,292.5,305,305,777.5,,,SBD,Wraps,M,Open
3,Joseph Ferguson,TX,110,106.2,,39,247.5,260,-267.5,260,182.5,187.5,192.5,192.5,282.5,300,-315,300,752.5,,,SBD,Wraps,M,Open
1,Jesse Beckwith,TX,125,123.8,,23,357.5,370,-377.5,370,197.5,202.5,-215,202.5,352.5,-365,-365,352.5,925,,,SBD,Wraps,M,Open
2,Tyler Cummings,GA,125,116.3,,29,322.5,-340,,322.5,200,215,227.5,227.5,300,-317.5,317.5,317.5,867.5,,,SBD,Wraps,M,Open
3,Alex Rennie,GA,125,121.1,,29,280,295,312.5,312.5,205,217.5,-227.5,217.5,295,,,295,825,,,SBD,Wraps,M,Open
4,Ronnie Blades,TX,125,116.6,,31,-307.5,307.5,-327.5,307.5,190,205,-210,205,265,285,-290,285,797.5,,,SBD,Wraps,M,Open
5,Jason Dorian,CO,125,123.8,,38,270,280,285,285,212.5,-225,-225,212.5,292.5,-305,-317.5,292.5,790,,,SBD,Wraps,M,Open
6,Valente Inniss-Thompson,TX,125,124.6,,35,252.5,275,-280,275,205,-220,-220,205,265,285,290,290,770,,,SBD,Wraps,M,Open
7,Lazaro Cooper,TX,125,117.1,,32,-265,,265,265,205,-215,-215,205,-272.5,272.5,285,285,755,,,SBD,Wraps,M,Open
8,Rickey Carter,TX,125,114.7,,62,240,-262.5,-262.5,240,160,172.5,-182.5,172.5,240,260,-267.5,260,672.5,,,SBD,Wraps,M,Open
1,Vincent Vela-Pulido,TX,140,138.7,,32,322.5,-332.5,-332.5,322.5,180,190,205,205,317.5,-332.5,-332.5,317.5,845,,,SBD,Wraps,M,Open
2,Vincent Hernandez,TX,140,136.7,,27,317.5,340,-365,340,180,195,-200,195,-272.5,285,-300,285,820,,,SBD,Wraps,M,Open
3,Miguel Pena,TX,140,135.1,,30,285,-295,295,295,205,215,-227.5,215,-285,285,-290,285,795,,,SBD,Wraps,M,Open
4,Eric LaBarge,NY,140,130,,44,230,272.5,-287.5,272.5,222.5,230,237.5,237.5,252.5,272.5,280,280,790,,,SBD,Wraps,M,Open
1,Jared Bratcher,OK,140+,163.4,,33,307.5,327.5,342.5,342.5,217.5,232.5,-240,232.5,305,325,335,335,910,,,SBD,Wraps,M,Open
2,James Russell,WY,140+,169.8,,40,282.5,295,302.5,302.5,197.5,205,-210,205,255,-267.5,-267.5,255,762.5,,,SBD,Wraps,M,Open
3,Pedro Cortez,TX,140+,140.4,,45,197.5,-270,-285,197.5,197.5,-205,205,205,285,292.5,-297.5,292.5,695,,,SBD,Wraps,M,Open
DQ,Eric Ramsey,OK,140+,220.1,,30,302.5,-307.5,307.5,307.5,-207.5,207.5,-215,207.5,-287.5,-287.5,,,,,,SBD,Wraps,M,Open
1,Levi Silveira,TX,100,98.4,,35,240,250,262.5,262.5,145,-152.5,152.5,152.5,245,-265,-265,245,660,,,SBD,Wraps,M,Submasters 35-39
1,Joseph Ferguson,TX,110,106.2,,39,247.5,260,-267.5,260,182.5,187.5,192.5,192.5,282.5,300,-315,300,752.5,,,SBD,Wraps,M,Submasters 35-39
1,Jason Dorian,CO,125,123.8,,38,270,280,285,285,212.5,-225,-225,212.5,292.5,-305,-317.5,292.5,790,,,SBD,Wraps,M,Submasters 35-39
2,Valente Inniss-Thompson,TX,125,124.6,,35,252.5,275,-280,275,205,-220,-220,205,265,285,290,290,770,,,SBD,Wraps,M,Submasters 35-39
1,James Turner,OH,75,74.8,,55,-175,175,-185,175,95,-100,100,100,180,190,-200,190,465,,,SBD,Wraps,M,Masters 55-59
1,Michael Harrington,AZ,75,73.7,,82,70,75,80,80,-60,60,-65,60,120,125,-130,125,265,,,SBD,Wraps,M,Masters 80+
1,Mario Sanchez,TX,82.5,81.4,,50,185,195,-202.5,195,130,137.5,142.5,142.5,190,205,215,215,552.5,,,SBD,Wraps,M,Masters 50-54
2,Christopher Jones,KY,82.5,81.6,,52,127.5,-137.5,142.5,142.5,135,-143,-143,135,162.5,-182.5,,162.5,440,,,SBD,Wraps,M,Masters 50-54
1,Kevin Chapman,MO,90,86.2,,44,237.5,252.5,260,260,142.5,-150,-152.5,142.5,242.5,255,-265,255,657.5,,,SBD,Wraps,M,Masters 40-44
1,John Smith #6,TX,90,89.8,,58,175,-182.5,-182.5,175,95,100,105,105,185,190,195,195,475,,,SBD,Wraps,M,Masters 55-59
1,Alfred Munoz,TX,100,98.3,,41,207.5,225,-230,225,150,160,-172.5,160,232.5,247.5,-255,247.5,632.5,,,SBD,Wraps,M,Masters 40-44
DQ,Craig Recore,WA,100,97.6,,48,-235,-235,-255,,185,-197.5,-197.5,185,290,-307.5,,290,,,,SBD,Wraps,M,Masters 45-49
1,Vance Wallace,MO,100,95.1,,50,182.5,-205,217.5,217.5,165,178,187.5,187.5,182.5,205,210,210,615,189,,SBD,Wraps,M,Masters 50-54
1,Jimmy Flores,CA,110,101.7,,53,160,182.5,187.5,187.5,147.5,162.5,-175,162.5,242.5,257.5,272.5,272.5,622.5,,,SBD,Wraps,M,Masters 50-54
1,Austen Horton,TX,125,122.8,,44,-290,290,-302.5,290,140,-147.5,-147.5,140,290,308,-315,308,738,,,SBD,Wraps,M,Masters 40-44
1,Daryle Howard,TX,125,124.4,,45,260,-282.5,-282.5,260,165,182.5,-187.5,182.5,-275,285,-300,285,727.5,,,SBD,Wraps,M,Masters 45-49
1,Alex Ortiz #1,TX,125,116,,51,272.5,-287.5,-292.5,272.5,190,197.5,-202.5,197.5,227.5,250,265,265,735,,,SBD,Wraps,M,Masters 50-54
1,Jesse Rodriguez,MN,125,116.6,,55,-210,210,227.5,227.5,115,125,-130,125,210,235,245,245,597.5,,,SBD,Wraps,M,Masters 55-59
1,Rickey Carter,TX,125,114.7,,62,240,-262.5,-262.5,240,160,172.5,-182.5,172.5,240,260,-267.5,260,672.5,,,SBD,Wraps,M,Masters 60-64
1,David Cunningham,FL,125,115,,67,147.5,-157.5,-167.5,147.5,102.5,112.5,117.5,117.5,-208,208,-220.5,208,473,,,SBD,Wraps,M,Masters 65-69
2,Randy Abendroth,TX,125,122.9,,65,-137.5,137.5,147.5,147.5,137.5,147.5,155,155,137.5,147.5,160,160,462.5,,,SBD,Wraps,M,Masters 65-69
1,Eric LaBarge,NY,140,130,,44,230,272.5,-287.5,272.5,222.5,230,237.5,237.5,252.5,272.5,280,280,790,,,SBD,Wraps,M,Masters 40-44
1,Alan Gilbreath,TX,140+,140.6,,40,-287.5,287.5,302.5,302.5,217.5,230,-240.5,230,285,-305,305,305,837.5,,,SBD,Wraps,M,Masters 40-44
2,James Russell,WY,140+,169.8,,40,282.5,295,302.5,302.5,197.5,205,-210,205,255,-267.5,-267.5,255,762.5,,,SBD,Wraps,M,Masters 40-44
1,Pedro Cortez,TX,140+,140.4,,45,197.5,-270,-285,197.5,197.5,-205,205,205,285,292.5,-297.5,292.5,695,,,SBD,Wraps,M,Masters 45-49
1,Analicia Granados,TX,48,47.5,,18,-105,105,107.5,107.5,47.5,50,-52.5,50,102.5,105,112.5,112.5,270,,,SBD,Single-ply,F,Juniors 18-19
DQ,Alina Estrada,TX,52,51.2,,18,-112.5,-112.5,-112.5,,45,47.5,-50,47.5,-107.5,-112.5,-112.5,,,,,SBD,Single-ply,F,Juniors 18-19
1,Madalyn Almendarez,TX,60,57.1,,18,80,-135,135,135,62.5,70,-77.5,70,115,127.5,137.5,137.5,342.5,,,SBD,Single-ply,F,Juniors 18-19
1,Lyna Castorena,TX,75,75,,17,-137.5,137.5,-147.5,137.5,-65,65,-70,65,-125,125,132.5,132.5,335,,,SBD,Single-ply,F,Juniors 16-17
DQ,Marissa Ramirez #2,TX,75,73,,17,-137.5,-137.5,-137.5,,-62.5,62.5,-67.5,62.5,-115,-115,,,,,,SBD,Single-ply,F,Juniors 16-17
1,Alexandra Soto,TX,90,86.2,,17,-165,-165,165,165,87.5,-100,-100,87.5,142.5,147.5,-155,147.5,400,,,SBD,Single-ply,F,Juniors 16-17
1,Kailyn Fisher,TX,90+,131.9,,16,215,235,242.5,242.5,107.5,112.5,117.5,117.5,185,197.5,205,205,565,,,SBD,Single-ply,F,Juniors 16-17
1,April Hamon,TX,52,50.9,,38,-137.5,137.5,-145,137.5,62.5,-65,-65,62.5,142.5,-160.5,-160.5,142.5,342.5,,,SBD,Single-ply,F,Open
1,Madeleine Pluss,CO,60,58.8,,28,167.5,-180,180,180,82.5,87.5,-95,87.5,170,182.5,-187.5,182.5,450,,,SBD,Single-ply,F,Open
DQ,Tamara McElwee,AZ,60,59.3,,53,167.5,175,182.5,182.5,-115,-115,-115,,-170,,,,,,,SBD,Single-ply,F,Open
1,April Hamon,TX,52,50.9,,38,-137.5,137.5,-145,137.5,62.5,-65,-65,62.5,142.5,-160.5,-160.5,142.5,342.5,,,SBD,Single-ply,F,Submasters 35-39
DQ,Tamara McElwee,AZ,60,59.3,,53,167.5,175,182.5,182.5,-115,-115,-115,,-170,,,,,,,SBD,Single-ply,F,Masters 50-54
1,Rick Bertel,MO,90,88.2,,54,225,237.5,-245,237.5,142.5,150,155,155,230,245,-252.5,245,637.5,,,SBD,Single-ply,M,Open
1,Michael Poort,CO,100,98.6,,46,275,-285,285,285,-265,265,-275,265,-267.5,267.5,275,275,825,,,SBD,Single-ply,M,Open
2,Dave Backstrom,OH,100,98.7,,53,212.5,222.5,-232.5,222.5,145,152.5,160,160,210,222.5,230,230,612.5,,,SBD,Single-ply,M,Open
1,Philip Skinner,AZ,90,90,,49,242.5,250,252.5,252.5,147.5,162.5,-165,162.5,215,227.5,-235,227.5,642.5,,,SBD,Single-ply,M,Masters 45-49
1,Rick Bertel,MO,90,88.2,,54,225,237.5,-245,237.5,142.5,150,155,155,230,245,-252.5,245,637.5,,,SBD,Single-ply,M,Masters 50-54
1,Michael Poort,CO,100,98.6,,46,275,-285,285,285,-265,265,-275,265,-267.5,267.5,275,275,825,,,SBD,Single-ply,M,Masters 45-49
2,Jonathan Marshall,AZ,100,98,,47,260,275,-292.5,275,207.5,-215,215,215,237.5,250,-257.5,250,740,,,SBD,Single-ply,M,Masters 45-49
1,Dave Backstrom,OH,100,98.7,,53,212.5,222.5,-232.5,222.5,145,152.5,160,160,210,222.5,230,230,612.5,,,SBD,Single-ply,M,Masters 50-54
1,Matt Foreman,AZ,125,114.3,,48,260,275,285,285,152.5,157.5,165,165,-222.5,222.5,237.5,237.5,687.5,,,SBD,Single-ply,M,Masters 45-49
1,Haley Devers,PA,56,55.5,,20,,,,,100.5,-105,105,105,,,,,105,107.5,,B,Raw,F,Juniors 20-23
2,Brianna Reed,TX,56,54.9,,22,,,,,77.5,-82.5,-82.5,77.5,,,,,77.5,,,B,Raw,F,Juniors 20-23
1,Katie Lich,MI,52,51.7,,36,,,,,-60,-60,60,60,,,,,60,,,B,Raw,F,Open
2,Linda Badillo,OK,52,50,,39,,,,,52.5,-62.5,-62.5,52.5,,,,,52.5,,,B,Raw,F,Open
3,Margie Haddon,TX,52,51,,59,,,,,47.5,-50,50,50,,,,,50,,,B,Raw,F,Open
1,Haley Devers,PA,56,55.5,,20,,,,,100.5,-105,105,105,,,,,105,107.5,,B,Raw,F,Open
2,Erin Harding,LA,56,54.8,,31,,,,,80,85,87.5,87.5,,,,,87.5,,,B,Raw,F,Open
3,Brianna Reed,TX,56,54.9,,22,,,,,77.5,-82.5,-82.5,77.5,,,,,77.5,,,B,Raw,F,Open
4,Amanda Calobrisi,RI,56,53.6,,29,,,,,70,-75,-77.5,70,,,,,70,,,B,Raw,F,Open
1,Teri Ivey Gehring,TX,60,59,,50,,,,,90,95,-100,95,,,,,95,,,B,Raw,F,Open
1,Valerie Smith #1,GA,67.5,66.6,,47,,,,,100,105,107.5,107.5,,,,,107.5,,,B,Raw,F,Open
2,Jodi Hamlin,TX,67.5,67.2,,52,,,,,77.5,80,82.5,82.5,,,,,82.5,,,B,Raw,F,Open
1,Cindy Shockman,OR,75,73.6,,54,,,,,122.5,-132.5,-132.5,122.5,,,,,122.5,,,B,Raw,F,Open
2,Barbara Taylor,CA,75,74.8,,63,,,,,100,-103,103,103,,,,,103,,,B,Raw,F,Open
3,Tammy Mims,AL,75,68.3,,51,,,,,80,85,87.5,87.5,,,,,87.5,,,B,Raw,F,Open
1,Sally Perry,TX,82.5,77.3,,36,,,,,122.5,130,-137.5,130,,,,,130,,,B,Raw,F,Open
DQ,Julia Sweet,IN,90,89.9,,51,,,,,-92.5,-97.5,-97.5,,,,,,,,,B,Raw,F,Open
1,Tiffany Richards,TX,90+,96.3,,33,,,,,107.5,117.5,-122.5,117.5,,,,,117.5,,,B,Raw,F,Open
1,Linda Badillo,OK,52,50,,39,,,,,52.5,-62.5,-62.5,52.5,,,,,52.5,,,B,Raw,F,Submasters 35-39
1,Sally Perry,TX,82.5,77.3,,36,,,,,122.5,130,-137.5,130,,,,,130,,,B,Raw,F,Submasters 35-39
1,Margie Haddon,TX,52,51,,59,,,,,47.5,-50,50,50,,,,,50,,,B,Raw,F,Masters 55-59
1,Teri Ivey Gehring,TX,60,59,,50,,,,,90,95,-100,95,,,,,95,,,B,Raw,F,Masters 50-54
1,Valerie Smith #1,GA,67.5,66.6,,47,,,,,100,105,107.5,107.5,,,,,107.5,,,B,Raw,F,Masters 45-49
1,Jodi Hamlin,TX,67.5,67.2,,52,,,,,77.5,80,82.5,82.5,,,,,82.5,,,B,Raw,F,Masters 50-54
1,Cindy Shockman,OR,75,73.6,,54,,,,,122.5,-132.5,-132.5,122.5,,,,,122.5,,,B,Raw,F,Masters 50-54
2,Tammy Mims,AL,75,68.3,,51,,,,,80,85,87.5,87.5,,,,,87.5,,,B,Raw,F,Masters 50-54
1,Barbara Taylor,CA,75,74.8,,63,,,,,100,-103,103,103,,,,,103,,,B,Raw,F,Masters 60-64
1,Jennifer Martinez #3,TX,90,87.7,,46,,,,,67.5,75,80,80,,,,,80,,,B,Raw,F,Masters 45-49
1,Tazzie Colomb,LA,90,88.1,,54,,,,,97.5,107.5,112.5,112.5,,,,,112.5,,,B,Raw,F,Masters 50-54
DQ,Julia Sweet,IN,90,89.9,,51,,,,,-92.5,-97.5,-97.5,,,,,,,,,B,Raw,F,Masters 50-54
1,Robin Clark,TX,90,87.5,,60,,,,,87.5,92.5,-95,92.5,,,,,92.5,,,B,Raw,F,Masters 60-64
1,Sherri Schawo,TX,90+,92,,59,,,,,97.5,105,110,110,,,,,110,,,B,Raw,F,Masters 55-59
1,John O'Rourke,PA,82.5,81.3,,22,,,,,175,-182.5,-182.5,175,,,,,175,,,B,Raw,M,Juniors 20-23
2,Austin Hutzenbiler,ND,82.5,79.6,,23,,,,,140,150,157.5,157.5,,,,,157.5,,,B,Raw,M,Juniors 20-23
1,Devon Munoz,TX,90,88.3,,17,,,,,-147.5,157.5,-160,157.5,,,,,157.5,,,B,Raw,M,Juniors 16-17
1,Christian Wilkin,OH,90,87,,23,,,,,147.5,-157.5,-157.5,147.5,,,,,147.5,,,B,Raw,M,Juniors 20-23
1,David DeGuzman,MD,100,97,,17,,,,,160,-162.5,-162.5,160,,,,,160,,,B,Raw,M,Juniors 16-17
1,Nicholas Moskowitz,OH,75,73.6,,27,,,,,152.5,160,-167.5,160,,,,,160,,,B,Raw,M,Open
2,Richard James,TX,75,72.6,,48,,,,,127.5,-137.5,-137.5,127.5,,,,,127.5,,,B,Raw,M,Open
1,Guy Parker,TX,82.5,81.7,,24,,,,,190,197.5,-210,197.5,,,,,197.5,,,B,Raw,M,Open
2,Austin Hutzenbiler,ND,82.5,79.6,,23,,,,,140,150,157.5,157.5,,,,,157.5,,,B,Raw,M,Open
3,Robert Clay,TX,82.5,80.3,,54,,,,,145,152.5,157.5,157.5,,,,,157.5,,,B,Raw,M,Open
1,Christopher Carr,TX,90,89.7,,34,,,,,170,182.5,-190,182.5,,,,,182.5,,,B,Raw,M,Open
2,Jodan Minnick,TX,90,89.6,,42,,,,,160,172.5,-182.5,172.5,,,,,172.5,,,B,Raw,M,Open
1,Jim Smith #3,MS,100,97.4,,52,,,,,205,215,-222.5,215,,,,,215,,,B,Raw,M,Open
2,Michael Tyler #1,TX,100,99,,31,,,,,200,-215,-215,200,,,,,200,,,B,Raw,M,Open
3,Keith Javery,MI,100,95.1,,57,,,,,137.5,142.5,-152.5,142.5,,,,,142.5,,,B,Raw,M,Open
1,Ryan Kimball,LA,110,108.9,,34,,,,,200,207.5,-212.5,207.5,,,,,207.5,,,B,Raw,M,Open
2,Terry Held,MO,110,105.1,,51,,,,,190,205,-210,205,,,,,205,,,B,Raw,M,Open
3,Ennis White,TX,110,109,,56,,,,,172.5,182.5,-188,182.5,,,,,182.5,,,B,Raw,M,Open
1,Daniel Perales,TX,125,122.2,,37,,,,,222.5,-227.5,-227.5,222.5,,,,,222.5,,,B,Raw,M,Open
2,Jerel Pippins,TX,125,124.3,,33,,,,,197.5,207.5,212.5,212.5,,,,,212.5,,,B,Raw,M,Open
3,Lazaro Cooper,TX,125,117.1,,32,,,,,205,-215,-215,205,,,,,205,,,B,Raw,M,Open
4,Nicarlto Oliver,AL,125,122,,35,,,,,180,192.5,205,205,,,,,205,,,B,Raw,M,Open
5,Valente Inniss-Thompson,TX,125,124.6,,35,,,,,205,-220,-220,205,,,,,205,,,B,Raw,M,Open
6,Steve Denison,CA,125,122.5,,59,,,,,170,180,190,190,,,,,190,,,B,Raw,M,Open
1,Mark Williams,MS,140,134.9,,39,,,,,232.5,-250,250,250,,,,,250,,,B,Raw,M,Open
2,Eric LaBarge,NY,140,130,,44,,,,,222.5,230,237.5,237.5,,,,,237.5,,,B,Raw,M,Open
3,Jeremy Kenney,MA,140,132.7,,40,,,,,187.5,-205,-205,187.5,,,,,187.5,,,B,Raw,M,Open
1,Jared Bratcher,OK,140+,163.4,,33,,,,,217.5,232.5,-240,232.5,,,,,232.5,,,B,Raw,M,Open
2,Timothy Mathews,TX,140+,148,,28,,,,,230,-242.5,-247.5,230,,,,,230,,,B,Raw,M,Open
1,Daniel Perales,TX,125,122.2,,37,,,,,222.5,-227.5,-227.5,222.5,,,,,222.5,,,B,Raw,M,Submasters 35-39
2,Nicarlto Oliver,AL,125,122,,35,,,,,180,192.5,205,205,,,,,205,,,B,Raw,M,Submasters 35-39
3,Valente Inniss-Thompson,TX,125,124.6,,35,,,,,205,-220,-220,205,,,,,205,,,B,Raw,M,Submasters 35-39
1,Mark Williams,MS,140,134.9,,39,,,,,232.5,-250,250,250,,,,,250,,,B,Raw,M,Submasters 35-39
1,Richard James,TX,75,72.6,,48,,,,,127.5,-137.5,-137.5,127.5,,,,,127.5,,,B,Raw,M,Masters 45-49
1,Hurley Meier,TX,75,70.2,,69,,,,,-92.5,97.5,-100,97.5,,,,,97.5,,,B,Raw,M,Masters 65-69
1,Darrel Dryden,NM,82.5,81.1,,45,,,,,-180,180,-182.5,180,,,,,180,,,B,Raw,M,Masters 45-49
1,Robert Clay,TX,82.5,80.3,,54,,,,,145,152.5,157.5,157.5,,,,,157.5,,,B,Raw,M,Masters 50-54
2,Christopher Jones,KY,82.5,81.6,,52,,,,,135,-143,-143,135,,,,,135,,,B,Raw,M,Masters 50-54
3,Mark Driskell,KS,82.5,80.1,,50,,,,,130,-137.5,-137.5,130,,,,,130,,,B,Raw,M,Masters 50-54
1,Terrence Austin,WA,82.5,80.9,,60,,,,,120,130,135,135,,,,,135,,,B,Raw,M,Masters 60-64
1,David Duffee,AZ,82.5,79.1,,72,,,,,102.5,105,-107.5,105,,,,,105,,,B,Raw,M,Masters 70-74
1,Barry Moores,CA,82.5,82,,75,,,,,110,115,-117.5,115,,,,,115,,,B,Raw,M,Masters 75-79
1,Jodan Minnick,TX,90,89.6,,42,,,,,160,172.5,-182.5,172.5,,,,,172.5,,,B,Raw,M,Masters 40-44
1,Wayne Small,TX,90,86.9,,52,,,,,145,155,-157.5,155,,,,,155,,,B,Raw,M,Masters 50-54
1,Jim Smith #3,MS,100,97.4,,52,,,,,205,215,-222.5,215,,,,,215,,,B,Raw,M,Masters 50-54
2,Vance Wallace,MO,100,95.1,,50,,,,,165,178,187.5,187.5,,,,,187.5,189,,B,Raw,M,Masters 50-54
1,Keith Javery,MI,100,95.1,,57,,,,,137.5,142.5,-152.5,142.5,,,,,142.5,,,B,Raw,M,Masters 55-59
1,Jeff Graham,CA,100,95.5,,60,,,,,185,192.5,-197.5,192.5,,,,,192.5,,,B,Raw,M,Masters 60-64
2,Randy George,TX,100,92.2,,60,,,,,152.5,160,-170,160,,,,,160,,,B,Raw,M,Masters 60-64
3,Jeffery Hayes,CA,100,96.4,,63,,,,,137.5,-145,,137.5,,,,,137.5,,,B,Raw,M,Masters 60-64
1,William Nadzak,TX,100,98.7,,71,,,,,142.5,145,147.5,147.5,,,,,147.5,150,,B,Raw,M,Masters 70-74
1,Rube Rodriguez,TX,110,106.2,,47,,,,,177.5,-185,-185,177.5,,,,,177.5,,,B,Raw,M,Masters 45-49
2,Stephen Hornatko,MD,110,107.7,,48,,,,,160,-170,-175,160,,,,,160,,,B,Raw,M,Masters 45-49
1,Terry Held,MO,110,105.1,,51,,,,,190,205,-210,205,,,,,205,,,B,Raw,M,Masters 50-54
2,Jimmy Flores,CA,110,101.7,,53,,,,,147.5,162.5,-175,162.5,,,,,162.5,,,B,Raw,M,Masters 50-54
3,John Skelton,NM,110,110,,54,,,,,135,-147.5,147.5,147.5,,,,,147.5,,,B,Raw,M,Masters 50-54
1,Ennis White,TX,110,109,,56,,,,,172.5,182.5,-188,182.5,,,,,182.5,,,B,Raw,M,Masters 55-59
1,Rob Tyler,TX,110,107.2,,62,,,,,152.5,157.5,162.5,162.5,,,,,162.5,,,B,Raw,M,Masters 60-64
1,Jason Ballard,AL,125,115.5,,40,,,,,205,210,-215,210,,,,,210,,,B,Raw,M,Masters 40-44
1,Eugene Malbrough,TX,125,119.8,,51,,,,,-190,197.5,-200,197.5,,,,,197.5,,,B,Raw,M,Masters 50-54
1,Steve Denison,CA,125,122.5,,59,,,,,170,180,190,190,,,,,190,,,B,Raw,M,Masters 55-59
1,Eric LaBarge,NY,140,130,,44,,,,,222.5,230,237.5,237.5,,,,,237.5,,,B,Raw,M,Masters 40-44
2,Jeremy Kenney,MA,140,132.7,,40,,,,,187.5,-205,-205,187.5,,,,,187.5,,,B,Raw,M,Masters 40-44
DQ,David Paulzine,IL,140,128.5,,43,,,,,-177.5,-182.5,-182.5,,,,,,,,,B,Raw,M,Masters 40-44
1,Phil Deaton,TX,140,136.5,,57,,,,,165,172.5,-182.5,172.5,,,,,172.5,,,B,Raw,M,Masters 55-59
1,Chad Ake,OK,75,74.2,,48,,,,,-175,-185,185,185,,,,,185,,,B,Single-ply,M,Open
1,Michael Poort,CO,100,98.6,,46,,,,,-265,265,-275,265,,,,,265,,,B,Single-ply,M,Open
1,Rick Geller,CO,125,123.3,,61,,,,,-245,245,-250,245,,,,,245,,,B,Single-ply,M,Open
1,Chad Ake,OK,75,74.2,,48,,,,,-175,-185,185,185,,,,,185,,,B,Single-ply,M,Masters 45-49
1,Michael Poort,CO,100,98.6,,46,,,,,-265,265,-275,265,,,,,265,,,B,Single-ply,M,Masters 45-49
1,Rick Geller,CO,125,123.3,,61,,,,,-245,245,-250,245,,,,,245,,,B,Single-ply,M,Masters 60-64
DQ,Ray Willingham,OK,140+,204.4,,44,,,,,-272.5,-272.5,-272.5,,,,,,,,,B,Single-ply,M,Masters 40-44
1,Wayne Jandoc,CA,100,97.2,,63,,,,,160,175,,175,,,,,175,,,B,Multi-ply,M,Masters 60-64
1,Brianna Reed,TX,56,54.9,,22,,,,,,,,,135,145,157.5,157.5,157.5,,,D,Raw,F,Juniors 20-23
1,Madison Willingham,OK,60,59.2,,13,,,,,,,,,115,125,-142.5,125,125,,,D,Raw,F,Juniors 13-15
1,Margie Haddon,TX,52,51,,59,,,,,,,,,110,115,-117.5,115,115,,,D,Raw,F,Open
DQ,Katie Lich,MI,52,51.7,,36,,,,,,,,,-175,-175,,,,,,D,Raw,F,Open
1,Erin Harding,LA,56,54.8,,31,,,,,,,,,150,160,-165,160,160,,,D,Raw,F,Open
2,Brianna Reed,TX,56,54.9,,22,,,,,,,,,135,145,157.5,157.5,157.5,,,D,Raw,F,Open
3,Amanda Calobrisi,RI,56,53.6,,29,,,,,,,,,-147.5,147.5,-165,147.5,147.5,,,D,Raw,F,Open
1,Allison Whorton,MD,60,59.4,,26,,,,,,,,,167.5,177.5,185,185,185,,,D,Raw,F,Open
2,Teri Ivey Gehring,TX,60,59,,50,,,,,,,,,150,160.5,-165,160.5,160.5,,,D,Raw,F,Open
1,Michelle Mazulis,NM,67.5,66.7,,52,,,,,,,,,180,190,-200,190,190,,,D,Raw,F,Open
2,Marshelle Johnston,CO,67.5,65.6,,27,,,,,,,,,160,165,170,170,170,,,D,Raw,F,Open
1,Cindy Shockman,OR,75,73.6,,54,,,,,,,,,182.5,195,-200,195,195,,,D,Raw,F,Open
2,Barbara Taylor,CA,75,74.8,,63,,,,,,,,,-150,167.5,175,175,175,,,D,Raw,F,Open
3,Tammy Mims,AL,75,68.3,,51,,,,,,,,,142.5,152.5,162.5,162.5,162.5,,,D,Raw,F,Open
1,Julia Sweet,IN,90,89.9,,51,,,,,,,,,-160,160,172.5,172.5,172.5,,177.5,D,Raw,F,Open
1,Katilyn LaBove,LA,90+,115.4,,28,,,,,,,,,187.5,202.5,210,210,210,,,D,Raw,F,Open
2,Kaylynn Polvado,TX,90+,103.5,,34,,,,,,,,,182.5,205,-210,205,205,,,D,Raw,F,Open
3,Tiffany Richards,TX,90+,96.3,,33,,,,,,,,,185,197.5,-205,197.5,197.5,,,D,Raw,F,Open
1,Margie Haddon,TX,52,51,,59,,,,,,,,,110,115,-117.5,115,115,,,D,Raw,F,Masters 55-59
1,Teri Ivey Gehring,TX,60,59,,50,,,,,,,,,150,160.5,-165,160.5,160.5,,,D,Raw,F,Masters 50-54
1,Michelle Mazulis,NM,67.5,66.7,,52,,,,,,,,,180,190,-200,190,190,,,D,Raw,F,Masters 50-54
1,Paula Powell,TX,67.5,67.1,,57,,,,,,,,,150,-162.5,162.5,162.5,162.5,,165,D,Raw,F,Masters 55-59
2,Tessa Yelvington,TX,67.5,64.3,,58,,,,,,,,,132.5,140,-142.5,140,140,,,D,Raw,F,Masters 55-59
1,Cindy Shockman,OR,75,73.6,,54,,,,,,,,,182.5,195,-200,195,195,,,D,Raw,F,Masters 50-54
2,Tammy Mims,AL,75,68.3,,51,,,,,,,,,142.5,152.5,162.5,162.5,162.5,,,D,Raw,F,Masters 50-54
1,Barbara Taylor,CA,75,74.8,,63,,,,,,,,,-150,167.5,175,175,175,,,D,Raw,F,Masters 60-64
1,Jennifer Martinez #3,TX,90,87.7,,46,,,,,,,,,157.5,170,177.5,177.5,177.5,,,D,Raw,F,Masters 45-49
1,Tazzie Colomb,LA,90,88.1,,54,,,,,,,,,150,165,172.5,172.5,172.5,,,D,Raw,F,Masters 50-54
2,Julia Sweet,IN,90,89.9,,51,,,,,,,,,-160,160,172.5,172.5,172.5,,177.5,D,Raw,F,Masters 50-54
1,Robin Clark,TX,90,87.5,,60,,,,,,,,,140,150,162.5,162.5,162.5,,,D,Raw,F,Masters 60-64
1,Tracy Castillo,TX,90+,93,,52,,,,,,,,,165,175,185,185,185,,,D,Raw,F,Masters 50-54
1,Austin Hutzenbiler,ND,82.5,79.6,,23,,,,,,,,,265,280,-290,280,280,,,D,Raw,M,Juniors 20-23
1,Devon Munoz,TX,90,88.3,,17,,,,,,,,,227.5,242.5,245,245,245,,,D,Raw,M,Juniors 16-17
1,Richard James,TX,75,72.6,,48,,,,,,,,,237.5,242.5,-260,242.5,242.5,,,D,Raw,M,Open
2,Albert Carlotti,TX,75,74.1,,52,,,,,,,,,217.5,233.5,,233.5,233.5,,,D,Raw,M,Open
1,Austin Hutzenbiler,ND,82.5,79.6,,23,,,,,,,,,265,280,-290,280,280,,,D,Raw,M,Open
2,Aaron Madriaga,WA,82.5,81.6,,37,,,,,,,,,247.5,265,275,275,275,,,D,Raw,M,Open
3,David Gibson #1,GA,82.5,78.3,,42,,,,,,,,,242.5,260,-273,260,260,,,D,Raw,M,Open
1,James Lima,AZ,90,89.6,,34,,,,,,,,,282.5,297.5,-307.5,297.5,297.5,,,D,Raw,M,Open
2,Jodan Minnick,TX,90,89.6,,42,,,,,,,,,245,262.5,280,280,280,,,D,Raw,M,Open
3,Christopher Carr,TX,90,89.7,,34,,,,,,,,,252.5,257.5,-267.5,257.5,257.5,,,D,Raw,M,Open
1,Chris Gonzales #1,TX,100,95.9,,31,,,,,,,,,270,295,-300,295,295,,,D,Raw,M,Open
1,Robert Knutsson,OH,110,108.8,,32,,,,,,,,,355,370,-385,370,370,,,D,Raw,M,Open
2,Robert Doherty,TX,110,108.8,,41,,,,,,,,,312.5,329,337.5,337.5,337.5,,,D,Raw,M,Open
3,Ennis White,TX,110,109,,56,,,,,,,,,275,292.5,-297.5,292.5,292.5,,,D,Raw,M,Open
4,Terry Held,MO,110,105.1,,51,,,,,,,,,265,285,-300,285,285,,,D,Raw,M,Open
1,Lazaro Cooper,TX,125,117.1,,32,,,,,,,,,-272.5,272.5,285,285,285,,,D,Raw,M,Open
2,Daniel Perales,TX,125,122.2,,37,,,,,,,,,227.5,235,240,240,240,,,D,Raw,M,Open
3,Steve Denison,CA,125,122.5,,59,,,,,,,,,210,220,232.5,232.5,232.5,,,D,Raw,M,Open
1,Jared Bratcher,OK,140+,163.4,,33,,,,,,,,,305,325,335,335,335,,,D,Raw,M,Open
2,Clay Edgin,TX,140+,151.9,,40,,,,,,,,,200,250,255,255,255,,,D,Raw,M,Open
1,Aaron Madriaga,WA,82.5,81.6,,37,,,,,,,,,247.5,265,275,275,275,,,D,Raw,M,Submasters 35-39
1,Daniel Perales,TX,125,122.2,,37,,,,,,,,,227.5,235,240,240,240,,,D,Raw,M,Submasters 35-39
1,Richard James,TX,75,72.6,,48,,,,,,,,,237.5,242.5,-260,242.5,242.5,,,D,Raw,M,Masters 45-49
1,Albert Carlotti,TX,75,74.1,,52,,,,,,,,,217.5,233.5,,233.5,233.5,,,D,Raw,M,Masters 50-54
1,Hurley Meier,TX,75,70.2,,69,,,,,,,,,137.5,142.5,150,150,150,,,D,Raw,M,Masters 65-69
1,David Gibson #1,GA,82.5,78.3,,42,,,,,,,,,242.5,260,-273,260,260,,,D,Raw,M,Masters 40-44
1,Darrel Dryden,NM,82.5,81.1,,45,,,,,,,,,-227.5,247.5,260.5,260.5,260.5,,,D,Raw,M,Masters 45-49
1,Christopher Jones,KY,82.5,81.6,,52,,,,,,,,,162.5,-182.5,,162.5,162.5,,,D,Raw,M,Masters 50-54
1,Paul Lariviere,NH,82.5,81,,57,,,,,,,,,210,217.5,-230,217.5,217.5,,,D,Raw,M,Masters 55-59
1,Terrence Austin,WA,82.5,80.9,,60,,,,,,,,,-187.5,-202.5,210.5,210.5,210.5,,215,D,Raw,M,Masters 60-64
1,Tony Grasso,TX,82.5,76.7,,68,,,,,,,,,195,220,-225,220,220,,,D,Raw,M,Masters 65-69
1,David Duffee,AZ,82.5,79.1,,72,,,,,,,,,185,192.5,196,196,196,,,D,Raw,M,Masters 70-74
1,Jodan Minnick,TX,90,89.6,,42,,,,,,,,,245,262.5,280,280,280,,,D,Raw,M,Masters 40-44
1,Bobby Whitten,FL,100,98,,71,,,,,,,,,175,185,-190,185,185,,,D,Raw,M,Masters 70-74
1,Robert Doherty,TX,110,108.8,,41,,,,,,,,,312.5,329,337.5,337.5,337.5,,,D,Raw,M,Masters 40-44
1,Rube Rodriguez,TX,110,106.2,,47,,,,,,,,,255,267.5,272.5,272.5,272.5,,,D,Raw,M,Masters 45-49
2,Stephen Hornatko,MD,110,107.7,,48,,,,,,,,,250,-265,-265,250,250,,,D,Raw,M,Masters 45-49
1,Terry Held,MO,110,105.1,,51,,,,,,,,,265,285,-300,285,285,,,D,Raw,M,Masters 50-54
2,Jimmy Flores,CA,110,101.7,,53,,,,,,,,,242.5,257.5,272.5,272.5,272.5,,,D,Raw,M,Masters 50-54
1,Ennis White,TX,110,109,,56,,,,,,,,,275,292.5,-297.5,292.5,292.5,,,D,Raw,M,Masters 55-59
1,Karl Wibbing,TX,125,120.2,,42,,,,,,,,,310,345,355.5,355.5,355.5,,,D,Raw,M,Masters 40-44
2,Austen Horton,TX,125,122.8,,44,,,,,,,,,290,308,-315,308,308,,,D,Raw,M,Masters 40-44
3,Jason Ballard,AL,125,115.5,,40,,,,,,,,,260,265,272.5,272.5,272.5,,,D,Raw,M,Masters 40-44
1,Steve Denison,CA,125,122.5,,59,,,,,,,,,210,220,232.5,232.5,232.5,,,D,Raw,M,Masters 55-59
1,James LeRibeus,TX,125,122.3,,66,,,,,,,,,227.5,250,262.5,262.5,262.5,,,D,Raw,M,Masters 65-69
1,Clay Edgin,TX,140+,151.9,,40,,,,,,,,,200,250,255,255,255,,,D,Raw,M,Masters 40-44
1,April Hamon,TX,52,50.9,,38,,,,,,,,,142.5,-160.5,-160.5,142.5,142.5,,,D,Single-ply,F,Open
1,April Hamon,TX,52,50.9,,38,,,,,,,,,142.5,-160.5,-160.5,142.5,142.5,,,D,Single-ply,F,Submasters 35-39
1,Harrison Quiel,TX,110,102.2,,22,,,,,,,,,322.5,337.5,-347.5,337.5,337.5,,,D,Single-ply,M,Juniors 20-23
1,Harvey Pendleton,TX,90,85.2,,74,,,,,,,,,157.5,172.5,182.5,182.5,182.5,,,D,Single-ply,M,Masters 70-74
1,Tyler O'Doherty,MA,75,71.9,,27,,,,,,,,,247.5,-267.5,-267.5,247.5,247.5,,,D,Multi-ply,M,Open
