Division,WeightClassKg,Place,Name,Team,BodyweightKg,Best3SquatKg,Best3BenchKg,Best3DeadliftKg,TotalKg,Equipment,Event,Sex,BirthDate
Boys,51.71,1,Paul Nguyen #5,Abilene,50.35,104.33,54.43,108.86,267.62,Single-ply,SBD,M,
Boys,55.79,1,Josh Robertson,Abilene Cooper,55.16,108.86,65.77,124.74,299.37,Single-ply,SBD,M,
Boys,55.79,2,Nick Garcia #1,Abilene,53.07,104.33,56.7,108.86,269.89,Single-ply,SBD,M,
Boys,59.87,1,Robert Hernandez,Abilene Cooper,56.79,117.93,81.65,156.49,356.07,Single-ply,SBD,M,
Boys,59.87,2,Joseph Hester,Abilene,58.51,120.2,68.04,133.81,322.05,Single-ply,SBD,M,
Boys,59.87,DQ,Jaxon Peacock,Abilene Wylie,59.78,,,,,Single-ply,SBD,M,
Boys,67.13,1,Landry Carlton,Abilene Wylie,65.68,179.17,111.13,179.17,469.47,Single-ply,SBD,M,
Boys,67.13,2,Mikei Flye,Abilene Cooper,66.59,185.97,104.33,176.9,467.2,Single-ply,SBD,M,
Boys,67.13,3,Cameron Herron,Abilene Cooper,62.23,154.22,88.45,167.83,410.5,Single-ply,SBD,M,
Boys,67.13,4,Bobby Thomas,Abilene Cooper,67.13,149.69,65.77,176.9,392.36,Single-ply,SBD,M,
Boys,74.84,1,Nimfasha Olivier,Abilene Cooper,73.12,188.24,92.99,195.04,476.27,Single-ply,SBD,M,
Boys,74.84,2,Dayvian Smith,Abilene Cooper,68.95,156.49,72.57,163.29,392.36,Single-ply,SBD,M,
Boys,82.1,1,Austin Baron,Abilene Wylie,80.74,217.72,124.74,208.65,551.11,Single-ply,SBD,M,
Boys,82.1,2,Nathan Tiner,Abilene Wylie,79.92,192.78,124.74,210.92,528.44,Single-ply,SBD,M,
Boys,82.1,3,Luke Castaneda,Abilene,82.1,195.04,111.13,176.9,483.08,Single-ply,SBD,M,
Boys,82.1,4,Tyler Mansker,Abilene Cooper,78.47,176.9,95.25,192.78,464.93,Single-ply,SBD,M,
Boys,82.1,5,Maison Dickinson,Abilene,82.1,158.76,104.33,158.76,421.84,Single-ply,SBD,M,
Boys,82.1,6,Robby Vermillion,Abilene Cooper,75.75,170.1,95.25,147.42,412.77,Single-ply,SBD,M,
Boys,82.1,DQ,Stellon Wright,Abilene Wylie,81.28,224.53,,,,Single-ply,SBD,M,
Boys,82.1,DQ,Johnathan Vanwinkle,Abilene Cooper,80.42,,,,,Single-ply,SBD,M,
Boys,89.81,1,Jacob Deax,Abilene Cooper,88.86,204.12,120.2,226.8,551.11,Single-ply,SBD,M,
Boys,89.81,2,Lorenzo Vasquez,Abilene Cooper,84.82,158.76,113.4,183.7,455.86,Single-ply,SBD,M,
Boys,99.79,1,Jaxon Camacho,Abilene Wylie,93.89,219.99,138.35,226.8,585.13,Single-ply,SBD,M,
Boys,99.79,2,Kade Kitchens,Abilene Wylie,96.98,170.1,120.2,176.9,467.2,Single-ply,SBD,M,
Boys,99.79,3,Tyson Moore,Abilene,92.53,172.37,106.59,185.97,464.93,Single-ply,SBD,M,
Boys,99.79,4,Jackson Wilson,Abilene,91.63,176.9,99.79,183.7,460.4,Single-ply,SBD,M,
Boys,99.79,5,Zach Wisdom,Abilene Wylie,92.44,170.1,120.2,170.1,460.4,Single-ply,SBD,M,
Boys,109.77,1,Miguel Silva,Abilene Cooper,109.77,217.72,106.59,204.12,528.44,Single-ply,SBD,M,
Boys,109.77,2,Ryan Johnson,Abilene,105.69,215.46,102.06,195.04,512.56,Single-ply,SBD,M,
Boys,109.77,3,Jayden Dimas,Abilene Cooper,107.95,170.1,95.25,185.97,451.32,Single-ply,SBD,M,
Boys,109.77,DQ,Jagger Burnett,Abilene Wylie,104.96,,,,,Single-ply,SBD,M,
Boys,124.74,1,Jaxon Lunsford,Abilene Wylie,115.94,249.48,158.76,254.01,662.24,Single-ply,SBD,M,
Boys,124.74,2,Jamie Rodriguez,Abilene,120.2,256.28,129.27,215.46,601.01,Single-ply,SBD,M,
Boys,124.74,3,Bradley Byrne,Abilene,113.4,244.94,122.47,229.06,596.47,Single-ply,SBD,M,
Boys,124.74,4,Julian Garcia,Abilene,117.03,240.4,136.08,199.58,576.06,Single-ply,SBD,M,
Boys,124.74,5,Zach Killam,Abilene,119.75,219.99,102.06,195.04,517.1,Single-ply,SBD,M,
Boys,124.74,DQ,Kaden Cutbirth,Abilene Wylie,120.29,129.27,,,,Single-ply,SBD,M,
Boys,139.71,1,X'zavier Collins,Abilene Wylie,129.73,256.28,174.63,231.33,662.24,Single-ply,SBD,M,
Boys,139.71,2,Elie Casarez,Abilene Cooper,139.62,204.12,104.33,183.7,492.15,Single-ply,SBD,M,
Boys,139.71,3,Jay Smith #5,Abilene Cooper,135.26,197.31,117.93,163.29,478.54,Single-ply,SBD,M,
Boys,139.71+,1,Isaiah Valenzuela,Abilene Cooper,166.6,142.88,106.59,183.7,433.18,Single-ply,SBD,M,
